Time	SOD	Volt	Current	Temp	Signal	Latitude	Longitude	CellID	Power	Distance
1408225637276	96	4178898	336900	325	9	37.44861122	-122.16303212	4791829	1.4078707362e+12	12.7913028563
1408225637278	96	4167681	464200	324	9	37.44861122	-122.16303212	4791829	1.9346375202e+12	12.7913028563
1408225637296	96	4180374	452300	324	9	37.44861122	-122.16303212	4791829	1.8907831602e+12	12.7913028563
1408225637317	96	4187754	346500	325	9	37.44861122	-122.16303212	4791829	1.451056761e+12	12.7913028563
1408225637337	96	4189524	283600	325	9	37.44861122	-122.16303212	4791829	1.1881490064e+12	12.7913028563
1408225637389	96	4189230	254700	325	9	37.44861122	-122.16303212	4791829	1.066996881e+12	12.7913028563
1408225637408	96	4192476	277900	325	9	37.44861122	-122.16303212	4791829	1.1650890804e+12	12.7913028563
1408225637430	96	4193952	250800	325	9	37.44861122	-122.16303212	4791829	1.0518431616e+12	12.7913028563
1408225637452	96	4197201	257500	325	9	37.44861122	-122.16303212	4791829	1.0807792575e+12	12.7913028563
1408225637486	96	4195428	253100	325	9	37.44861122	-122.16303212	4791829	1.0618628268e+12	12.7913028563
1408225637533	96	4194543	285300	325	9	37.44861122	-122.16303212	4791829	1.1967031179e+12	12.7913028563
1408225637555	96	4199265	253600	325	9	37.44861122	-122.16303212	4791829	1.064933604e+12	12.7913028563
1408225637577	96	4197792	253600	325	9	37.44861122	-122.16303212	4791829	1.0645600512e+12	12.7913028563
1408225637598	96	4196019	250800	325	9	37.44861122	-122.16303212	4791829	1.0523615652e+12	12.7913028563
1408225637637	96	4193952	276200	324	9	37.44861122	-122.16303212	4791829	1.1583695424e+12	12.7913028563
1408225637680	96	4196019	274600	325	9	37.44861122	-122.16303212	4791829	1.1522268174e+12	12.7913028563
1408225637702	96	4198380	257500	325	9	37.44861122	-122.16303212	4791829	1.08108285e+12	12.7913028563
1408225637725	96	4201923	263800	325	9	37.44861122	-122.16303212	4791829	1.1084672874e+12	12.7913028563
1408225637747	96	4198380	255300	325	9	37.44861122	-122.16303212	4791829	1.071846414e+12	12.7913028563
1408225637779	96	4197201	278500	325	9	37.44861122	-122.16303212	4791829	1.1689204785e+12	12.7913028563
1408225637806	96	4172700	285800	325	9	37.44861122	-122.16303212	4791829	1.19255766e+12	12.7913028563
1408225637827	96	4189821	277900	325	9	37.44861122	-122.16303212	4791829	1.1643512559e+12	12.7913028563
1408225637846	96	4178898	308000	325	9	37.44861122	-122.16303212	4791829	1.287100584e+12	12.7913028563
1408225637880	96	4180374	351000	325	9	37.44861122	-122.16303212	4791829	1.467311274e+12	12.7913028563
1408225637898	96	4177422	389500	325	9	37.44861122	-122.16303212	4791829	1.627105869e+12	12.7913028563
1408225637917	96	4179489	245100	325	9	37.44861122	-122.16303212	4791829	1.0243927539e+12	12.7913028563
1408225637937	96	4179783	306800	325	9	37.44861122	-122.16303212	4791829	1.2823574244e+12	12.7913028563
1408225637961	96	4168566	322700	325	9	37.44861122	-122.16303212	4791829	1.3451962482e+12	12.7913028563
1408225637980	96	4179195	445500	325	9	37.44861122	-122.16303212	4791829	1.8618313725e+12	12.7913028563
1408225638003	96	4191000	285800	325	9	37.44861122	-122.16303212	4791829	1.1977878e+12	12.7913028563
1408225638024	96	4197201	271700	325	9	37.44861122	-122.16303212	4791829	1.1403795117e+12	12.7913028563
1408225638054	96	4197201	277400	325	9	37.44861122	-122.16303212	4791829	1.1643035574e+12	12.7913028563
1408225638099	96	4195725	280700	325	9	37.44861122	-122.16303212	4791829	1.1777400075e+12	12.7913028563
1408225638117	96	4174767	257500	325	9	37.44861122	-122.16303212	4791829	1.0750025025e+12	12.7913028563
1408225638137	96	4176834	325500	325	9	37.44861122	-122.16303212	4791829	1.359559467e+12	12.7913028563
1408225638157	96	4178307	324300	325	9	37.44861122	-122.16303212	4791829	1.3550249601e+12	12.7913028563
1408225638181	96	4168566	267200	325	9	37.44861122	-122.16303212	4791829	1.1138408352e+12	12.7913028563
1408225638198	96	4182147	365700	325	9	37.44861122	-122.16303212	4791829	1.5294111579e+12	12.7913028563
1408225638217	96	4177719	253600	325	9	37.44861122	-122.16303212	4791829	1.0594695384e+12	12.7913028563
1408225638237	96	4178898	292600	325	9	37.44861122	-122.16303212	4791829	1.2227455548e+12	12.7913028563
1408225638261	96	4176834	317600	325	9	37.44861122	-122.16303212	4791829	1.3265624784e+12	12.7913028563
1408225638279	96	4174767	464200	325	9	37.44861122	-122.16303212	4791829	1.9379268414e+12	12.7913028563
1408225638297	96	4184508	447800	325	9	37.44861122	-122.16303212	4791829	1.8738226824e+12	12.7913028563
1408225638318	96	4189524	272900	325	9	37.44861122	-122.16303212	4791829	1.1433210996e+12	12.7913028563
1408225638354	96	4190115	301700	325	9	37.44861122	-122.16303212	4791829	1.2641576955e+12	12.7913028563
1408225638395	96	4195428	278500	325	9	37.44861122	-122.16303212	4791829	1.168426698e+12	12.7913028563
1408225638413	96	4189230	366300	325	9	37.44861122	-122.16303212	4791829	1.534514949e+12	12.7913028563
1408225638433	96	4184211	300000	325	9	37.44861122	-122.16303212	4791829	1.2552633e+12	12.7913028563
1408225638450	96	4189230	290900	325	9	37.44861122	-122.16303212	4791829	1.218647007e+12	12.7913028563
1408225638478	96	4170339	306300	325	9	37.44861122	-122.16303212	4791829	1.2773748357e+12	12.7913028563
1408225638498	96	4178604	336900	325	9	37.44861122	-122.16303212	4791829	1.4077716876e+12	12.7913028563
1408225638516	96	4174767	293200	325	9	37.44861122	-122.16303212	4791829	1.2240416844e+12	12.7913028563
1408225638536	96	4183917	325000	325	9	37.44861122	-122.16303212	4791829	1.359773025e+12	12.7913028563
1408225638564	96	4168272	313600	325	9	37.44861122	-122.16303212	4791829	1.3071700992e+12	12.7913028563
1408225638583	96	4189524	286500	325	9	37.44861122	-122.16303212	4791829	1.200298626e+12	12.7913028563
1408225638603	96	4196019	313600	325	9	37.44861122	-122.16303212	4791829	1.3158715584e+12	12.7913028563
1408225638624	96	4193658	279700	325	9	37.44861122	-122.16303212	4791829	1.1729661426e+12	12.7913028563
1408225638663	96	4189524	300600	325	9	37.44861122	-122.16303212	4791829	1.2593709144e+12	12.7913028563
1408225638698	96	4194249	288700	325	9	37.44861122	-122.16303212	4791829	1.2108796863e+12	12.7913028563
1408225638717	96	4174176	301700	325	9	37.44861122	-122.16303212	4791829	1.2593488992e+12	12.7913028563
1408225638735	96	4181556	305100	325	9	37.44861122	-122.16303212	4791829	1.2757927356e+12	12.7913028563
1408225638754	96	4189230	308000	325	9	37.44861122	-122.16303212	4791829	1.29028284e+12	12.7913028563
1408225638784	96	4171224	328900	325	9	37.44861122	-122.16303212	4791829	1.3719155736e+12	12.7913028563
1408225638801	96	4189230	321500	325	9	37.44861122	-122.16303212	4791829	1.346837445e+12	12.7913028563
1408225638818	96	4173585	309600	325	9	37.44861122	-122.16303212	4791829	1.292141916e+12	12.7913028563
1408225638837	96	4179195	284700	325	9	37.44861122	-122.16303212	4791829	1.1898168165e+12	12.7913028563
1408225638861	96	4168272	347600	325	9	37.44861122	-122.16303212	4791829	1.4488913472e+12	12.7913028563
1408225638881	96	4178013	427500	325	9	37.44861122	-122.16303212	4791829	1.7861005575e+12	12.7913028563
1408225638901	96	4188936	299500	325	9	37.44861122	-122.16303212	4791829	1.254586332e+12	12.7913028563
1408225638921	96	4194543	295500	325	9	37.44861122	-122.16303212	4791829	1.2394874565e+12	12.7913028563
1408225638954	96	4191888	298400	325	9	37.44861122	-122.16303212	4791829	1.2508593792e+12	12.7913028563
1408225638996	96	4194249	290900	325	9	37.44861122	-122.16303212	4791829	1.2201070341e+12	12.7913028563
1408225639015	96	4184211	383200	325	9	37.44861122	-122.16303212	4791829	1.6033896552e+12	12.7913028563
1408225639034	96	4186869	298400	325	9	37.44861122	-122.16303212	4791829	1.2493617096e+12	12.7913028563
1408225639051	96	4188936	313600	325	9	37.44861122	-122.16303212	4791829	1.3136503296e+12	12.7913028563
1408225639080	96	4171518	307300	325	9	37.44861122	-122.16303212	4791829	1.2819074814e+12	12.7913028563
1408225639099	96	4178013	360000	325	9	37.44861122	-122.16303212	4791829	1.50408468e+12	12.7913028563
1408225639116	96	4170042	335700	325	9	37.44861122	-122.16303212	4791829	1.3998830994e+12	12.7913028563
1408225639137	96	4175652	309100	325	9	37.44861122	-122.16303212	4791829	1.2906940332e+12	12.7913028563
1408225639162	96	4166205	333400	325	9	37.44861122	-122.16303212	4791829	1.389012747e+12	12.7913028563
1408225639180	96	4185393	451800	325	9	37.44861122	-122.16303212	4791829	1.8909605574e+12	12.7913028563
1408225639199	96	4188345	298400	325	9	37.44861122	-122.16303212	4791829	1.249802148e+12	12.7913028563
1408225639220	96	4189821	297200	325	9	37.44861122	-122.16303212	4791829	1.2452148012e+12	12.7913028563
1408225639254	96	4188051	322200	325	9	37.44861122	-122.16303212	4791829	1.3493900322e+12	12.7913028563
1408225639335	96	4194249	282500	325	9	37.44861122	-122.16303212	4791829	1.1848753425e+12	12.7913028563
1408225639354	96	4167681	466500	325	9	37.44861122	-122.16303212	4791829	1.9442231865e+12	12.7913028563
1408225639355	96	4167681	466500	325	9	37.44850083	-122.16314882	4791829	1.9442231865e+12	28.8143316945
1408225639371	96	4156170	523700	325	9	37.44850083	-122.16314882	4791829	2.176586229e+12	28.8143316945
1408225639389	96	4181259	377100	325	9	37.44850083	-122.16314882	4791829	1.5767527689e+12	28.8143316945
1408225639408	96	4160598	354900	325	9	37.44850083	-122.16314882	4791829	1.4765962302e+12	28.8143316945
1408225639426	96	4174767	499400	325	9	37.44850083	-122.16314882	4791829	2.0848786398e+12	28.8143316945
1408225639443	96	4175946	371400	325	9	37.44850083	-122.16314882	4791829	1.5509463444e+12	28.8143316945
1408225639461	96	4181850	361700	325	9	37.44850083	-122.16314882	4791829	1.512575145e+12	28.8143316945
1408225639479	96	4177719	357200	325	9	37.44850083	-122.16314882	4791829	1.4922812268e+12	28.8143316945
1408225639498	96	4183623	518100	325	9	37.44850083	-122.16314882	4791829	2.1675350763e+12	28.8143316945
1408225639516	96	4185099	319900	325	9	37.44850083	-122.16314882	4791829	1.3388131701e+12	28.8143316945
1408225639534	96	4183623	327800	325	9	37.44850083	-122.16314882	4791829	1.3713916194e+12	28.8143316945
1408225639558	96	4191888	321000	325	9	37.44850083	-122.16314882	4791829	1.345596048e+12	28.8143316945
1408225639596	96	4188345	348800	325	9	37.44850083	-122.16314882	4791829	1.460894736e+12	28.8143316945
1408225639616	96	4191000	315300	325	9	37.44850083	-122.16314882	4791829	1.3214223e+12	28.8143316945
1408225639635	96	4186869	302300	325	9	37.44850083	-122.16314882	4791829	1.2656904987e+12	28.8143316945
1408225639673	96	4189230	302800	325	9	37.44850083	-122.16314882	4791829	1.268498844e+12	28.8143316945
1408225639706	96	4193658	253100	325	9	37.44850083	-122.16314882	4791829	1.0614148398e+12	28.8143316945
1408225639751	96	4191000	284200	325	9	37.44850083	-122.16314882	4791829	1.1910822e+12	28.8143316945
1408225639768	96	4180374	306300	325	9	37.44850083	-122.16314882	4791829	1.2804485562e+12	28.8143316945
1408225639787	96	4179489	290900	325	9	37.44850083	-122.16314882	4791829	1.2158133501e+12	28.8143316945
1408225639807	96	4180671	257500	325	9	37.44850083	-122.16314882	4791829	1.0765227825e+12	28.8143316945
1408225639831	96	4165911	294400	325	9	37.44850083	-122.16314882	4791829	1.2264441984e+12	28.8143316945
1408225639848	96	4177719	347600	325	9	37.44850083	-122.16314882	4791829	1.4521751244e+12	28.8143316945
1408225639867	96	4179783	244000	325	9	37.44850083	-122.16314882	4791829	1.019867052e+12	28.8143316945
1408225639887	96	4180080	291600	325	9	37.44850083	-122.16314882	4791829	1.218911328e+12	28.8143316945
1408225639911	96	4181556	317600	325	9	37.44850083	-122.16314882	4791829	1.3280621856e+12	28.8143316945
1408225639930	96	4172700	467700	325	9	37.44850083	-122.16314882	4791829	1.95157179e+12	28.8143316945
1408225639949	96	4187754	307300	325	9	37.44850083	-122.16314882	4791829	1.2868968042e+12	28.8143316945
1408225639970	96	4191591	263800	325	9	37.44850083	-122.16314882	4791829	1.1057417058e+12	28.8143316945
1408225640004	96	4191297	294400	325	9	37.44850083	-122.16314882	4791829	1.2339178368e+12	28.8143316945
1408225640047	96	4193658	281900	325	9	37.44850083	-122.16314882	4791829	1.1821921902e+12	28.8143316945
1408225640067	96	4178898	244000	325	9	37.44850083	-122.16314882	4791829	1.019651112e+12	28.8143316945
1408225640087	96	4181259	277900	325	9	37.44850083	-122.16314882	4791829	1.1619718761e+12	28.8143316945
1408225640106	96	4180080	337400	325	9	37.44850083	-122.16314882	4791829	1.410358992e+12	28.8143316945
1408225640133	96	4165320	354900	325	9	37.44850083	-122.16314882	4791829	1.478272068e+12	28.8143316945
1408225640150	96	4185099	315900	325	9	37.44850083	-122.16314882	4791829	1.3220727741e+12	28.8143316945
1408225640168	96	4177719	302800	325	9	37.44850083	-122.16314882	4791829	1.2650133132e+12	28.8143316945
1408225640187	96	4178604	312500	325	9	37.44850083	-122.16314882	4791829	1.30581375e+12	28.8143316945
1408225640214	96	4177422	285300	325	9	37.44850083	-122.16314882	4791829	1.1918184966e+12	28.8143316945
1408225640233	96	4180080	393400	325	9	37.44850083	-122.16314882	4791829	1.644443472e+12	28.8143316945
1408225640255	96	4184508	338500	325	9	37.44850083	-122.16314882	4791829	1.416455958e+12	28.8143316945
1408225640280	96	4188639	289300	325	9	37.44850083	-122.16314882	4791829	1.2117732627e+12	28.8143316945
1408225640313	96	4189230	315900	325	9	37.44850083	-122.16314882	4791829	1.323377757e+12	28.8143316945
1408225640372	96	4187163	319200	326	9	37.44850083	-122.16314882	4791829	1.3365424296e+12	28.8143316945
1408225640389	96	4183032	345300	325	9	37.44850083	-122.16314882	4791829	1.4444009496e+12	28.8143316945
1408225640407	96	4184211	341900	325	9	37.44850083	-122.16314882	4791829	1.4305817409e+12	28.8143316945
1408225640424	96	4181556	341400	325	9	37.44850083	-122.16314882	4791829	1.4275832184e+12	28.8143316945
1408225640445	96	4174470	372500	326	9	37.44850083	-122.16314882	4791829	1.554990075e+12	28.8143316945
1408225640475	96	4172994	436400	326	9	37.44850083	-122.16314882	4791829	1.8210945816e+12	28.8143316945
1408225640492	96	4181259	341900	325	9	37.44850083	-122.16314882	4791829	1.4295724521e+12	28.8143316945
1408225640510	96	4183032	353800	325	9	37.44850083	-122.16314882	4791829	1.4799567216e+12	28.8143316945
1408225640527	96	4182735	361700	325	9	37.44850083	-122.16314882	4791829	1.5128952495e+12	28.8143316945
1408225640567	96	4185984	358400	325	9	37.44850083	-122.16314882	4791829	1.5002566656e+12	28.8143316945
1408225640611	96	4194840	283000	325	9	37.44850083	-122.16314882	4791829	1.18713972e+12	28.8143316945
1408225640635	96	4199562	258100	325	9	37.44850083	-122.16314882	4791829	1.0839069522e+12	28.8143316945
1408225640661	96	4196904	260400	325	9	37.44850083	-122.16314882	4791829	1.0928738016e+12	28.8143316945
1408225640684	96	4200447	268300	325	9	37.44850083	-122.16314882	4791829	1.1269799301e+12	28.8143316945
1408225640721	96	4194249	285300	325	9	37.44850083	-122.16314882	4791829	1.1966192397e+12	28.8143316945
1408225640751	96	4172994	294900	325	9	37.44850083	-122.16314882	4791829	1.2306159306e+12	28.8143316945
1408225640772	96	4187163	379900	325	9	37.44850083	-122.16314882	4791829	1.5907032237e+12	28.8143316945
1408225640788	96	4182147	345300	325	9	37.44850083	-122.16314882	4791829	1.4440953591e+12	28.8143316945
1408225640818	96	4180374	309100	325	9	37.44850083	-122.16314882	4791829	1.2921536034e+12	28.8143316945
1408225640837	96	4176834	406500	325	9	37.44850083	-122.16314882	4791829	1.697883021e+12	28.8143316945
1408225640857	96	4180374	336200	325	9	37.44850083	-122.16314882	4791829	1.4054417388e+12	28.8143316945
1408225640877	96	4180080	258100	325	9	37.44850083	-122.16314882	4791829	1.078878648e+12	28.8143316945
1408225640900	96	4180374	312500	325	9	37.44850083	-122.16314882	4791829	1.306366875e+12	28.8143316945
1408225640918	96	4175358	472100	325	9	37.44850083	-122.16314882	4791829	1.9711865118e+12	28.8143316945
1408225640937	96	4176537	328900	325	9	37.44850083	-122.16314882	4791829	1.3736630193e+12	28.8143316945
1408225640959	96	4187163	277900	325	9	37.44850083	-122.16314882	4791829	1.1636125977e+12	28.8143316945
1408225640992	96	4189230	301700	325	9	37.44850083	-122.16314882	4791829	1.263890691e+12	28.8143316945
1408225641017	96	4187460	321000	325	9	37.44850083	-122.16314882	4791829	1.34417466e+12	28.8143316945
1408225641038	96	4189230	275100	325	9	37.44850083	-122.16314882	4791829	1.152457173e+12	28.8143316945
1408225641060	96	4194543	260400	325	9	37.44850083	-122.16314882	4791829	1.0922589972e+12	28.8143316945
1408225641082	96	4196316	255900	325	9	37.44850083	-122.16314882	4791829	1.0738372644e+12	28.8143316945
1408225641117	96	4190115	300600	325	9	37.44850083	-122.16314882	4791829	1.259548569e+12	28.8143316945
1408225641167	96	4191888	302800	325	9	37.44850083	-122.16314882	4791829	1.2693036864e+12	28.8143316945
1408225641189	96	4194840	284200	325	9	37.44850083	-122.16314882	4791829	1.192173528e+12	28.8143316945
1408225641209	96	4193067	261000	325	9	37.44850083	-122.16314882	4791829	1.094390487e+12	28.8143316945
1408225641243	96	4197792	249600	325	9	37.44850083	-122.16314882	4791829	1.0477688832e+12	28.8143316945
1408225641299	96	4197792	249600	325	9	37.448378	-122.16326845	4791829	1.0477688832e+12	46.0740207901
1408225641300	96	4194840	300600	325	9	37.448378	-122.16326845	4791829	1.260968904e+12	46.0740207901
1408225641315	96	4169454	453500	325	9	37.448378	-122.16326845	4791829	1.890847389e+12	46.0740207901
1408225641333	96	4187163	309100	326	9	37.448378	-122.16326845	4791829	1.2942520833e+12	46.0740207901
1408225641351	96	4186575	343700	325	9	37.448378	-122.16326845	4791829	1.4389258275e+12	46.0740207901
1408225641383	96	4174767	312500	326	9	37.448378	-122.16326845	4791829	1.3046146875e+12	46.0740207901
1408225641400	96	4189230	312500	326	9	37.448378	-122.16326845	4791829	1.309134375e+12	46.0740207901
1408225641418	96	4180965	302300	326	9	37.448378	-122.16326845	4791829	1.2639057195e+12	46.0740207901
1408225641436	96	4179195	293800	326	9	37.448378	-122.16326845	4791829	1.227847491e+12	46.0740207901
1408225641463	96	4168272	457400	325	9	37.448378	-122.16326845	4791829	1.9065676128e+12	46.0740207901
1408225641480	96	4188051	301200	325	9	37.448378	-122.16326845	4791829	1.2614409612e+12	46.0740207901
1408225641499	96	4193067	287000	325	9	37.448378	-122.16326845	4791829	1.203410229e+12	46.0740207901
1408225641519	96	4190412	265500	325	9	37.448378	-122.16326845	4791829	1.112554386e+12	46.0740207901
1408225641554	96	4191591	277400	325	9	37.448378	-122.16326845	4791829	1.1627473434e+12	46.0740207901
1408225641596	96	4194840	285300	325	9	37.448378	-122.16326845	4791829	1.196787852e+12	46.0740207901
1408225641617	96	4180374	253600	326	9	37.448378	-122.16326845	4791829	1.0601428464e+12	46.0740207901
1408225641637	96	4179489	283000	326	9	37.448378	-122.16326845	4791829	1.182795387e+12	46.0740207901
1408225641656	96	4179489	338500	326	9	37.448378	-122.16326845	4791829	1.4147570265e+12	46.0740207901
1408225641681	96	4171224	266600	325	9	37.448378	-122.16326845	4791829	1.1120483184e+12	46.0740207901
1408225641698	96	4178898	342500	326	9	37.448378	-122.16326845	4791829	1.431272565e+12	46.0740207901
1408225641717	96	4180965	269400	326	9	37.448378	-122.16326845	4791829	1.126351971e+12	46.0740207901
1408225641737	96	4179489	277400	326	9	37.448378	-122.16326845	4791829	1.1593902486e+12	46.0740207901
1408225641770	96	4178604	260400	326	9	37.448378	-122.16326845	4791829	1.0881084816e+12	46.0740207901
1408225641788	96	4180671	349800	326	9	37.448378	-122.16326845	4791829	1.4623987158e+12	46.0740207901
1408225641808	96	4191000	265500	326	9	37.448378	-122.16326845	4791829	1.1127105e+12	46.0740207901
1408225641828	96	4192773	267800	326	9	37.448378	-122.16326845	4791829	1.1228246094e+12	46.0740207901
1408225641865	96	4195725	285300	325	9	37.448378	-122.16326845	4791829	1.1970403425e+12	46.0740207901
1408225641901	96	4193952	283600	326	9	37.448378	-122.16326845	4791829	1.1894047872e+12	46.0740207901
1408225641918	96	4178898	301700	326	9	37.448378	-122.16326845	4791829	1.2607735266e+12	46.0740207901
1408225641935	96	4189821	296100	326	9	37.448378	-122.16326845	4791829	1.2406059981e+12	46.0740207901
1408225641953	96	4188639	319200	326	9	37.448378	-122.16326845	4791829	1.3370135688e+12	46.0740207901
1408225641984	96	4170339	341900	326	9	37.448378	-122.16326845	4791829	1.4258389041e+12	46.0740207901
1408225642001	96	4188345	318200	326	9	37.448378	-122.16326845	4791829	1.332731379e+12	46.0740207901
1408225642017	96	4179783	302800	326	9	37.448378	-122.16326845	4791829	1.2656382924e+12	46.0740207901
1408225642036	96	4186278	280200	326	9	37.448378	-122.16326845	4791829	1.1729950956e+12	46.0740207901
1408225642062	96	4167093	340200	325	9	37.448378	-122.16326845	4791829	1.4176450386e+12	46.0740207901
1408225642077	96	4187460	412100	326	9	37.448378	-122.16326845	4791829	1.725652266e+12	46.0740207901
1408225642101	96	4189524	327200	325	9	37.448378	-122.16326845	4791829	1.3708122528e+12	46.0740207901
1408225642121	96	4189821	283000	326	9	37.448378	-122.16326845	4791829	1.185719343e+12	46.0740207901
1408225642154	96	4191591	283000	326	9	37.448378	-122.16326845	4791829	1.186220253e+12	46.0740207901
1408225642198	96	4193067	294400	326	9	37.448378	-122.16326845	4791829	1.2344389248e+12	46.0740207901
1408225642217	96	4187754	270600	326	9	37.448378	-122.16326845	4791829	1.1332062324e+12	46.0740207901
1408225642236	96	4188639	290400	326	9	37.448378	-122.16326845	4791829	1.2163807656e+12	46.0740207901
1408225642254	96	4188345	351600	326	9	37.448378	-122.16326845	4791829	1.472622102e+12	46.0740207901
1408225642276	96	4167387	383800	325	9	37.448378	-122.16326845	4791829	1.5994431306e+12	46.0740207901
1408225642292	96	4167681	467700	326	9	37.448378	-122.16326845	4791829	1.9492244037e+12	46.0740207901
1408225642308	96	4173291	445500	326	9	37.448378	-122.16326845	4791829	1.8592011405e+12	46.0740207901
1408225642327	96	4177128	285800	326	9	37.448378	-122.16326845	4791829	1.1938231824e+12	46.0740207901
1408225642351	96	4178013	323200	326	9	37.448378	-122.16326845	4791829	1.3503338016e+12	46.0740207901
1408225642370	96	4178604	463100	326	9	37.448378	-122.16326845	4791829	1.9351115124e+12	46.0740207901
1408225642388	96	4180080	343700	326	9	37.448378	-122.16326845	4791829	1.436693496e+12	46.0740207901
1408225642408	96	4190412	263800	326	9	37.448378	-122.16326845	4791829	1.1054306856e+12	46.0740207901
1408225642440	96	4192476	283600	326	9	37.448378	-122.16326845	4791829	1.1889861936e+12	46.0740207901
1408225642465	96	4187460	321500	326	9	37.448378	-122.16326845	4791829	1.34626839e+12	46.0740207901
1408225642485	96	4196019	265000	326	9	37.448378	-122.16326845	4791829	1.111945035e+12	46.0740207901
1408225642507	96	4195725	283600	326	9	37.448378	-122.16326845	4791829	1.18990761e+12	46.0740207901
1408225642528	96	4196610	261500	326	9	37.448378	-122.16326845	4791829	1.097413515e+12	46.0740207901
1408225642564	96	4192773	280700	326	9	37.448378	-122.16326845	4791829	1.1769113811e+12	46.0740207901
1408225642604	96	4174767	284700	326	9	37.448378	-122.16326845	4791829	1.1885561649e+12	46.0740207901
1408225642623	96	4190115	342500	326	9	37.448378	-122.16326845	4791829	1.4351143875e+12	46.0740207901
1408225642640	96	4189821	287600	326	9	37.448378	-122.16326845	4791829	1.2049925196e+12	46.0740207901
1408225642670	96	4179783	306300	326	9	37.448378	-122.16326845	4791829	1.2802675329e+12	46.0740207901
1408225642688	96	4177422	395100	326	9	37.448378	-122.16326845	4791829	1.6504994322e+12	46.0740207901
1408225642706	96	4179195	362900	326	9	37.448378	-122.16326845	4791829	1.5166298655e+12	46.0740207901
1408225642726	96	4179489	261500	326	9	37.448378	-122.16326845	4791829	1.0929363735e+12	46.0740207901
1408225642750	96	4188936	296600	326	9	37.448378	-122.16326845	4791829	1.2424384176e+12	46.0740207901
1408225642768	96	4176537	446700	326	9	37.448378	-122.16326845	4791829	1.8656590779e+12	46.0740207901
1408225642787	96	4178898	308500	326	9	37.448378	-122.16326845	4791829	1.289190033e+12	46.0740207901
1408225642810	96	4190412	265000	326	9	37.448378	-122.16326845	4791829	1.11045918e+12	46.0740207901
1408225642845	96	4192182	283600	326	9	37.448378	-122.16326845	4791829	1.1889028152e+12	46.0740207901
1408225642882	96	4195428	276200	326	9	37.448378	-122.16326845	4791829	1.1587772136e+12	46.0740207901
1408225642904	96	4201629	266600	326	9	37.448378	-122.16326845	4791829	1.1201542914e+12	46.0740207901
1408225642926	96	4196904	241200	326	9	37.448378	-122.16326845	4791829	1.0122932448e+12	46.0740207901
1408225642947	96	4197792	258700	326	9	37.448378	-122.16326845	4791829	1.0859687904e+12	46.0740207901
1408225642986	96	4196019	242300	326	9	37.448378	-122.16326845	4791829	1.0166954037e+12	46.0740207901
1408225643026	96	4195725	277900	326	9	37.448378	-122.16326845	4791829	1.1659919775e+12	46.0740207901
1408225643048	96	4197792	261500	326	9	37.448378	-122.16326845	4791829	1.097722608e+12	46.0740207901
1408225643071	96	4196316	244500	326	9	37.448378	-122.16326845	4791829	1.025999262e+12	46.0740207901
1408225643093	96	4199265	247300	326	9	37.448378	-122.16326845	4791829	1.0384782345e+12	46.0740207901
1408225643127	96	4194543	300000	326	9	37.448378	-122.16326845	4791829	1.2583629e+12	46.0740207901
1408225643175	96	4193952	291600	326	9	37.448378	-122.16326845	4791829	1.2229564032e+12	46.0740207901
1408225643197	96	4195134	264300	326	9	37.448378	-122.16326845	4791829	1.1087739162e+12	46.0740207901
1408225643221	96	4198380	255300	326	9	37.448378	-122.16326845	4791829	1.071846414e+12	46.0740207901
1408225643242	96	4201332	245600	326	9	37.448378	-122.16326845	4791829	1.0318471392e+12	46.0740207901
1408225643283	96	4195428	281900	326	9	37.448378	-122.16326845	4791829	1.1826911532e+12	46.0740207901
1408225643304	96	4195428	281900	326	9	37.44824474	-122.16339478	4791829	1.1826911532e+12	64.6132095877
1408225643308	96	4170930	424000	326	9	37.44824474	-122.16339478	4791829	1.76847432e+12	64.6132095877
1408225643324	96	4169157	450100	326	9	37.44824474	-122.16339478	4791829	1.8765375657e+12	64.6132095877
1408225643343	96	4188936	310800	327	9	37.44824474	-122.16339478	4791829	1.3019213088e+12	64.6132095877
1408225643371	96	4179783	309600	326	9	37.44824474	-122.16339478	4791829	1.2940608168e+12	64.6132095877
1408225643387	96	4177422	462000	327	9	37.44824474	-122.16339478	4791829	1.929968964e+12	64.6132095877
1408225643407	96	4178898	352600	326	9	37.44824474	-122.16339478	4791829	1.4734794348e+12	64.6132095877
1408225643427	96	4180080	268300	326	9	37.44824474	-122.16339478	4791829	1.121515464e+12	64.6132095877
1408225643450	96	4180374	317600	326	9	37.44824474	-122.16339478	4791829	1.3276867824e+12	64.6132095877
1408225643468	96	4176537	459100	326	9	37.44824474	-122.16339478	4791829	1.9174481367e+12	64.6132095877
1408225643487	96	4179195	312500	327	9	37.44824474	-122.16339478	4791829	1.3059984375e+12	64.6132095877
1408225643509	96	4189524	262000	326	9	37.44824474	-122.16339478	4791829	1.097655288e+12	64.6132095877
1408225643542	96	4190115	281300	326	9	37.44824474	-122.16339478	4791829	1.1786793495e+12	64.6132095877
1408225643567	96	4189524	317000	326	9	37.44824474	-122.16339478	4791829	1.328079108e+12	64.6132095877
1408225643588	96	4192773	276800	326	9	37.44824474	-122.16339478	4791829	1.1605595664e+12	64.6132095877
1408225643611	96	4197201	249100	326	9	37.44824474	-122.16339478	4791829	1.0455227691e+12	64.6132095877
1408225643634	96	4200153	266000	326	9	37.44824474	-122.16339478	4791829	1.117240698e+12	64.6132095877
1408225643707	96	4195725	249600	326	9	37.44824474	-122.16339478	4791829	1.04725296e+12	64.6132095877
1408225643727	96	4197495	259200	326	9	37.44824474	-122.16339478	4791829	1.087990704e+12	64.6132095877
1408225643748	96	4196610	266600	326	9	37.44824474	-122.16339478	4791829	1.118816226e+12	64.6132095877
1408225643771	96	4196610	246300	326	9	37.44824474	-122.16339478	4791829	1.033625043e+12	64.6132095877
1408225643806	96	4197495	245600	326	9	37.44824474	-122.16339478	4791829	1.030904772e+12	64.6132095877
1408225643848	96	4196904	278500	327	9	37.44824474	-122.16339478	4791829	1.168837764e+12	64.6132095877
1408225643868	96	4181259	280200	327	9	37.44824474	-122.16339478	4791829	1.1715887718e+12	64.6132095877
1408225643887	96	4178604	310800	327	9	37.44824474	-122.16339478	4791829	1.2987101232e+12	64.6132095877
1408225643907	96	4181259	251300	327	9	37.44824474	-122.16339478	4791829	1.0507503867e+12	64.6132095877
1408225643933	96	4168863	375900	326	9	37.44824474	-122.16339478	4791829	1.5670756017e+12	64.6132095877
1408225643950	96	4185393	386100	327	9	37.44824474	-122.16339478	4791829	1.6159802373e+12	64.6132095877
1408225643970	96	4180374	296100	327	9	37.44824474	-122.16339478	4791829	1.2378087414e+12	64.6132095877
1408225643988	96	4180965	340800	327	9	37.44824474	-122.16339478	4791829	1.424872872e+12	64.6132095877
1408225644020	96	4182735	248500	326	9	37.44824474	-122.16339478	4791829	1.0394096475e+12	64.6132095877
1408225644038	96	4177422	360600	326	9	37.44824474	-122.16339478	4791829	1.5063783732e+12	64.6132095877
1408225644059	96	4192182	262000	327	9	37.44824474	-122.16339478	4791829	1.098351684e+12	64.6132095877
1408225644081	96	4191000	279700	326	9	37.44824474	-122.16339478	4791829	1.1722227e+12	64.6132095877
1408225644115	96	4192476	265000	326	9	37.44824474	-122.16339478	4791829	1.11100614e+12	64.6132095877
1408225644151	96	4194249	294900	326	9	37.44824474	-122.16339478	4791829	1.2368840301e+12	64.6132095877
1408225644170	96	4178604	333400	326	9	37.44824474	-122.16339478	4791829	1.3931465736e+12	64.6132095877
1408225644188	96	4178898	362300	327	9	37.44824474	-122.16339478	4791829	1.5140147454e+12	64.6132095877
1408225644208	96	4177422	283600	327	9	37.44824474	-122.16339478	4791829	1.1847168792e+12	64.6132095877
1408225644231	96	4172109	281300	326	9	37.44824474	-122.16339478	4791829	1.1736142617e+12	64.6132095877
1408225644250	96	4178013	383200	326	9	37.44824474	-122.16339478	4791829	1.6010145816e+12	64.6132095877
1408225644271	96	4178898	320400	327	9	37.44824474	-122.16339478	4791829	1.3389189192e+12	64.6132095877
1408225644292	96	4178898	362300	326	9	37.44824474	-122.16339478	4791829	1.5140147454e+12	64.6132095877
1408225644322	96	4165026	472100	327	9	37.44824474	-122.16339478	4791829	1.9663087746e+12	64.6132095877
1408225644338	96	4178307	429700	327	9	37.44824474	-122.16339478	4791829	1.7954185179e+12	64.6132095877
1408225644364	96	4184508	354400	326	9	37.44824474	-122.16339478	4791829	1.4829896352e+12	64.6132095877
1408225644387	96	4193364	292100	327	9	37.44824474	-122.16339478	4791829	1.2248816244e+12	64.6132095877
1408225644422	96	4191591	298900	326	9	37.44824474	-122.16339478	4791829	1.2528665499e+12	64.6132095877
1408225644444	96	4190115	319900	326	9	37.44824474	-122.16339478	4791829	1.3404177885e+12	64.6132095877
1408225644467	96	4193658	296100	326	9	37.44824474	-122.16339478	4791829	1.2417421338e+12	64.6132095877
1408225644491	96	4191888	290900	327	9	37.44824474	-122.16339478	4791829	1.2194202192e+12	64.6132095877
1408225644511	96	4197201	254700	326	9	37.44824474	-122.16339478	4791829	1.0690270947e+12	64.6132095877
1408225644547	96	4196904	285300	326	9	37.44824474	-122.16339478	4791829	1.1973767112e+12	64.6132095877
1408225644592	96	4192476	280200	327	9	37.44824474	-122.16339478	4791829	1.1747317752e+12	64.6132095877
1408225644613	96	4186278	356600	327	9	37.44824474	-122.16339478	4791829	1.4928267348e+12	64.6132095877
1408225644633	96	4189524	283000	327	9	37.44824474	-122.16339478	4791829	1.185635292e+12	64.6132095877
1408225644650	96	4188936	313100	327	9	37.44824474	-122.16339478	4791829	1.3115558616e+12	64.6132095877
1408225644677	96	4176834	463700	327	9	37.44824474	-122.16339478	4791829	1.9367979258e+12	64.6132095877
1408225644697	96	4179489	313600	327	9	37.44824474	-122.16339478	4791829	1.3106877504e+12	64.6132095877
1408225644717	96	4179489	253600	327	9	37.44824474	-122.16339478	4791829	1.0599184104e+12	64.6132095877
1408225644740	96	4179195	315900	327	9	37.44824474	-122.16339478	4791829	1.3202077005e+12	64.6132095877
1408225644758	96	4173882	416100	327	9	37.44824474	-122.16339478	4791829	1.7367523002e+12	64.6132095877
1408225644778	96	4177128	276800	327	9	37.44824474	-122.16339478	4791829	1.1562290304e+12	64.6132095877
1408225644801	96	4189524	272900	326	9	37.44824474	-122.16339478	4791829	1.1433210996e+12	64.6132095877
1408225644832	96	4191297	294400	327	9	37.44824474	-122.16339478	4791829	1.2339178368e+12	64.6132095877
1408225644855	96	4189524	324300	327	9	37.44824474	-122.16339478	4791829	1.3586626332e+12	64.6132095877
1408225644875	96	4195428	260400	327	9	37.44824474	-122.16339478	4791829	1.0924894512e+12	64.6132095877
1408225644900	96	4196610	273400	327	9	37.44824474	-122.16339478	4791829	1.147353174e+12	64.6132095877
1408225644921	96	4196904	255900	327	9	37.44824474	-122.16339478	4791829	1.0739877336e+12	64.6132095877
1408225644956	96	4195725	247900	327	9	37.44824474	-122.16339478	4791829	1.0401202275e+12	64.6132095877
1408225644999	96	4195725	275100	327	9	37.44824474	-122.16339478	4791829	1.1542439475e+12	64.6132095877
1408225645017	96	4180965	300600	327	9	37.44824474	-122.16339478	4791829	1.256798079e+12	64.6132095877
1408225645036	96	4179489	301200	327	9	37.44824474	-122.16339478	4791829	1.2588620868e+12	64.6132095877
1408225645060	96	4166502	451800	327	9	37.44824474	-122.16339478	4791829	1.8824256036e+12	64.6132095877
1408225645082	96	4163844	428000	327	9	37.44824474	-122.16339478	4791829	1.782125232e+12	64.6132095877
1408225645106	96	4166205	476700	327	9	37.44824474	-122.16339478	4791829	1.9860299235e+12	64.6132095877
1408225645124	96	4163550	498200	327	9	37.44824474	-122.16339478	4791829	2.07428061e+12	64.6132095877
1408225645141	96	4182441	469300	327	9	37.44824474	-122.16339478	4791829	1.9628195613e+12	64.6132095877
1408225645159	96	4173585	303400	327	9	37.44824474	-122.16339478	4791829	1.266265689e+12	64.6132095877
1408225645186	96	4168272	482400	327	9	37.44824474	-122.16339478	4791829	2.0107744128e+12	64.6132095877
1408225645205	96	4177128	348800	327	9	37.44824474	-122.16339478	4791829	1.4569822464e+12	64.6132095877
1408225645225	96	4186575	280700	327	9	37.44824474	-122.16339478	4791829	1.1751716025e+12	64.6132095877
1408225645254	96	4189524	306300	327	9	37.44824474	-122.16339478	4791829	1.2832512012e+12	64.6132095877
1408225645309	96	4189524	306300	327	9	37.44811551	-122.16352959	4791829	1.2832512012e+12	83.2682821691
1408225645310	96	4193658	291600	327	9	37.44811551	-122.16352959	4791829	1.2228706728e+12	83.2682821691
1408225645326	96	4163844	462500	327	9	37.44811551	-122.16352959	4791829	1.92577785e+12	83.2682821691
1408225645341	96	4181556	468800	327	9	37.44811551	-122.16352959	4791829	1.9603134528e+12	83.2682821691
1408225645357	96	4165026	391800	327	9	37.44811551	-122.16352959	4791829	1.6318571868e+12	83.2682821691
1408225645381	96	4163253	459700	327	9	37.44811551	-122.16352959	4791829	1.9138474041e+12	83.2682821691
1408225645397	96	4162665	481700	327	9	37.44811551	-122.16352959	4791829	2.0051557305e+12	83.2682821691
1408225645416	96	4172109	255900	327	9	37.44811551	-122.16352959	4791829	1.0676426931e+12	83.2682821691
1408225645437	96	4178307	302800	327	9	37.44811551	-122.16352959	4791829	1.2651913596e+12	83.2682821691
1408225645457	96	4180080	262700	327	9	37.44811551	-122.16352959	4791829	1.098107016e+12	83.2682821691
1408225645500	96	4165911	467700	327	9	37.44811551	-122.16352959	4791829	1.9483965747e+12	83.2682821691
1408225645518	96	4177422	351000	327	9	37.44811551	-122.16352959	4791829	1.466275122e+12	83.2682821691
1408225645537	96	4175946	300600	327	9	37.44811551	-122.16352959	4791829	1.2552893676e+12	83.2682821691
1408225645562	96	4192476	262000	327	9	37.44811551	-122.16352959	4791829	1.098428712e+12	83.2682821691
1408225645603	96	4194249	254700	327	9	37.44811551	-122.16352959	4791829	1.0682752203e+12	83.2682821691
1408225645664	96	4191591	298900	327	9	37.44811551	-122.16352959	4791829	1.2528665499e+12	83.2682821691
1408225645679	96	4166796	475600	327	9	37.44811551	-122.16352959	4791829	1.9817281776e+12	83.2682821691
1408225645694	96	4166205	462000	327	9	37.44811551	-122.16352959	4791829	1.92478671e+12	83.2682821691
1408225645714	96	4183917	424000	327	9	37.44811551	-122.16352959	4791829	1.773980808e+12	83.2682821691
1408225645745	96	4165617	428500	327	9	37.44811551	-122.16352959	4791829	1.7849668845e+12	83.2682821691
1408225645762	96	4178604	390600	327	9	37.44811551	-122.16352959	4791829	1.6321627224e+12	83.2682821691
1408225645777	96	4183032	387200	327	9	37.44811551	-122.16352959	4791829	1.6196699904e+12	83.2682821691
1408225645796	96	4176243	347600	327	9	37.44811551	-122.16352959	4791829	1.4516620668e+12	83.2682821691
1408225645821	96	4166502	276200	327	9	37.44811551	-122.16352959	4791829	1.1507878524e+12	83.2682821691
1408225645838	96	4178013	489700	327	9	37.44811551	-122.16352959	4791829	2.0459729661e+12	83.2682821691
1408225645861	96	4188639	251300	327	9	37.44811551	-122.16352959	4791829	1.0526049807e+12	83.2682821691
1408225645878	96	4188345	297200	327	9	37.44811551	-122.16352959	4791829	1.244776134e+12	83.2682821691
1408225645905	96	4186869	298900	327	9	37.44811551	-122.16352959	4791829	1.2514551441e+12	83.2682821691
1408225645963	96	4192773	293200	327	9	37.44811551	-122.16352959	4791829	1.2293210436e+12	83.2682821691
1408225645981	96	4190115	290400	327	9	37.44811551	-122.16352959	4791829	1.216809396e+12	83.2682821691
1408225645998	96	4172109	361200	327	9	37.44811551	-122.16352959	4791829	1.5069657708e+12	83.2682821691
1408225646040	96	4167681	458100	327	9	37.44811551	-122.16352959	4791829	1.9092146661e+12	83.2682821691
1408225646057	96	4167093	421700	327	9	37.44811551	-122.16352959	4791829	1.7572631181e+12	83.2682821691
1408225646077	96	4170930	469300	327	9	37.44811551	-122.16352959	4791829	1.957417449e+12	83.2682821691
1408225646093	96	4184211	330000	327	9	37.44811551	-122.16352959	4791829	1.38078963e+12	83.2682821691
1408225646112	96	4184211	340800	327	9	37.44811551	-122.16352959	4791829	1.4259791088e+12	83.2682821691
1408225646141	96	4173882	412800	327	9	37.44811551	-122.16352959	4791829	1.7229784896e+12	83.2682821691
1408225646158	96	4188936	305100	327	9	37.44811551	-122.16352959	4791829	1.2780443736e+12	83.2682821691
1408225646178	96	4186575	270000	327	9	37.44811551	-122.16352959	4791829	1.13037525e+12	83.2682821691
1408225646204	96	4190412	271700	327	9	37.44811551	-122.16352959	4791829	1.1385349404e+12	83.2682821691
1408225646243	96	4193364	254100	327	9	37.44811551	-122.16352959	4791829	1.0655337924e+12	83.2682821691
1408225646306	96	4194840	301200	327	9	37.44811551	-122.16352959	4791829	1.263485808e+12	83.2682821691
1408225646323	96	4163253	480700	327	9	37.44811551	-122.16352959	4791829	2.0012757171e+12	83.2682821691
1408225646340	96	4185687	319200	327	9	37.44811551	-122.16352959	4791829	1.3360712904e+12	83.2682821691
1408225646360	96	4177422	289300	327	9	37.44811551	-122.16352959	4791829	1.2085281846e+12	83.2682821691
1408225646383	96	4169748	333400	327	9	37.44811551	-122.16352959	4791829	1.3901939832e+12	83.2682821691
1408225646402	96	4188345	428500	327	9	37.44811551	-122.16352959	4791829	1.7947058325e+12	83.2682821691
1408225646418	96	4176243	332900	327	9	37.44811551	-122.16352959	4791829	1.3902712947e+12	83.2682821691
1408225646436	96	4177719	336900	327	9	37.44811551	-122.16352959	4791829	1.4074735311e+12	83.2682821691
1408225646467	96	4182147	344200	327	9	37.44811551	-122.16352959	4791829	1.4394949974e+12	83.2682821691
1408225646487	96	4179195	316400	327	9	37.44811551	-122.16352959	4791829	1.322297298e+12	83.2682821691
1408225646511	96	4188639	248500	327	9	37.44811551	-122.16352959	4791829	1.0408767915e+12	83.2682821691
1408225646530	96	4185984	302300	327	9	37.44811551	-122.16352959	4791829	1.2654229632e+12	83.2682821691
1408225646565	96	4193067	273900	327	9	37.44811551	-122.16352959	4791829	1.1484810513e+12	83.2682821691
1408225646606	96	4195134	284700	327	9	37.44811551	-122.16352959	4791829	1.1943546498e+12	83.2682821691
1408225646627	96	4180671	267800	327	9	37.44811551	-122.16352959	4791829	1.1195836938e+12	83.2682821691
1408225646647	96	4179489	352600	327	9	37.44811551	-122.16352959	4791829	1.4736878214e+12	83.2682821691
1408225646667	96	4181259	245100	327	9	37.44811551	-122.16352959	4791829	1.0248265809e+12	83.2682821691
1408225646693	96	4168272	320400	327	9	37.44811551	-122.16352959	4791829	1.3355143488e+12	83.2682821691
1408225646711	96	4175946	440400	327	9	37.44811551	-122.16352959	4791829	1.8390866184e+12	83.2682821691
1408225646728	96	4177719	329500	327	9	37.44811551	-122.16352959	4791829	1.3765584105e+12	83.2682821691
1408225646747	96	4177719	359500	327	9	37.44811551	-122.16352959	4791829	1.5018899805e+12	83.2682821691
1408225646778	96	4180374	259200	327	9	37.44811551	-122.16352959	4791829	1.0835529408e+12	83.2682821691
1408225646797	96	4178898	387200	327	9	37.44811551	-122.16352959	4791829	1.6180693056e+12	83.2682821691
1408225646817	96	4189524	283600	327	9	37.44811551	-122.16352959	4791829	1.1881490064e+12	83.2682821691
1408225646838	96	4186575	300600	327	9	37.44811551	-122.16352959	4791829	1.258484445e+12	83.2682821691
1408225646875	96	4194543	265500	327	9	37.44811551	-122.16352959	4791829	1.1136511665e+12	83.2682821691
1408225646915	96	4194840	281300	327	9	37.44811551	-122.16352959	4791829	1.180008492e+12	83.2682821691
1408225646933	96	4186869	301200	327	9	37.44811551	-122.16352959	4791829	1.2610849428e+12	83.2682821691
1408225646951	96	4187754	338500	327	9	37.44811551	-122.16352959	4791829	1.417554729e+12	83.2682821691
1408225646970	96	4180671	319900	327	9	37.44811551	-122.16352959	4791829	1.3373966529e+12	83.2682821691
1408225646998	96	4169454	331800	327	9	37.44811551	-122.16352959	4791829	1.3834248372e+12	83.2682821691
1408225647016	96	4188345	284700	327	9	37.44811551	-122.16352959	4791829	1.1924218215e+12	83.2682821691
1408225647036	96	4178307	281900	327	9	37.44811551	-122.16352959	4791829	1.1778647433e+12	83.2682821691
1408225647054	96	4183623	344200	327	9	37.44811551	-122.16352959	4791829	1.4400030366e+12	83.2682821691
1408225647080	96	4167387	455100	327	9	37.44811551	-122.16352959	4791829	1.8965778237e+12	83.2682821691
1408225647098	96	4177422	347600	327	9	37.44811551	-122.16352959	4791829	1.4520718872e+12	83.2682821691
1408225647117	96	4190115	286500	327	9	37.44811551	-122.16352959	4791829	1.2004679475e+12	83.2682821691
1408225647137	96	4184508	289800	327	9	37.44811551	-122.16352959	4791829	1.2126704184e+12	83.2682821691
1408225647173	96	4194543	272300	327	9	37.44811551	-122.16352959	4791829	1.1421740589e+12	83.2682821691
1408225647210	96	4190706	292600	327	9	37.44811551	-122.16352959	4791829	1.2262005756e+12	83.2682821691
1408225647228	96	4176243	403700	327	9	37.44811551	-122.16352959	4791829	1.6859492991e+12	83.2682821691
1408225647247	96	4172994	360000	327	9	37.44811551	-122.16352959	4791829	1.50227784e+12	83.2682821691
1408225647267	96	4177128	271700	327	9	37.44811551	-122.16352959	4791829	1.1349256776e+12	83.2682821691
1408225647288	96	4165911	345900	327	9	37.44811551	-122.16352959	4791829	1.4409886149e+12	83.2682821691
1408225647297	96	4165911	345900	327	9	37.44798536	-122.16365801	4791829	1.4409886149e+12	101.647113633
1408225647304	96	4167093	464200	327	9	37.44798536	-122.16365801	4791829	1.9343645706e+12	101.647113633
1408225647320	96	4167681	449500	327	9	37.44798536	-122.16365801	4791829	1.8733726095e+12	101.647113633
1408225647338	96	4172994	375400	327	9	37.44798536	-122.16365801	4791829	1.5665419476e+12	101.647113633
1408225647374	96	4175061	325500	327	9	37.44798536	-122.16365801	4791829	1.3589823555e+12	101.647113633
1408225647393	96	4185984	308000	327	9	37.44798536	-122.16365801	4791829	1.289283072e+12	101.647113633
1408225647412	96	4187460	322200	327	9	37.44798536	-122.16365801	4791829	1.349199612e+12	101.647113633
1408225647434	96	4192773	272300	327	9	37.44798536	-122.16365801	4791829	1.1416920879e+12	101.647113633
1408225647465	96	4193364	313100	327	9	37.44798536	-122.16365801	4791829	1.3129422684e+12	101.647113633
1408225647509	96	4195134	288100	327	9	37.44798536	-122.16365801	4791829	1.2086181054e+12	101.647113633
1408225647527	96	4180374	345300	327	9	37.44798536	-122.16365801	4791829	1.4434831422e+12	101.647113633
1408225647547	96	4178013	348800	327	9	37.44798536	-122.16365801	4791829	1.4572909344e+12	101.647113633
1408225647567	96	4180374	257500	327	9	37.44798536	-122.16365801	4791829	1.076446305e+12	101.647113633
1408225647591	96	4172700	297200	327	9	37.44798536	-122.16365801	4791829	1.24012644e+12	101.647113633
1408225647610	96	4177719	426800	327	9	37.44798536	-122.16365801	4791829	1.7830504692e+12	101.647113633
1408225647627	96	4174767	331800	327	9	37.44798536	-122.16365801	4791829	1.3851876906e+12	101.647113633
1408225647647	96	4178013	321000	327	9	37.44798536	-122.16365801	4791829	1.341142173e+12	101.647113633
1408225647678	96	4179195	265500	327	9	37.44798536	-122.16365801	4791829	1.1095762725e+12	101.647113633
1408225647697	96	4179195	391100	327	9	37.44798536	-122.16365801	4791829	1.6344831645e+12	101.647113633
1408225647719	96	4190115	281300	327	9	37.44798536	-122.16365801	4791829	1.1786793495e+12	101.647113633
1408225647740	96	4189230	283000	327	9	37.44798536	-122.16365801	4791829	1.18555209e+12	101.647113633
1408225647775	96	4191591	285800	327	9	37.44798536	-122.16365801	4791829	1.1979567078e+12	101.647113633
1408225647814	96	4194543	288100	327	9	37.44798536	-122.16365801	4791829	1.2084478383e+12	101.647113633
1408225647833	96	4179489	314200	327	9	37.44798536	-122.16365801	4791829	1.3131954438e+12	101.647113633
1408225647850	96	4186869	344800	327	9	37.44798536	-122.16365801	4791829	1.4436324312e+12	101.647113633
1408225647867	96	4178307	331800	327	9	37.44798536	-122.16365801	4791829	1.3863622626e+12	101.647113633
1408225647893	96	4165911	368000	327	9	37.44798536	-122.16365801	4791829	1.533055248e+12	101.647113633
1408225647910	96	4185393	423500	327	9	37.44798536	-122.16365801	4791829	1.7725139355e+12	101.647113633
1408225647927	96	4174470	334600	327	9	37.44798536	-122.16365801	4791829	1.396777662e+12	101.647113633
1408225647946	96	4174767	345900	327	9	37.44798536	-122.16365801	4791829	1.4440519053e+12	101.647113633
1408225647977	96	4177719	276800	327	9	37.44798536	-122.16365801	4791829	1.1563926192e+12	101.647113633
1408225647997	96	4178898	352600	327	9	37.44798536	-122.16365801	4791829	1.4734794348e+12	101.647113633
1408225648018	96	4191297	284700	327	9	37.44798536	-122.16365801	4791829	1.1932622559e+12	101.647113633
1408225648039	96	4185687	301700	327	9	37.44798536	-122.16365801	4791829	1.2628217679e+12	101.647113633
1408225648075	96	4193658	281900	327	9	37.44798536	-122.16365801	4791829	1.1821921902e+12	101.647113633
1408225648111	96	4190706	283600	327	9	37.44798536	-122.16365801	4791829	1.1884842216e+12	101.647113633
1408225648128	96	4169157	397400	327	9	37.44798536	-122.16365801	4791829	1.6568229918e+12	101.647113633
1408225648147	96	4178013	377600	327	9	37.44798536	-122.16365801	4791829	1.5776177088e+12	101.647113633
1408225648167	96	4176834	287000	327	9	37.44798536	-122.16365801	4791829	1.198751358e+12	101.647113633
1408225648193	96	4165617	332900	327	9	37.44798536	-122.16365801	4791829	1.3867338993e+12	101.647113633
1408225648210	96	4187754	445500	327	9	37.44798536	-122.16365801	4791829	1.865644407e+12	101.647113633
1408225648227	96	4186869	325000	327	9	37.44798536	-122.16365801	4791829	1.360732425e+12	101.647113633
1408225648247	96	4172700	344800	327	9	37.44798536	-122.16365801	4791829	1.43874696e+12	101.647113633
1408225648272	96	4175652	289800	327	9	37.44798536	-122.16365801	4791829	1.2101039496e+12	101.647113633
1408225648287	96	4166796	442200	327	9	37.44798536	-122.16365801	4791829	1.8425571912e+12	101.647113633
1408225648310	96	4179489	456900	327	9	37.44798536	-122.16365801	4791829	1.9096085241e+12	101.647113633
1408225648330	96	4191000	302800	327	9	37.44798536	-122.16365801	4791829	1.2690348e+12	101.647113633
1408225648363	96	4186869	262700	327	9	37.44798536	-122.16365801	4791829	1.0998904863e+12	101.647113633
1408225648407	96	4193952	295500	327	9	37.44798536	-122.16365801	4791829	1.239312816e+12	101.647113633
1408225648423	96	4184802	294400	327	9	37.44798536	-122.16365801	4791829	1.2320057088e+12	101.647113633
1408225648441	96	4187754	323200	327	9	37.44798536	-122.16365801	4791829	1.3534820928e+12	101.647113633
1408225648460	96	4180080	306800	327	9	37.44798536	-122.16365801	4791829	1.282448544e+12	101.647113633
1408225648488	96	4163844	349800	327	9	37.44798536	-122.16365801	4791829	1.4565126312e+12	101.647113633
1408225648507	96	4176537	279700	327	9	37.44798536	-122.16365801	4791829	1.1681773989e+12	101.647113633
1408225648526	96	4178604	290900	328	9	37.44798536	-122.16365801	4791829	1.2155559036e+12	101.647113633
1408225648546	96	4175358	332900	328	9	37.44798536	-122.16365801	4791829	1.3899766782e+12	101.647113633
1408225648573	96	4165617	462500	327	9	37.44798536	-122.16365801	4791829	1.9265978625e+12	101.647113633
1408225648590	96	4185687	361200	327	9	37.44798536	-122.16365801	4791829	1.5118701444e+12	101.647113633
1408225648611	96	4189524	275700	327	9	37.44798536	-122.16365801	4791829	1.1550517668e+12	101.647113633
1408225648630	96	4194840	293800	327	9	37.44798536	-122.16365801	4791829	1.232443992e+12	101.647113633
1408225648663	96	4184211	270000	327	9	37.44798536	-122.16365801	4791829	1.12973697e+12	101.647113633
1408225648707	96	4193658	306300	328	9	37.44798536	-122.16365801	4791829	1.2845174454e+12	101.647113633
1408225648725	96	4178307	304500	327	9	37.44798536	-122.16365801	4791829	1.2722944815e+12	101.647113633
1408225648743	96	4188345	341900	328	9	37.44798536	-122.16365801	4791829	1.4319951555e+12	101.647113633
1408225648763	96	4179489	378200	328	9	37.44798536	-122.16365801	4791829	1.5806827398e+12	101.647113633
1408225648793	96	4165320	334600	327	9	37.44798536	-122.16365801	4791829	1.393716072e+12	101.647113633
1408225648810	96	4187460	326100	327	9	37.44798536	-122.16365801	4791829	1.365530706e+12	101.647113633
1408225648827	96	4178013	329500	327	9	37.44798536	-122.16365801	4791829	1.3766552835e+12	101.647113633
1408225648846	96	4177128	358900	328	9	37.44798536	-122.16365801	4791829	1.4991712392e+12	101.647113633
1408225648871	96	4168272	264300	327	9	37.44798536	-122.16365801	4791829	1.1016742896e+12	101.647113633
1408225648888	96	4174767	347600	328	9	37.44798536	-122.16365801	4791829	1.4511490092e+12	101.647113633
1408225648910	96	4184508	291600	327	9	37.44798536	-122.16365801	4791829	1.2202025328e+12	101.647113633
1408225648931	96	4188639	311900	328	9	37.44798536	-122.16365801	4791829	1.3064365041e+12	101.647113633
1408225648963	96	4188051	272300	327	9	37.44798536	-122.16365801	4791829	1.1404062873e+12	101.647113633
1408225649008	96	4192773	298900	328	9	37.44798536	-122.16365801	4791829	1.2532198497e+12	101.647113633
1408225649028	96	4179195	294400	328	9	37.44798536	-122.16365801	4791829	1.230355008e+12	101.647113633
1408225649046	96	4174767	380400	328	9	37.44798536	-122.16365801	4791829	1.5880813668e+12	101.647113633
1408225649067	96	4175652	301700	328	9	37.44798536	-122.16365801	4791829	1.2597942084e+12	101.647113633
1408225649091	96	4168863	325000	327	9	37.44798536	-122.16365801	4791829	1.354880475e+12	101.647113633
1408225649110	96	4175652	429700	328	9	37.44798536	-122.16365801	4791829	1.7942776644e+12	101.647113633
1408225649128	96	4175061	348100	328	9	37.44798536	-122.16365801	4791829	1.4533387341e+12	101.647113633
1408225649147	96	4175946	396900	327	9	37.44798536	-122.16365801	4791829	1.6574329674e+12	101.647113633
1408225649178	96	4173585	319200	328	9	37.44798536	-122.16365801	4791829	1.332208332e+12	101.647113633
1408225649197	96	4174767	279000	328	9	37.44798536	-122.16365801	4791829	1.164759993e+12	101.647113633
1408225649218	96	4188345	301200	328	9	37.44798536	-122.16365801	4791829	1.261529514e+12	101.647113633
1408225649240	96	4188936	276200	327	9	37.44798536	-122.16365801	4791829	1.1569841232e+12	101.647113633
1408225649296	96	4193658	319900	327	9	37.44798536	-122.16365801	4791829	1.3415511942e+12	101.647113633
1408225649317	96	4193658	319900	327	9	37.44786397	-122.16379274	4791829	1.3415511942e+12	119.637135225
1408225649325	96	4167093	371900	327	9	37.44786397	-122.16379274	4791829	1.5497418867e+12	119.637135225
1408225649342	96	4163253	459100	328	9	37.44786397	-122.16379274	4791829	1.9113494523e+12	119.637135225
1408225649360	96	4158531	485700	328	9	37.44786397	-122.16379274	4791829	2.0197985067e+12	119.637135225
1408225649377	96	4178307	424700	328	9	37.44786397	-122.16379274	4791829	1.7745269829e+12	119.637135225
1408225649397	96	4149972	375900	328	9	37.44786397	-122.16379274	4791829	1.5599744748e+12	119.637135225
1408225649415	96	4180374	447300	328	9	37.44786397	-122.16379274	4791829	1.8698812902e+12	119.637135225
1408225649432	96	4180374	345300	329	9	37.44786397	-122.16379274	4791829	1.4434831422e+12	119.637135225
1408225649450	96	4179783	378200	328	9	37.44786397	-122.16379274	4791829	1.5807939306e+12	119.637135225
1408225649469	96	4173585	375400	328	9	37.44786397	-122.16379274	4791829	1.566763809e+12	119.637135225
1408225649487	96	4171224	613200	328	9	37.44786397	-122.16379274	4791829	2.5577945568e+12	119.637135225
1408225649505	96	4170339	413300	328	9	37.44786397	-122.16379274	4791829	1.7236011087e+12	119.637135225
1408225649523	96	4185984	313100	328	9	37.44786397	-122.16379274	4791829	1.3106315904e+12	119.637135225
1408225649546	96	4186869	322700	328	9	37.44786397	-122.16379274	4791829	1.3511026263e+12	119.637135225
1408225649589	96	4181850	334600	328	9	37.44786397	-122.16379274	4791829	1.39924701e+12	119.637135225
1408225649608	96	4183326	348800	328	9	37.44786397	-122.16379274	4791829	1.4591441088e+12	119.637135225
1408225649626	96	4185393	331100	328	9	37.44786397	-122.16379274	4791829	1.3857836223e+12	119.637135225
1408225649644	96	4181850	340200	328	9	37.44786397	-122.16379274	4791829	1.42266537e+12	119.637135225
1408225649674	96	4185393	332900	327	9	37.44786397	-122.16379274	4791829	1.3933173297e+12	119.637135225
1408225649727	96	4191888	314200	328	9	37.44786397	-122.16379274	4791829	1.3170912096e+12	119.637135225
1408225649748	96	4196019	273900	327	9	37.44786397	-122.16379274	4791829	1.1492896041e+12	119.637135225
1408225649769	96	4194249	297700	328	9	37.44786397	-122.16379274	4791829	1.2486279273e+12	119.637135225
1408225649789	96	4196019	283000	328	9	37.44786397	-122.16379274	4791829	1.187473377e+12	119.637135225
1408225649827	96	4194840	284700	328	9	37.44786397	-122.16379274	4791829	1.194270948e+12	119.637135225
1408225649871	96	4190706	280200	328	9	37.44786397	-122.16379274	4791829	1.1742358212e+12	119.637135225
1408225649894	96	4196019	282500	328	9	37.44786397	-122.16379274	4791829	1.1853753675e+12	119.637135225
1408225649917	96	4195725	290900	328	9	37.44786397	-122.16379274	4791829	1.2205364025e+12	119.637135225
1408225649939	96	4195725	262700	328	9	37.44786397	-122.16379274	4791829	1.1022169575e+12	119.637135225
1408225649970	96	4191000	309100	328	9	37.44786397	-122.16379274	4791829	1.2954381e+12	119.637135225
1408225650004	96	4173291	287000	328	9	37.44786397	-122.16379274	4791829	1.197734517e+12	119.637135225
1408225650023	96	4188936	290900	328	9	37.44786397	-122.16379274	4791829	1.2185614824e+12	119.637135225
1408225650041	96	4188639	315300	328	9	37.44786397	-122.16379274	4791829	1.3206778767e+12	119.637135225
1408225650068	96	4175652	331800	328	9	37.44786397	-122.16379274	4791829	1.3854813336e+12	119.637135225
1408225650087	96	4175358	494800	328	9	37.44786397	-122.16379274	4791829	2.0659671384e+12	119.637135225
1408225650107	96	4177128	375900	328	9	37.44786397	-122.16379274	4791829	1.5701824152e+12	119.637135225
1408225650126	96	4176243	319200	328	9	37.44786397	-122.16379274	4791829	1.3330567656e+12	119.637135225
1408225650144	96	4187460	332900	328	9	37.44786397	-122.16379274	4791829	1.394005434e+12	119.637135225
1408225650160	96	4163844	471600	328	9	37.44786397	-122.16379274	4791829	1.9636688304e+12	119.637135225
1408225650178	96	4161189	381500	328	9	37.44786397	-122.16379274	4791829	1.5874936035e+12	119.637135225
1408225650201	96	4187163	277900	328	9	37.44786397	-122.16379274	4791829	1.1636125977e+12	119.637135225
1408225650221	96	4190706	305700	328	9	37.44786397	-122.16379274	4791829	1.2810988242e+12	119.637135225
1408225650299	96	4185984	319200	328	9	37.44786397	-122.16379274	4791829	1.3361660928e+12	119.637135225
1408225650315	96	4168272	454600	328	9	37.44786397	-122.16379274	4791829	1.8948964512e+12	119.637135225
1408225650337	96	4184508	305700	328	9	37.44786397	-122.16379274	4791829	1.2792040956e+12	119.637135225
1408225650356	96	4173585	347000	328	9	37.44786397	-122.16379274	4791829	1.448233995e+12	119.637135225
1408225650382	96	4152627	309600	328	9	37.44786397	-122.16379274	4791829	1.2856533192e+12	119.637135225
1408225650400	96	4184802	464200	328	9	37.44786397	-122.16379274	4791829	1.9425850884e+12	119.637135225
1408225650418	96	4178898	335100	328	9	37.44786397	-122.16379274	4791829	1.4003487198e+12	119.637135225
1408225650437	96	4177422	319200	328	9	37.44786397	-122.16379274	4791829	1.3334331024e+12	119.637135225
1408225650466	96	4176243	374200	328	9	37.44786397	-122.16379274	4791829	1.5627501306e+12	119.637135225
1408225650486	96	4174470	352100	328	9	37.44786397	-122.16379274	4791829	1.469830887e+12	119.637135225
1408225650508	96	4189524	275700	328	9	37.44786397	-122.16379274	4791829	1.1550517668e+12	119.637135225
1408225650528	96	4190115	279700	328	9	37.44786397	-122.16379274	4791829	1.1719751655e+12	119.637135225
1408225650562	96	4194543	246300	328	9	37.44786397	-122.16379274	4791829	1.0331159409e+12	119.637135225
1408225650604	96	4182441	298400	328	9	37.44786397	-122.16379274	4791829	1.2480403944e+12	119.637135225
1408225650623	96	4189230	290900	328	9	37.44786397	-122.16379274	4791829	1.218647007e+12	119.637135225
1408225650643	96	4189230	326100	328	9	37.44786397	-122.16379274	4791829	1.366107903e+12	119.637135225
1408225650660	96	4177719	328900	328	9	37.44786397	-122.16379274	4791829	1.3740517791e+12	119.637135225
1408225650688	96	4164435	368000	328	9	37.44786397	-122.16379274	4791829	1.53251208e+12	119.637135225
1408225650707	96	4177422	288700	328	9	37.44786397	-122.16379274	4791829	1.2060217314e+12	119.637135225
1408225650726	96	4178898	296100	328	9	37.44786397	-122.16379274	4791829	1.2373716978e+12	119.637135225
1408225650746	96	4178604	319200	328	9	37.44786397	-122.16379274	4791829	1.3338103968e+12	119.637135225
1408225650769	96	4162959	330600	328	9	37.44786397	-122.16379274	4791829	1.3762742454e+12	119.637135225
1408225650787	96	4159416	526500	329	9	37.44786397	-122.16379274	4791829	2.189932524e+12	119.637135225
1408225650808	96	4189230	305100	328	9	37.44786397	-122.16379274	4791829	1.278134073e+12	119.637135225
1408225650828	96	4191000	277900	328	9	37.44786397	-122.16379274	4791829	1.1646789e+12	119.637135225
1408225650864	96	4194543	247900	328	9	37.44786397	-122.16379274	4791829	1.0398272097e+12	119.637135225
1408225650900	96	4192182	315300	328	9	37.44786397	-122.16379274	4791829	1.3217949846e+12	119.637135225
1408225650918	96	4179783	326100	328	9	37.44786397	-122.16379274	4791829	1.3630272363e+12	119.637135225
1408225650943	96	4170042	321000	328	9	37.44786397	-122.16379274	4791829	1.338583482e+12	119.637135225
1408225650961	96	4173291	452900	329	9	37.44786397	-122.16379274	4791829	1.8900834939e+12	119.637135225
1408225650981	96	4167681	360000	328	9	37.44786397	-122.16379274	4791829	1.50036516e+12	119.637135225
1408225650998	96	4169748	484000	328	9	37.44786397	-122.16379274	4791829	2.018158032e+12	119.637135225
1408225651017	96	4178898	285300	329	9	37.44786397	-122.16379274	4791829	1.1922395994e+12	119.637135225
1408225651037	96	4179195	306800	328	9	37.44786397	-122.16379274	4791829	1.282177026e+12	119.637135225
1408225651059	96	4179489	249600	328	9	37.44786397	-122.16379274	4791829	1.0432004544e+12	119.637135225
1408225651076	96	4173585	469300	329	9	37.44786397	-122.16379274	4791829	1.9586634405e+12	119.637135225
1408225651099	96	4187460	301700	328	9	37.44786397	-122.16379274	4791829	1.263356682e+12	119.637135225
1408225651118	96	4185984	281900	328	9	37.44786397	-122.16379274	4791829	1.1800288896e+12	119.637135225
1408225651145	96	4187163	297200	328	9	37.44786397	-122.16379274	4791829	1.2444248436e+12	119.637135225
1408225651196	96	4190412	314200	329	9	37.44786397	-122.16379274	4791829	1.3166274504e+12	119.637135225
1408225651217	96	4183623	311300	329	9	37.44786397	-122.16379274	4791829	1.3023618399e+12	119.637135225
1408225651237	96	4180671	310300	329	9	37.44786397	-122.16379274	4791829	1.2972622113e+12	119.637135225
1408225651255	96	4176243	373100	329	9	37.44786397	-122.16379274	4791829	1.5581562633e+12	119.637135225
1408225651273	96	4168272	348100	329	9	37.44786397	-122.16379274	4791829	1.4509754832e+12	119.637135225
1408225651286	96	4168272	348100	329	9	37.44773681	-122.16392072	4791829	1.4509754832e+12	137.73194333
1408225651290	96	4162959	470000	328	9	37.44773681	-122.16392072	4791829	1.95659073e+12	137.73194333
1408225651305	96	4165617	465400	328	9	37.44773681	-122.16392072	4791829	1.9386781518e+12	137.73194333
1408225651326	96	4178307	279000	328	9	37.44773681	-122.16392072	4791829	1.165747653e+12	137.73194333
1408225651346	96	4178013	327200	329	9	37.44773681	-122.16392072	4791829	1.3670458536e+12	137.73194333
1408225651376	96	4167093	265000	329	9	37.44773681	-122.16392072	4791829	1.104279645e+12	137.73194333
1408225651399	96	4187754	288100	329	9	37.44773681	-122.16392072	4791829	1.2064919274e+12	137.73194333
1408225651418	96	4190115	278500	328	9	37.44773681	-122.16392072	4791829	1.1669470275e+12	137.73194333
1408225651438	96	4190115	291600	329	9	37.44773681	-122.16392072	4791829	1.221837534e+12	137.73194333
1408225651476	96	4194249	263200	328	9	37.44773681	-122.16392072	4791829	1.1039263368e+12	137.73194333
1408225651519	96	4192476	281300	328	9	37.44773681	-122.16392072	4791829	1.1793434988e+12	137.73194333
1408225651539	96	4196316	249600	328	9	37.44773681	-122.16392072	4791829	1.0474004736e+12	137.73194333
1408225651561	96	4196904	244000	328	9	37.44773681	-122.16392072	4791829	1.024044576e+12	137.73194333
1408225651584	96	4200447	258100	329	9	37.44773681	-122.16392072	4791829	1.0841353707e+12	137.73194333
1408225651617	96	4194249	289800	328	9	37.44773681	-122.16392072	4791829	1.2154933602e+12	137.73194333
1408225651665	96	4195725	281300	328	9	37.44773681	-122.16392072	4791829	1.1802574425e+12	137.73194333
1408225651686	96	4196904	253600	328	9	37.44773681	-122.16392072	4791829	1.0643348544e+12	137.73194333
1408225651707	96	4194840	275100	328	9	37.44773681	-122.16392072	4791829	1.154000484e+12	137.73194333
1408225651731	96	4195725	276200	329	9	37.44773681	-122.16392072	4791829	1.158859245e+12	137.73194333
1408225651769	96	4195428	284200	329	9	37.44773681	-122.16392072	4791829	1.1923406376e+12	137.73194333
1408225651801	96	4177719	283000	329	9	37.44773681	-122.16392072	4791829	1.182294477e+12	137.73194333
1408225651817	96	4177719	330000	329	9	37.44773681	-122.16392072	4791829	1.37864727e+12	137.73194333
1408225651837	96	4178604	336200	329	9	37.44773681	-122.16392072	4791829	1.4048466648e+12	137.73194333
1408225651871	96	4179489	250800	329	9	37.44773681	-122.16392072	4791829	1.0482158412e+12	137.73194333
1408225651887	96	4175946	300600	329	9	37.44773681	-122.16392072	4791829	1.2552893676e+12	137.73194333
1408225651907	96	4178604	253600	329	9	37.44773681	-122.16392072	4791829	1.0596939744e+12	137.73194333
1408225651927	96	4178013	305100	329	9	37.44773681	-122.16392072	4791829	1.2747117663e+12	137.73194333
1408225651950	96	4180374	326100	329	9	37.44773681	-122.16392072	4791829	1.3632199614e+12	137.73194333
1408225651968	96	4174767	466000	329	9	37.44773681	-122.16392072	4791829	1.945441422e+12	137.73194333
1408225651988	96	4178604	317600	329	9	37.44773681	-122.16392072	4791829	1.3271246304e+12	137.73194333
1408225652010	96	4186869	285800	329	9	37.44773681	-122.16392072	4791829	1.1966071602e+12	137.73194333
1408225652044	96	4191297	302300	328	9	37.44773681	-122.16392072	4791829	1.2670290831e+12	137.73194333
1408225652085	96	4194249	280700	329	9	37.44773681	-122.16392072	4791829	1.1773256943e+12	137.73194333
1408225652104	96	4188051	282500	329	9	37.44773681	-122.16392072	4791829	1.1831244075e+12	137.73194333
1408225652123	96	4188639	318700	329	9	37.44773681	-122.16392072	4791829	1.3349192493e+12	137.73194333
1408225652140	96	4190115	330000	329	9	37.44773681	-122.16392072	4791829	1.38273795e+12	137.73194333
1408225652173	96	4172109	294900	329	9	37.44773681	-122.16392072	4791829	1.2303549441e+12	137.73194333
1408225652193	96	4177422	329500	329	9	37.44773681	-122.16392072	4791829	1.376460549e+12	137.73194333
1408225652211	96	4187163	345900	329	9	37.44773681	-122.16392072	4791829	1.4483396817e+12	137.73194333
1408225652230	96	4178898	352100	329	9	37.44773681	-122.16392072	4791829	1.4713899858e+12	137.73194333
1408225652253	96	4167387	460900	329	9	37.44773681	-122.16392072	4791829	1.9207486683e+12	137.73194333
1408225652273	96	4176243	470000	329	9	37.44773681	-122.16392072	4791829	1.96283421e+12	137.73194333
1408225652292	96	4166796	443900	329	9	37.44773681	-122.16392072	4791829	1.8496407444e+12	137.73194333
1408225652314	96	4188051	327800	329	9	37.44773681	-122.16392072	4791829	1.3728431178e+12	137.73194333
1408225652342	96	4189230	281300	329	9	37.44773681	-122.16392072	4791829	1.178430399e+12	137.73194333
1408225652368	96	4188051	321000	329	9	37.44773681	-122.16392072	4791829	1.344364371e+12	137.73194333
1408225652388	96	4191000	289800	329	9	37.44773681	-122.16392072	4791829	1.2145518e+12	137.73194333
1408225652409	96	4191888	240500	329	9	37.44773681	-122.16392072	4791829	1.008149064e+12	137.73194333
1408225652431	96	4187460	280700	329	9	37.44773681	-122.16392072	4791829	1.175420022e+12	137.73194333
1408225652465	96	4194543	267200	329	9	37.44773681	-122.16392072	4791829	1.1207818896e+12	137.73194333
1408225652504	96	4195134	283600	329	9	37.44773681	-122.16392072	4791829	1.1897400024e+12	137.73194333
1408225652523	96	4186278	306800	329	9	37.44773681	-122.16392072	4791829	1.2843500904e+12	137.73194333
1408225652543	96	4188936	334000	329	9	37.44773681	-122.16392072	4791829	1.399104624e+12	137.73194333
1408225652560	96	4188936	328300	329	9	37.44773681	-122.16392072	4791829	1.3752276888e+12	137.73194333
1408225652588	96	4168566	345300	329	9	37.44773681	-122.16392072	4791829	1.4394058398e+12	137.73194333
1408225652608	96	4178013	297200	329	9	37.44773681	-122.16392072	4791829	1.2417054636e+12	137.73194333
1408225652626	96	4178307	318200	329	9	37.44773681	-122.16392072	4791829	1.3295372874e+12	137.73194333
1408225652646	96	4178604	332300	329	9	37.44773681	-122.16392072	4791829	1.3885501092e+12	137.73194333
1408225652673	96	4166205	426300	329	9	37.44773681	-122.16392072	4791829	1.7760531915e+12	137.73194333
1408225652693	96	4186869	368000	329	9	37.44773681	-122.16392072	4791829	1.540767792e+12	137.73194333
1408225652714	96	4192773	298400	329	9	37.44773681	-122.16392072	4791829	1.2511234632e+12	137.73194333
1408225652734	96	4191297	272300	329	9	37.44773681	-122.16392072	4791829	1.1412901731e+12	137.73194333
1408225652773	96	4196019	290900	329	9	37.44773681	-122.16392072	4791829	1.2206219271e+12	137.73194333
1408225652815	96	4193067	280700	329	9	37.44773681	-122.16392072	4791829	1.1769939069e+12	137.73194333
1408225652837	96	4194840	283000	329	9	37.44773681	-122.16392072	4791829	1.18713972e+12	137.73194333
1408225652859	96	4196316	257500	329	9	37.44773681	-122.16392072	4791829	1.08055137e+12	137.73194333
1408225652879	96	4196904	265000	329	9	37.44773681	-122.16392072	4791829	1.11217956e+12	137.73194333
1408225652910	96	4195134	249100	329	9	37.44773681	-122.16392072	4791829	1.0450078794e+12	137.73194333
1408225652952	96	4193658	301700	329	9	37.44773681	-122.16392072	4791829	1.2652266186e+12	137.73194333
1408225652968	96	4180374	374200	330	9	37.44773681	-122.16392072	4791829	1.5642959508e+12	137.73194333
1408225652987	96	4179195	326100	329	9	37.44773681	-122.16392072	4791829	1.3628354895e+12	137.73194333
1408225653008	96	4179195	245600	329	9	37.44773681	-122.16392072	4791829	1.026410292e+12	137.73194333
1408225653031	96	4169157	330000	329	9	37.44773681	-122.16392072	4791829	1.37582181e+12	137.73194333
1408225653050	96	4176243	395100	329	9	37.44773681	-122.16392072	4791829	1.6500336093e+12	137.73194333
1408225653068	96	4179195	319200	330	9	37.44773681	-122.16392072	4791829	1.333999044e+12	137.73194333
1408225653087	96	4178604	331800	329	9	37.44773681	-122.16392072	4791829	1.3864608072e+12	137.73194333
1408225653118	96	4177128	245600	330	9	37.44773681	-122.16392072	4791829	1.0259026368e+12	137.73194333
1408225653137	96	4173882	411600	330	9	37.44773681	-122.16392072	4791829	1.7179698312e+12	137.73194333
1408225653160	96	4186869	295500	329	9	37.44773681	-122.16392072	4791829	1.2372197895e+12	137.73194333
1408225653180	96	4190115	304500	329	9	37.44773681	-122.16392072	4791829	1.2758900175e+12	137.73194333
1408225653214	96	4190706	274600	329	9	37.44773681	-122.16392072	4791829	1.1507678676e+12	137.73194333
1408225653254	96	4192182	289300	330	9	37.44773681	-122.16392072	4791829	1.2127982526e+12	137.73194333
1408225653273	96	4185687	361200	330	9	37.44773681	-122.16392072	4791829	1.5118701444e+12	137.73194333
1408225653278	96	4185687	361200	330	9	37.44763895	-122.16401239	4791829	1.5118701444e+12	151.287792408
1408225653291	96	4169157	425200	329	9	37.44763895	-122.16401239	4791829	1.7727255564e+12	151.287792408
1408225653308	96	4182441	386100	329	9	37.44763895	-122.16401239	4791829	1.6148404701e+12	151.287792408
1408225653333	96	4165026	344200	329	9	37.44763895	-122.16401239	4791829	1.4336019492e+12	151.287792408
1408225653351	96	4185687	441600	329	9	37.44763895	-122.16401239	4791829	1.8483993792e+12	151.287792408
1408225653368	96	4177719	354900	330	9	37.44763895	-122.16401239	4791829	1.4826724731e+12	151.287792408
1408225653387	96	4178898	326100	330	9	37.44763895	-122.16401239	4791829	1.3627386378e+12	151.287792408
1408225653408	96	4188936	243400	329	9	37.44763895	-122.16401239	4791829	1.0195870224e+12	151.287792408
1408225653426	96	4168566	474400	329	9	37.44763895	-122.16401239	4791829	1.9775677104e+12	151.287792408
1408225653447	96	4188051	350400	329	9	37.44763895	-122.16401239	4791829	1.4674930704e+12	151.287792408
1408225653467	96	4188936	279700	329	9	37.44763895	-122.16401239	4791829	1.1716453992e+12	151.287792408
1408225653504	96	4190412	289300	329	9	37.44763895	-122.16401239	4791829	1.2122861916e+12	151.287792408
1408225653546	96	4194543	286500	330	9	37.44763895	-122.16401239	4791829	1.2017365695e+12	151.287792408
1408225653564	96	4189524	299500	330	9	37.44763895	-122.16401239	4791829	1.254762438e+12	151.287792408
1408225653583	96	4190115	293200	330	9	37.44763895	-122.16401239	4791829	1.228541718e+12	151.287792408
1408225653601	96	4189524	319200	330	9	37.44763895	-122.16401239	4791829	1.3372960608e+12	151.287792408
1408225653630	96	4168566	322200	329	9	37.44763895	-122.16401239	4791829	1.3431119652e+12	151.287792408
1408225653648	96	4175652	273900	330	9	37.44763895	-122.16401239	4791829	1.1437110828e+12	151.287792408
1408225653666	96	4179195	301700	330	9	37.44763895	-122.16401239	4791829	1.2608631315e+12	151.287792408
1408225653686	96	4178013	313100	330	9	37.44763895	-122.16401239	4791829	1.3081358703e+12	151.287792408
1408225653712	96	4171224	248500	330	9	37.44763895	-122.16401239	4791829	1.036549164e+12	151.287792408
1408225653733	96	4177422	329500	330	9	37.44763895	-122.16401239	4791829	1.376460549e+12	151.287792408
1408225653754	96	4189524	322700	329	9	37.44763895	-122.16401239	4791829	1.3519593948e+12	151.287792408
1408225653774	96	4195428	262000	329	9	37.44763895	-122.16401239	4791829	1.099202136e+12	151.287792408
1408225653813	96	4193952	275700	329	9	37.44763895	-122.16401239	4791829	1.1562725664e+12	151.287792408
1408225653849	96	4192773	293200	330	9	37.44763895	-122.16401239	4791829	1.2293210436e+12	151.287792408
1408225653867	96	4180374	293200	330	9	37.44763895	-122.16401239	4791829	1.2256856568e+12	151.287792408
1408225653887	96	4176834	318200	330	9	37.44763895	-122.16401239	4791829	1.3290685788e+12	151.287792408
1408225653906	96	4180965	245100	330	9	37.44763895	-122.16401239	4791829	1.0247545215e+12	151.287792408
1408225653932	96	4169454	314700	330	9	37.44763895	-122.16401239	4791829	1.3121271738e+12	151.287792408
1408225653949	96	4176537	365700	330	9	37.44763895	-122.16401239	4791829	1.5273595809e+12	151.287792408
1408225653967	96	4178898	296600	330	9	37.44763895	-122.16401239	4791829	1.2394611468e+12	151.287792408
1408225653987	96	4179489	320400	330	9	37.44763895	-122.16401239	4791829	1.3391082756e+12	151.287792408
1408225654018	96	4179783	254100	330	9	37.44763895	-122.16401239	4791829	1.0620828603e+12	151.287792408
1408225654037	96	4173585	381500	330	9	37.44763895	-122.16401239	4791829	1.5922226775e+12	151.287792408
1408225654060	96	4186869	280200	330	9	37.44763895	-122.16401239	4791829	1.1731606938e+12	151.287792408
1408225654080	96	4191297	319200	329	9	37.44763895	-122.16401239	4791829	1.3378620024e+12	151.287792408
1408225654113	96	4195428	271700	330	9	37.44763895	-122.16401239	4791829	1.1398977876e+12	151.287792408
1408225654154	96	4190412	294400	330	9	37.44763895	-122.16401239	4791829	1.2336572928e+12	151.287792408
1408225654173	96	4185099	310800	330	9	37.44763895	-122.16401239	4791829	1.3007287692e+12	151.287792408
1408225654193	96	4186278	326600	330	9	37.44763895	-122.16401239	4791829	1.3672383948e+12	151.287792408
1408225654210	96	4188936	352100	330	9	37.44763895	-122.16401239	4791829	1.4749243656e+12	151.287792408
1408225654238	96	4169157	337400	330	9	37.44763895	-122.16401239	4791829	1.4066735718e+12	151.287792408
1408225654257	96	4175652	273400	330	9	37.44763895	-122.16401239	4791829	1.1416232568e+12	151.287792408
1408225654278	96	4175061	403000	330	9	37.44763895	-122.16401239	4791829	1.682549583e+12	151.287792408
1408225654295	96	4168272	424000	330	9	37.44763895	-122.16401239	4791829	1.767347328e+12	151.287792408
1408225654323	96	4166796	285300	330	9	37.44763895	-122.16401239	4791829	1.1887868988e+12	151.287792408
1408225654340	96	4186575	326600	330	9	37.44763895	-122.16401239	4791829	1.367335395e+12	151.287792408
1408225654360	96	4186575	287000	330	9	37.44763895	-122.16401239	4791829	1.201547025e+12	151.287792408
1408225654380	96	4189821	291600	329	9	37.44763895	-122.16401239	4791829	1.2217518036e+12	151.287792408
1408225654413	96	4195725	252400	329	9	37.44763895	-122.16401239	4791829	1.05900099e+12	151.287792408
1408225654454	96	4193364	283000	330	9	37.44763895	-122.16401239	4791829	1.186722012e+12	151.287792408
1408225654473	96	4188345	286500	330	9	37.44763895	-122.16401239	4791829	1.1999608425e+12	151.287792408
1408225654493	96	4188051	315300	330	9	37.44763895	-122.16401239	4791829	1.3204924803e+12	151.287792408
1408225654510	96	4189524	336900	330	9	37.44763895	-122.16401239	4791829	1.4114506356e+12	151.287792408
1408225654540	96	4166796	339700	330	9	37.44763895	-122.16401239	4791829	1.4154606012e+12	151.287792408
1408225654560	96	4173291	309600	330	9	37.44763895	-122.16401239	4791829	1.2920508936e+12	151.287792408
1408225654578	96	4178307	339100	330	9	37.44763895	-122.16401239	4791829	1.4168639037e+12	151.287792408
1408225654599	96	4179195	345300	330	9	37.44763895	-122.16401239	4791829	1.4430760335e+12	151.287792408
1408225654617	96	4169454	461400	330	9	37.44763895	-122.16401239	4791829	1.9237860756e+12	151.287792408
1408225654636	96	4175652	319200	330	9	37.44763895	-122.16401239	4791829	1.3328681184e+12	151.287792408
1408225654658	96	4186869	304500	330	9	37.44763895	-122.16401239	4791829	1.2749016105e+12	151.287792408
1408225654679	96	4189524	279000	330	9	37.44763895	-122.16401239	4791829	1.168877196e+12	151.287792408
1408225654747	96	4193658	280700	330	9	37.44763895	-122.16401239	4791829	1.1771598006e+12	151.287792408
1408225654767	96	4177128	293800	330	9	37.44763895	-122.16401239	4791829	1.2272402064e+12	151.287792408
1408225654786	96	4180080	311300	330	9	37.44763895	-122.16401239	4791829	1.301258904e+12	151.287792408
1408225654806	96	4182735	355600	330	9	37.44763895	-122.16401239	4791829	1.487380566e+12	151.287792408
1408225654828	96	4172700	283000	330	9	37.44763895	-122.16401239	4791829	1.1808741e+12	151.287792408
1408225654846	96	4175946	459700	330	9	37.44763895	-122.16401239	4791829	1.9196823762e+12	151.287792408
1408225654866	96	4177422	263200	330	9	37.44763895	-122.16401239	4791829	1.0994974704e+12	151.287792408
1408225654886	96	4178013	302800	330	9	37.44763895	-122.16401239	4791829	1.2651023364e+12	151.287792408
1408225654917	96	4182147	240500	330	9	37.44763895	-122.16401239	4791829	1.0058063535e+12	151.287792408
1408225654936	96	4176243	328900	330	9	37.44763895	-122.16401239	4791829	1.3735663227e+12	151.287792408
1408225654958	96	4187163	294400	330	9	37.44763895	-122.16401239	4791829	1.2327007872e+12	151.287792408
1408225654979	96	4190412	292100	330	9	37.44763895	-122.16401239	4791829	1.2240193452e+12	151.287792408
1408225655015	96	4195428	258700	330	9	37.44763895	-122.16401239	4791829	1.0853572236e+12	151.287792408
1408225655051	96	4194840	273900	330	9	37.44763895	-122.16401239	4791829	1.148966676e+12	151.287792408
1408225655070	96	4178307	368500	330	9	37.44763895	-122.16401239	4791829	1.5397061295e+12	151.287792408
1408225655088	96	4179489	267800	330	9	37.44763895	-122.16401239	4791829	1.1192671542e+12	151.287792408
1408225655106	96	4179783	273400	330	9	37.44763895	-122.16401239	4791829	1.1427526722e+12	151.287792408
1408225655138	96	4168566	311900	330	9	37.44763895	-122.16401239	4791829	1.3001757354e+12	151.287792408
1408225655164	96	4162959	485200	330	9	37.44763895	-122.16401239	4791829	2.0198677068e+12	151.287792408
1408225655179	96	4162368	486300	330	9	37.44763895	-122.16401239	4791829	2.0241595584e+12	151.287792408
1408225655195	96	4161777	477300	330	9	37.44763895	-122.16401239	4791829	1.9864161621e+12	151.287792408
1408225655210	96	4161483	471000	330	9	37.44763895	-122.16401239	4791829	1.960058493e+12	151.287792408
1408225655225	96	4163253	468800	330	9	37.44763895	-122.16401239	4791829	1.9517330064e+12	151.287792408
1408225655241	96	4165911	462000	330	9	37.44763895	-122.16401239	4791829	1.924650882e+12	151.287792408
1408225655261	96	4160301	455800	330	9	37.44763895	-122.16401239	4791829	1.8962651958e+12	151.287792408
1408225655276	96	4164141	474400	330	9	37.44763895	-122.16401239	4791829	1.9754684904e+12	151.287792408
1408225655301	96	4158825	454600	330	9	37.44763895	-122.16401239	4791829	1.890601845e+12	151.287792408
1408225655321	96	4173882	480100	330	9	37.44763895	-122.16401239	4791829	2.0038807482e+12	151.287792408
1408225655339	96	4176537	358400	330	9	37.44763895	-122.16401239	4791829	1.4968708608e+12	151.287792408
1408225655356	96	4178604	351000	330	9	37.44763895	-122.16401239	4791829	1.466690004e+12	151.287792408
1408225655376	96	4180671	362900	330	9	37.44763895	-122.16401239	4791829	1.5171655059e+12	151.287792408
1408225655398	96	4173585	441000	330	9	37.44763895	-122.16401239	4791829	1.840550985e+12	151.287792408
1408225655413	96	4181556	348800	330	9	37.44763895	-122.16401239	4791829	1.4585267328e+12	151.287792408
1408225655428	96	4181259	334600	330	9	37.44763895	-122.16401239	4791829	1.3990492614e+12	151.287792408
1408225655443	96	4180671	367500	330	9	37.44763895	-122.16401239	4791829	1.5363965925e+12	151.287792408
1408225655471	96	4186278	366800	330	9	37.44763895	-122.16401239	4791829	1.5355267704e+12	151.287792408
1408225655519	96	4186278	309100	330	9	37.44763895	-122.16401239	4791829	1.2939785298e+12	151.287792408
1408225655539	96	4191888	282500	330	9	37.44763895	-122.16401239	4791829	1.18420836e+12	151.287792408
1408225655562	96	4185687	283000	330	9	37.44763895	-122.16401239	4791829	1.184549421e+12	151.287792408
1408225655582	96	4195134	267200	330	9	37.44763895	-122.16401239	4791829	1.1209398048e+12	151.287792408
1408225655624	96	4190115	283000	330	9	37.44763895	-122.16401239	4791829	1.185802545e+12	151.287792408
1408225655672	96	4192476	286500	330	9	37.44763895	-122.16401239	4791829	1.201144374e+12	151.287792408
1408225655697	96	4196610	257000	330	9	37.44763895	-122.16401239	4791829	1.07852877e+12	151.287792408
1408225655719	96	4196610	255900	330	9	37.44763895	-122.16401239	4791829	1.073912499e+12	151.287792408
1408225655741	96	4197792	247300	330	9	37.44763895	-122.16401239	4791829	1.0381139616e+12	151.287792408
1408225655783	96	4194840	280700	330	9	37.44763895	-122.16401239	4791829	1.177491588e+12	151.287792408
1408225655808	96	4170633	394600	330	9	37.44763895	-122.16401239	4791829	1.6457317818e+12	151.287792408
1408225655827	96	4178898	302800	330	9	37.44763895	-122.16401239	4791829	1.2653703144e+12	151.287792408
1408225655847	96	4179783	266600	330	9	37.44763895	-122.16401239	4791829	1.1143301478e+12	151.287792408
1408225655878	96	4180080	270600	330	9	37.44763895	-122.16401239	4791829	1.131129648e+12	151.287792408
1408225655897	96	4178898	256400	330	9	37.44763895	-122.16401239	4791829	1.0714694472e+12	151.287792408
1408225655917	96	4178898	264300	330	9	37.44763895	-122.16401239	4791829	1.1044827414e+12	151.287792408
1408225655936	96	4180374	311900	330	9	37.44763895	-122.16401239	4791829	1.3038586506e+12	151.287792408
1408225655960	96	4175652	352600	330	9	37.44763895	-122.16401239	4791829	1.4723348952e+12	151.287792408
1408225655978	96	4174176	471600	330	9	37.44763895	-122.16401239	4791829	1.9685414016e+12	151.287792408
1408225656002	96	4187754	251900	330	9	37.44763895	-122.16401239	4791829	1.0548952326e+12	151.287792408
1408225656025	96	4189524	310300	330	9	37.44763895	-122.16401239	4791829	1.3000092972e+12	151.287792408
1408225656063	96	4196904	275100	330	9	37.44763895	-122.16401239	4791829	1.1545682904e+12	151.287792408
1408225656097	96	4189230	315900	330	9	37.44763895	-122.16401239	4791829	1.323377757e+12	151.287792408
1408225656117	96	4176834	288700	330	9	37.44763895	-122.16401239	4791829	1.2058519758e+12	151.287792408
1408225656137	96	4178604	328900	330	9	37.44763895	-122.16401239	4791829	1.3743428556e+12	151.287792408
1408225656157	96	4177422	305700	330	9	37.44763895	-122.16401239	4791829	1.2770379054e+12	151.287792408
1408225656181	96	4168566	315900	330	9	37.44763895	-122.16401239	4791829	1.3168499994e+12	151.287792408
1408225656201	96	4175358	423500	330	9	37.44763895	-122.16401239	4791829	1.768264113e+12	151.287792408
1408225656220	96	4185687	355600	330	9	37.44763895	-122.16401239	4791829	1.4884302972e+12	151.287792408
1408225656239	96	4176243	287600	330	9	37.44763895	-122.16401239	4791829	1.2010874868e+12	151.287792408
1408225656256	96	4175946	334000	330	9	37.44763895	-122.16401239	4791829	1.394765964e+12	151.287792408
1408225656277	96	4163844	467700	330	9	37.44763895	-122.16401239	4791829	1.9474298388e+12	151.287792408
1408225656315	96	4181850	413300	330	9	37.44763895	-122.16401239	4791829	1.728358605e+12	151.287792408
1408225656332	96	4182735	329500	330	9	37.44763895	-122.16401239	4791829	1.3782111825e+12	151.287792408
1408225656347	96	4187460	323800	330	9	37.44763895	-122.16401239	4791829	1.355899548e+12	151.287792408
1408225656372	96	4164729	258100	330	9	37.44763895	-122.16401239	4791829	1.0749165549e+12	151.287792408
1408225656390	96	4185099	324300	330	9	37.44763895	-122.16401239	4791829	1.3572276057e+12	151.287792408
1408225656408	96	4177719	281900	330	9	37.44763895	-122.16401239	4791829	1.1776989861e+12	151.287792408
1408225656426	96	4176537	284200	330	9	37.44763895	-122.16401239	4791829	1.1869718154e+12	151.287792408
1408225656449	96	4180374	287600	330	9	37.44763895	-122.16401239	4791829	1.2022755624e+12	151.287792408
1408225656467	96	4173585	454600	330	9	37.44763895	-122.16401239	4791829	1.897311741e+12	151.287792408
1408225656487	96	4172700	294900	330	9	37.44763895	-122.16401239	4791829	1.23052923e+12	151.287792408
1408225656506	96	4180080	351600	330	9	37.44763895	-122.16401239	4791829	1.469716128e+12	151.287792408
1408225656530	96	4178013	247900	330	9	37.44763895	-122.16401239	4791829	1.0357294227e+12	151.287792408
1408225656549	96	4186278	470000	330	9	37.44763895	-122.16401239	4791829	1.96755066e+12	151.287792408
1408225656570	96	4189524	267200	330	9	37.44763895	-122.16401239	4791829	1.1194408128e+12	151.287792408
1408225656590	96	4190706	298400	330	9	37.44763895	-122.16401239	4791829	1.2505066704e+12	151.287792408
1408225656623	96	4196019	247900	330	9	37.44763895	-122.16401239	4791829	1.0401931101e+12	151.287792408
1408225656669	96	4195428	284200	330	9	37.44763895	-122.16401239	4791829	1.1923406376e+12	151.287792408
1408225656691	96	4196019	275700	330	9	37.44763895	-122.16401239	4791829	1.1568424383e+12	151.287792408
1408225656714	96	4199562	252400	330	9	37.44763895	-122.16401239	4791829	1.0599694488e+12	151.287792408
1408225656736	96	4196904	241700	330	9	37.44763895	-122.16401239	4791829	1.0143916968e+12	151.287792408
1408225656775	96	4194543	258100	330	9	37.44763895	-122.16401239	4791829	1.0826115483e+12	151.287792408
1408225656818	96	4191591	285300	330	9	37.44763895	-122.16401239	4791829	1.1958609123e+12	151.287792408
1408225656839	96	4194249	251900	330	9	37.44763895	-122.16401239	4791829	1.0565313231e+12	151.287792408
1408225656861	96	4198086	241700	330	9	37.44763895	-122.16401239	4791829	1.0146773862e+12	151.287792408
1408225656881	96	4197495	262000	330	9	37.44763895	-122.16401239	4791829	1.09974369e+12	151.287792408
1408225656917	96	4196019	287000	330	9	37.44763895	-122.16401239	4791829	1.204257453e+12	151.287792408
1408225656954	96	4172109	277400	330	9	37.44763895	-122.16401239	4791829	1.1573430366e+12	151.287792408
1408225656970	96	4188936	349300	330	9	37.44763895	-122.16401239	4791829	1.4631953448e+12	151.287792408
1408225656990	96	4178898	340200	330	9	37.44763895	-122.16401239	4791829	1.4216610996e+12	151.287792408
1408225657008	96	4178013	317600	330	9	37.44763895	-122.16401239	4791829	1.3269369288e+12	151.287792408
1408225657037	96	4178604	406500	330	9	37.44763895	-122.16401239	4791829	1.698602526e+12	151.287792408
1408225657056	96	4174767	317000	330	9	37.44763895	-122.16401239	4791829	1.323401139e+12	151.287792408
1408225657074	96	4187163	358900	330	9	37.44763895	-122.16401239	4791829	1.5027728007e+12	151.287792408
1408225657100	96	4187460	309600	330	9	37.44763895	-122.16401239	4791829	1.296437616e+12	151.287792408
1408225657118	96	4172406	374800	330	9	37.44763895	-122.16401239	4791829	1.5638177688e+12	151.287792408
1408225657136	96	4176537	308500	330	9	37.44763895	-122.16401239	4791829	1.2884616645e+12	151.287792408
1408225657158	96	4187754	338500	330	9	37.44763895	-122.16401239	4791829	1.417554729e+12	151.287792408
1408225657194	96	4189821	282500	330	9	37.44763895	-122.16401239	4791829	1.1836244325e+12	151.287792408
1408225657225	96	4191888	294900	330	9	37.44763895	-122.16401239	4791829	1.2361877712e+12	151.287792408
1408225657247	96	4196316	260400	330	9	37.44763895	-122.16401239	4791829	1.0927206864e+12	151.287792408
1408225657284	96	4195725	257500	330	9	37.44763895	-122.16401239	4791829	1.0803991875e+12	151.287792408
1408225657305	96	4195134	288100	330	9	37.44763895	-122.16401239	4791829	1.2086181054e+12	151.287792408
1408225657346	96	4195428	279000	330	9	37.44763895	-122.16401239	4791829	1.170524412e+12	151.287792408
1408225657362	96	4169748	437600	330	9	37.44763895	-122.16401239	4791829	1.8246817248e+12	151.287792408
1408225657380	96	4177422	391800	330	9	37.44763895	-122.16401239	4791829	1.6367139396e+12	151.287792408
1408225657399	96	4177128	357200	330	9	37.44763895	-122.16401239	4791829	1.4920701216e+12	151.287792408
1408225657433	96	4177422	283600	330	9	37.44763895	-122.16401239	4791829	1.1847168792e+12	151.287792408
1408225657451	96	4187460	307300	330	9	37.44763895	-122.16401239	4791829	1.286806458e+12	151.287792408
1408225657466	96	4187460	289300	330	9	37.44763895	-122.16401239	4791829	1.211432178e+12	151.287792408
1408225657487	96	4178898	278500	330	9	37.44763895	-122.16401239	4791829	1.163823093e+12	151.287792408
1408225657512	96	4167093	361700	330	9	37.44763895	-122.16401239	4791829	1.5072375381e+12	151.287792408
1408225657530	96	4185984	470500	330	9	37.44763895	-122.16401239	4791829	1.969505472e+12	151.287792408
1408225657549	96	4191591	284700	330	9	37.44763895	-122.16401239	4791829	1.1933459577e+12	151.287792408
1408225657568	96	4190412	261500	330	9	37.44763895	-122.16401239	4791829	1.095792738e+12	151.287792408
1408225657604	96	4191000	284700	330	9	37.44763895	-122.16401239	4791829	1.1931777e+12	151.287792408
1408225657644	96	4193952	292100	330	9	37.44763895	-122.16401239	4791829	1.2250533792e+12	151.287792408
1408225657664	96	4190115	360600	330	9	37.44763895	-122.16401239	4791829	1.510955469e+12	151.287792408
1408225657683	96	4188936	296100	330	9	37.44763895	-122.16401239	4791829	1.2403439496e+12	151.287792408
1408225657701	96	4188051	337900	330	9	37.44763895	-122.16401239	4791829	1.4151424329e+12	151.287792408
1408225657730	96	4166205	336200	330	9	37.44763895	-122.16401239	4791829	1.400678121e+12	151.287792408
1408225657749	96	4178604	387200	330	9	37.44763895	-122.16401239	4791829	1.6179554688e+12	151.287792408
1408225657767	96	4178307	276200	330	9	37.44763895	-122.16401239	4791829	1.1540483934e+12	151.287792408
1408225657786	96	4178013	322700	330	9	37.44763895	-122.16401239	4791829	1.3482447951e+12	151.287792408
1408225657813	96	4165911	331100	330	9	37.44763895	-122.16401239	4791829	1.3793331321e+12	151.287792408
1408225657830	96	4187460	460900	331	9	37.44763895	-122.16401239	4791829	1.930000314e+12	151.287792408
1408225657849	96	4190706	284700	330	9	37.44763895	-122.16401239	4791829	1.1930939982e+12	151.287792408
1408225657868	96	4190706	261000	330	9	37.44763895	-122.16401239	4791829	1.093774266e+12	151.287792408
1408225657904	96	4190115	293800	330	9	37.44763895	-122.16401239	4791829	1.231055787e+12	151.287792408
1408225657946	96	4193658	288100	331	9	37.44763895	-122.16401239	4791829	1.2081928698e+12	151.287792408
1408225657964	96	4189821	366800	331	9	37.44763895	-122.16401239	4791829	1.5368263428e+12	151.287792408
1408225657983	96	4179783	347000	331	9	37.44763895	-122.16401239	4791829	1.450384701e+12	151.287792408
1408225658000	96	4185393	322200	330	9	37.44763895	-122.16401239	4791829	1.3485336246e+12	151.287792408
1408225658030	96	4167093	295500	331	9	37.44763895	-122.16401239	4791829	1.2313759815e+12	151.287792408
1408225658048	96	4180671	375400	330	9	37.44763895	-122.16401239	4791829	1.5694238934e+12	151.287792408
1408225658066	96	4180080	272300	331	9	37.44763895	-122.16401239	4791829	1.138235784e+12	151.287792408
1408225658086	96	4175061	334000	331	9	37.44763895	-122.16401239	4791829	1.394470374e+12	151.287792408
1408225658111	96	4168863	355600	331	9	37.44763895	-122.16401239	4791829	1.4824476828e+12	151.287792408
1408225658130	96	4175358	482400	331	9	37.44763895	-122.16401239	4791829	2.0141926992e+12	151.287792408
1408225658149	96	4189821	293800	330	9	37.44763895	-122.16401239	4791829	1.2309694098e+12	151.287792408
1408225658169	96	4188345	287000	330	9	37.44763895	-122.16401239	4791829	1.202055015e+12	151.287792408
1408225658204	96	4186869	293200	330	9	37.44763895	-122.16401239	4791829	1.2275899908e+12	151.287792408
1408225658246	96	4192773	299500	330	9	37.44763895	-122.16401239	4791829	1.2557355135e+12	151.287792408
1408225658267	96	4177719	269400	331	9	37.44763895	-122.16401239	4791829	1.1254774986e+12	151.287792408
1408225658286	96	4177719	329500	330	9	37.44753883	-122.16410785	4791829	1.3765584105e+12	165.245794653
1408225658286	96	4177719	269400	331	9	37.44753883	-122.16410785	4791829	1.1254774986e+12	165.245794653
1408225658302	96	4167387	475000	330	9	37.44753883	-122.16410785	4791829	1.979508825e+12	165.245794653
1408225658330	96	4164729	362300	330	9	37.44753883	-122.16410785	4791829	1.5088813167e+12	165.245794653
1408225658349	96	4178604	400900	331	9	37.44753883	-122.16410785	4791829	1.6752023436e+12	165.245794653
1408225658367	96	4177128	276200	331	9	37.44753883	-122.16410785	4791829	1.1537227536e+12	165.245794653
1408225658385	96	4179195	328900	331	9	37.44753883	-122.16410785	4791829	1.3745372355e+12	165.245794653
1408225658414	96	4164729	473900	330	9	37.44753883	-122.16410785	4791829	1.9736650731e+12	165.245794653
1408225658433	96	4186278	292100	331	9	37.44753883	-122.16410785	4791829	1.2228118038e+12	165.245794653
1408225658454	96	4188051	321000	330	9	37.44753883	-122.16410785	4791829	1.344364371e+12	165.245794653
1408225658475	96	4191888	259800	330	9	37.44753883	-122.16410785	4791829	1.0890525024e+12	165.245794653
1408225658504	96	4192773	270000	331	9	37.44753883	-122.16410785	4791829	1.13204871e+12	165.245794653
1408225658548	96	4192773	293200	331	9	37.44753883	-122.16410785	4791829	1.2293210436e+12	165.245794653
1408225658568	96	4178307	245100	331	9	37.44753883	-122.16410785	4791829	1.0241030457e+12	165.245794653
1408225658587	96	4180671	293800	331	9	37.44753883	-122.16410785	4791829	1.2282811398e+12	165.245794653
1408225658607	96	4179783	282500	331	9	37.44753883	-122.16410785	4791829	1.1807886975e+12	165.245794653
1408225658631	96	4170042	263200	330	9	37.44753883	-122.16410785	4791829	1.0975550544e+12	165.245794653
1408225658650	96	4177719	357200	331	9	37.44753883	-122.16410785	4791829	1.4922812268e+12	165.245794653
1408225658668	96	4178307	319900	331	9	37.44753883	-122.16410785	4791829	1.3366404093e+12	165.245794653
1408225658686	96	4179195	301700	331	9	37.44753883	-122.16410785	4791829	1.2608631315e+12	165.245794653
1408225658717	96	4177422	322700	331	9	37.44753883	-122.16410785	4791829	1.3480540794e+12	165.245794653
1408225658737	96	4179489	279700	331	9	37.44753883	-122.16410785	4791829	1.1690030733e+12	165.245794653
1408225658759	96	4189821	275100	331	9	37.44753883	-122.16410785	4791829	1.1526197571e+12	165.245794653
1408225658780	96	4191000	267200	331	9	37.44753883	-122.16410785	4791829	1.1198352e+12	165.245794653
1408225658825	96	4193067	268900	331	9	37.44753883	-122.16410785	4791829	1.1275157163e+12	165.245794653
1408225658870	96	4195428	281900	331	9	37.44753883	-122.16410785	4791829	1.1826911532e+12	165.245794653
1408225658890	96	4179783	330000	331	9	37.44753883	-122.16410785	4791829	1.37932839e+12	165.245794653
1408225658908	96	4179783	261500	331	9	37.44753883	-122.16410785	4791829	1.0930132545e+12	165.245794653
1408225658927	96	4178898	287000	331	9	37.44753883	-122.16410785	4791829	1.199343726e+12	165.245794653
1408225658952	96	4171518	320400	331	9	37.44753883	-122.16410785	4791829	1.3365543672e+12	165.245794653
1408225658970	96	4179195	432000	331	9	37.44753883	-122.16410785	4791829	1.80541224e+12	165.245794653
1408225658990	96	4179489	342500	331	9	37.44753883	-122.16410785	4791829	1.4314749825e+12	165.245794653
1408225659008	96	4174470	280700	331	9	37.44753883	-122.16410785	4791829	1.171773729e+12	165.245794653
1408225659040	96	4179195	274600	331	9	37.44753883	-122.16410785	4791829	1.147606947e+12	165.245794653
1408225659058	96	4177422	261500	331	9	37.44753883	-122.16410785	4791829	1.092395853e+12	165.245794653
1408225659079	96	4191591	283000	331	9	37.44753883	-122.16410785	4791829	1.186220253e+12	165.245794653
1408225659099	96	4191000	288100	331	9	37.44753883	-122.16410785	4791829	1.2074271e+12	165.245794653
1408225659135	96	4192476	267800	331	9	37.44753883	-122.16410785	4791829	1.1227450728e+12	165.245794653
1408225659171	96	4192182	280700	331	9	37.44753883	-122.16410785	4791829	1.1767454874e+12	165.245794653
1408225659188	96	4172109	365200	331	9	37.44753883	-122.16410785	4791829	1.5236542068e+12	165.245794653
1408225659206	96	4176834	348800	331	9	37.44753883	-122.16410785	4791829	1.4568796992e+12	165.245794653
1408225659226	96	4179195	257500	331	9	37.44753883	-122.16410785	4791829	1.0761427125e+12	165.245794653
1408225659252	96	4170930	305700	331	9	37.44753883	-122.16410785	4791829	1.275053301e+12	165.245794653
1408225659284	96	4168863	417800	331	9	37.44753883	-122.16410785	4791829	1.7417509614e+12	165.245794653
1408225659308	96	4166796	455800	331	9	37.44753883	-122.16410785	4791829	1.8992256168e+12	165.245794653
1408225659327	96	4172406	464200	331	9	37.44753883	-122.16410785	4791829	1.9368308652e+12	165.245794653
1408225659351	96	4178013	335700	330	9	37.44753883	-122.16410785	4791829	1.4025589641e+12	165.245794653
1408225659371	96	4183917	464800	331	9	37.44753883	-122.16410785	4791829	1.9446846216e+12	165.245794653
1408225659391	96	4193364	301700	331	9	37.44753883	-122.16410785	4791829	1.2651379188e+12	165.245794653
1408225659410	96	4188639	271100	331	9	37.44753883	-122.16410785	4791829	1.1355400329e+12	165.245794653
1408225659443	96	4196316	271100	331	9	37.44753883	-122.16410785	4791829	1.1376212676e+12	165.245794653
1408225659489	96	4194543	283600	331	9	37.44753883	-122.16410785	4791829	1.1895723948e+12	165.245794653
1408225659512	96	4197201	249600	331	9	37.44753883	-122.16410785	4791829	1.0476213696e+12	165.245794653
1408225659534	96	4197495	253600	331	9	37.44753883	-122.16410785	4791829	1.064484732e+12	165.245794653
1408225659556	96	4197792	258700	331	9	37.44753883	-122.16410785	4791829	1.0859687904e+12	165.245794653
1408225659585	96	4195428	254700	331	9	37.44753883	-122.16410785	4791829	1.0685755116e+12	165.245794653
1408225659636	96	4195134	283600	331	9	37.44753883	-122.16410785	4791829	1.1897400024e+12	165.245794653
1408225659658	96	4196019	255900	331	9	37.44753883	-122.16410785	4791829	1.0737612621e+12	165.245794653
1408225659679	96	4197495	244000	331	9	37.44753883	-122.16410785	4791829	1.02418878e+12	165.245794653
1408225659702	96	4196610	255900	331	9	37.44753883	-122.16410785	4791829	1.073912499e+12	165.245794653
1408225659737	96	4194840	284200	331	9	37.44753883	-122.16410785	4791829	1.192173528e+12	165.245794653
1408225659774	96	4172109	283000	331	9	37.44753883	-122.16410785	4791829	1.180706847e+12	165.245794653
1408225659790	96	4188936	283600	331	9	37.44753883	-122.16410785	4791829	1.1879822496e+12	165.245794653
1408225659808	96	4180965	321500	331	9	37.44753883	-122.16410785	4791829	1.3441802475e+12	165.245794653
1408225659827	96	4178307	296100	331	9	37.44753883	-122.16410785	4791829	1.2371967027e+12	165.245794653
1408225659858	96	4177719	292100	331	9	37.44753883	-122.16410785	4791829	1.2203117199e+12	165.245794653
1408225659877	96	4178013	263200	331	9	37.44753883	-122.16410785	4791829	1.0996530216e+12	165.245794653
1408225659896	96	4188639	320400	331	9	37.44753883	-122.16410785	4791829	1.3420399356e+12	165.245794653
1408225659920	96	4177128	261000	331	9	37.44753883	-122.16410785	4791829	1.090230408e+12	165.245794653
1408225659938	96	4175358	462500	331	9	37.44753883	-122.16410785	4791829	1.931103075e+12	165.245794653
1408225659957	96	4178013	251300	331	9	37.44753883	-122.16410785	4791829	1.0499346669e+12	165.245794653
1408225659978	96	4191000	283600	331	9	37.44753883	-122.16410785	4791829	1.1885676e+12	165.245794653
1408225660014	96	4194840	274600	331	9	37.44753883	-122.16410785	4791829	1.151903064e+12	165.245794653
1408225660046	96	4191297	281300	331	9	37.44753883	-122.16410785	4791829	1.1790118461e+12	165.245794653
1408225660067	96	4196019	240500	331	9	37.44753883	-122.16410785	4791829	1.0091425695e+12	165.245794653
1408225660088	96	4196316	258100	331	9	37.44753883	-122.16410785	4791829	1.0830691596e+12	165.245794653
1408225660109	96	4196019	258700	331	9	37.44753883	-122.16410785	4791829	1.0855101153e+12	165.245794653
1408225660145	96	4195134	280200	331	9	37.44753883	-122.16410785	4791829	1.1754765468e+12	165.245794653
1408225660187	96	4195134	287000	331	9	37.44753883	-122.16410785	4791829	1.204003458e+12	165.245794653
1408225660209	96	4195428	247300	331	9	37.44753883	-122.16410785	4791829	1.0375293444e+12	165.245794653
1408225660231	96	4199856	236000	331	9	37.44753883	-122.16410785	4791829	9.91166016e+11	165.245794653
1408225660252	96	4200447	232100	331	9	37.44753883	-122.16410785	4791829	9.749237487e+11	165.245794653
1408225660315	96	4195725	265000	331	9	37.44753883	-122.16410785	4791829	1.111867125e+12	165.245794653
