Time	SOD	Volt	Current	Temp	Signal	Latitude	Longitude	CellID	Power	Distance
1408227813476	86	4090638	304800	410	9	37.44860235	-122.16307803	4840551	1.2468264624e+12	16.5961842128
1408227813481	86	4089162	294700	410	9	37.44860235	-122.16307803	4840551	1.2050760414e+12	16.5961842128
1408227813497	86	4068501	417600	410	9	37.44860235	-122.16307803	4840551	1.6990060176e+12	16.5961842128
1408227813517	86	4075881	357500	410	9	37.44860235	-122.16307803	4840551	1.4571274575e+12	16.5961842128
1408227813541	86	4075290	328600	410	9	37.44860235	-122.16307803	4840551	1.339140294e+12	16.5961842128
1408227813558	86	4073223	452200	410	9	37.44860235	-122.16307803	4840551	1.8419114406e+12	16.5961842128
1408227813576	86	4074996	350100	410	9	37.44860235	-122.16307803	4840551	1.4266560996e+12	16.5961842128
1408227813596	86	4077945	371700	410	9	37.44860235	-122.16307803	4840551	1.5157721565e+12	16.5961842128
1408227813634	86	4077651	276000	410	9	37.44860235	-122.16307803	4840551	1.125431676e+12	16.5961842128
1408227813653	86	4083261	337700	410	9	37.44860235	-122.16307803	4840551	1.3789172397e+12	16.5961842128
1408227813670	86	4073814	369400	410	9	37.44860235	-122.16307803	4840551	1.5048668916e+12	16.5961842128
1408227813688	86	4085622	286100	410	9	37.44860235	-122.16307803	4840551	1.1688964542e+12	16.5961842128
1408227813714	86	4082079	277600	410	9	37.44860235	-122.16307803	4840551	1.1331851304e+12	16.5961842128
1408227813741	86	4079718	347300	410	9	37.44860235	-122.16307803	4840551	1.4168860614e+12	16.5961842128
1408227813761	86	4087983	304300	410	9	37.44860235	-122.16307803	4840551	1.2439732269e+12	16.5961842128
1408227813784	86	4089753	283900	410	9	37.44860235	-122.16307803	4840551	1.1610808767e+12	16.5961842128
1408227813807	86	4092114	295800	410	9	37.44860235	-122.16307803	4840551	1.2104473212e+12	16.5961842128
1408227813844	86	4090050	272000	410	9	37.44860235	-122.16307803	4840551	1.1124936e+12	16.5961842128
1408227813891	86	4068795	298000	410	9	37.44860235	-122.16307803	4840551	1.21250091e+12	16.5961842128
1408227813908	86	4076175	315000	410	9	37.44860235	-122.16307803	4840551	1.283995125e+12	16.5961842128
1408227813927	86	4075584	325800	410	9	37.44860235	-122.16307803	4840551	1.3278252672e+12	16.5961842128
1408227813947	86	4075584	269700	410	9	37.44860235	-122.16307803	4840551	1.0991850048e+12	16.5961842128
1408227813977	86	4073520	453900	410	9	37.44860235	-122.16307803	4840551	1.848970728e+12	16.5961842128
1408227813997	86	4076175	290100	410	9	37.44860235	-122.16307803	4840551	1.1824983675e+12	16.5961842128
1408227814017	86	4077357	290700	410	9	37.44860235	-122.16307803	4840551	1.1852876799e+12	16.5961842128
1408227814053	86	4075881	329200	410	9	37.44860235	-122.16307803	4840551	1.3417800252e+12	16.5961842128
1408227814073	86	4074405	303600	410	9	37.44860235	-122.16307803	4840551	1.236989358e+12	16.5961842128
1408227814092	86	4087392	336500	410	9	37.44860235	-122.16307803	4840551	1.375407408e+12	16.5961842128
1408227814111	86	4087983	286100	410	9	37.44860235	-122.16307803	4840551	1.1695719363e+12	16.5961842128
1408227814145	86	4087098	286100	410	9	37.44860235	-122.16307803	4840551	1.1693187378e+12	16.5961842128
1408227814188	86	4085916	309400	410	9	37.44860235	-122.16307803	4840551	1.2641824104e+12	16.5961842128
1408227814206	86	4076469	290700	410	9	37.44860235	-122.16307803	4840551	1.1850295383e+12	16.5961842128
1408227814227	86	4080603	305400	410	9	37.44860235	-122.16307803	4840551	1.2462161562e+12	16.5961842128
1408227814247	86	4077357	261700	410	9	37.44860235	-122.16307803	4840551	1.0670443269e+12	16.5961842128
1408227814273	86	4068204	384700	410	9	37.44860235	-122.16307803	4840551	1.5650380788e+12	16.5961842128
1408227814292	86	4080897	445400	410	9	37.44860235	-122.16307803	4840551	1.8176315238e+12	16.5961842128
1408227814309	86	4074699	359200	410	9	37.44860235	-122.16307803	4840551	1.4636318808e+12	16.5961842128
1408227814329	86	4068204	409100	410	9	37.44860235	-122.16307803	4840551	1.6643022564e+12	16.5961842128
1408227814361	86	4073520	279900	410	9	37.44860235	-122.16307803	4840551	1.140178248e+12	16.5961842128
1408227814378	86	4070568	423900	410	9	37.44860235	-122.16307803	4840551	1.7255137752e+12	16.5961842128
1408227814399	86	4086801	290700	410	9	37.44860235	-122.16307803	4840551	1.1880330507e+12	16.5961842128
1408227814419	86	4085916	305900	410	9	37.44860235	-122.16307803	4840551	1.2498817044e+12	16.5961842128
1408227814468	86	4090050	313400	410	9	37.44860235	-122.16307803	4840551	1.28182167e+12	16.5961842128
1408227814496	86	4065843	310500	410	9	37.44860235	-122.16307803	4840551	1.2624442515e+12	16.5961842128
1408227814497	86	4065843	310500	410	9	37.44852231	-122.16313534	4840551	1.2624442515e+12	26.8250480249
1408227814512	86	4062303	458500	410	9	37.44852231	-122.16313534	4840551	1.8625659255e+12	26.8250480249
1408227814530	86	4083849	339400	410	9	37.44852231	-122.16313534	4840551	1.3860583506e+12	26.8250480249
1408227814548	86	4073520	301400	410	9	37.44852231	-122.16313534	4840551	1.227758928e+12	26.8250480249
1408227814573	86	4067319	304800	410	9	37.44852231	-122.16313534	4840551	1.2397188312e+12	26.8250480249
1408227814593	86	4080603	453300	410	9	37.44852231	-122.16313534	4840551	1.8497373399e+12	26.8250480249
1408227814611	86	4081785	352400	410	9	37.44852231	-122.16313534	4840551	1.438421034e+12	26.8250480249
1408227814628	86	4076175	380700	410	9	37.44852231	-122.16313534	4840551	1.5517998225e+12	26.8250480249
1408227814664	86	4075584	254300	410	9	37.44852231	-122.16313534	4840551	1.0364210112e+12	26.8250480249
1408227814683	86	4082964	327500	410	9	37.44852231	-122.16313534	4840551	1.33717071e+12	26.8250480249
1408227814704	86	4090638	305400	410	9	37.44852231	-122.16313534	4840551	1.2492808452e+12	26.8250480249
1408227814724	86	4090638	285600	410	9	37.44852231	-122.16313534	4840551	1.1682862128e+12	26.8250480249
1408227814755	86	4088574	320700	410	9	37.44852231	-122.16313534	4840551	1.3112056818e+12	26.8250480249
1408227814805	86	4090344	301400	410	9	37.44852231	-122.16313534	4840551	1.2328296816e+12	26.8250480249
1408227814827	86	4089459	279300	410	9	37.44852231	-122.16313534	4840551	1.1421858987e+12	26.8250480249
1408227814848	86	4090050	260600	410	9	37.44852231	-122.16313534	4840551	1.06586703e+12	26.8250480249
1408227814870	86	4090344	265700	410	9	37.44852231	-122.16313534	4840551	1.0868044008e+12	26.8250480249
1408227814907	86	4086213	300800	410	9	37.44852231	-122.16313534	4840551	1.2291328704e+12	26.8250480249
1408227814944	86	4071747	302600	410	9	37.44852231	-122.16313534	4840551	1.2321106422e+12	26.8250480249
1408227814964	86	4085622	310500	410	9	37.44852231	-122.16313534	4840551	1.268585631e+12	26.8250480249
1408227814984	86	4085031	321300	410	9	37.44852231	-122.16313534	4840551	1.3125204603e+12	26.8250480249
1408227815003	86	4084440	348500	410	9	37.44852231	-122.16313534	4840551	1.42342734e+12	26.8250480249
1408227815027	86	4064958	461300	410	9	37.44852231	-122.16313534	4840551	1.8751651254e+12	26.8250480249
1408227815047	86	4075290	367800	410	9	37.44852231	-122.16313534	4840551	1.498891662e+12	26.8250480249
1408227815066	86	4076766	292400	410	9	37.44852231	-122.16313534	4840551	1.1920463784e+12	26.8250480249
1408227815087	86	4076175	332600	410	9	37.44852231	-122.16313534	4840551	1.355735805e+12	26.8250480249
1408227815113	86	4068501	426100	410	9	37.44852231	-122.16313534	4840551	1.7335882761e+12	26.8250480249
1408227815134	86	4080897	406800	410	9	37.44852231	-122.16313534	4840551	1.6601088996e+12	26.8250480249
1408227815157	86	4088868	299100	410	9	37.44852231	-122.16313534	4840551	1.2229804188e+12	26.8250480249
1408227815182	86	4088277	298600	410	9	37.44852231	-122.16313534	4840551	1.2207595122e+12	26.8250480249
1408227815214	86	4092114	299100	410	9	37.44852231	-122.16313534	4840551	1.2239512974e+12	26.8250480249
1408227815262	86	4087686	305900	410	9	37.44852231	-122.16313534	4840551	1.2504231474e+12	26.8250480249
1408227815284	86	4094181	271400	410	9	37.44852231	-122.16313534	4840551	1.1111607234e+12	26.8250480249
1408227815307	86	4087983	275300	410	9	37.44852231	-122.16313534	4840551	1.1254217199e+12	26.8250480249
1408227815327	86	4089459	284900	410	9	37.44852231	-122.16313534	4840551	1.1650868691e+12	26.8250480249
1408227815355	86	4087983	283900	410	9	37.44852231	-122.16313534	4840551	1.1605783737e+12	26.8250480249
1408227815407	86	4086801	311600	410	9	37.44852231	-122.16313534	4840551	1.2734471916e+12	26.8250480249
1408227815441	86	4088277	286700	410	9	37.44852231	-122.16313534	4840551	1.1721090159e+12	26.8250480249
1408227815467	86	4088868	286100	410	9	37.44852231	-122.16313534	4840551	1.1698251348e+12	26.8250480249
1408227815492	86	4088574	294700	410	9	37.44852231	-122.16313534	4840551	1.2049027578e+12	26.8250480249
1408227815518	86	4085916	290100	410	9	37.44852231	-122.16313534	4840551	1.1853242316e+12	26.8250480249
1408227815549	86	4067910	307100	410	9	37.44852231	-122.16313534	4840551	1.249255161e+12	26.8250480249
1408227815568	86	4074405	341700	410	9	37.44852231	-122.16313534	4840551	1.3922241885e+12	26.8250480249
1408227815586	86	4076469	354100	410	9	37.44852231	-122.16313534	4840551	1.4434776729e+12	26.8250480249
1408227815607	86	4075881	298600	410	9	37.44852231	-122.16313534	4840551	1.2170580666e+12	26.8250480249
1408227815636	86	4070862	462900	410	9	37.44852231	-122.16313534	4840551	1.8844020198e+12	26.8250480249
1408227815657	86	4078242	265700	410	9	37.44852231	-122.16313534	4840551	1.0835888994e+12	26.8250480249
1408227815677	86	4078242	318500	410	9	37.44852231	-122.16313534	4840551	1.298920077e+12	26.8250480249
1408227815715	86	4078242	273700	410	9	37.44852231	-122.16313534	4840551	1.1162148354e+12	26.8250480249
1408227815737	86	4081194	333700	410	9	37.44852231	-122.16313534	4840551	1.3618944378e+12	26.8250480249
1408227815757	86	4085031	299800	410	9	37.44852231	-122.16313534	4840551	1.2246922938e+12	26.8250480249
1408227815781	86	4087392	300300	410	9	37.44852231	-122.16313534	4840551	1.2274438176e+12	26.8250480249
1408227815817	86	4087392	279900	410	9	37.44852231	-122.16313534	4840551	1.1440610208e+12	26.8250480249
1408227815860	86	4090344	308800	410	9	37.44852231	-122.16313534	4840551	1.2630982272e+12	26.8250480249
1408227815882	86	4092411	260100	410	9	37.44852231	-122.16313534	4840551	1.0644361011e+12	26.8250480249
1408227815905	86	4092411	286100	410	9	37.44852231	-122.16313534	4840551	1.1708387871e+12	26.8250480249
1408227815927	86	4089459	283900	410	9	37.44852231	-122.16313534	4840551	1.1609974101e+12	26.8250480249
1408227815968	86	4088868	298600	410	9	37.44852231	-122.16313534	4840551	1.2209359848e+12	26.8250480249
1408227816010	86	4090344	301400	410	9	37.44852231	-122.16313534	4840551	1.2328296816e+12	26.8250480249
1408227816032	86	4091820	291200	410	9	37.44852231	-122.16313534	4840551	1.191537984e+12	26.8250480249
1408227816054	86	4093590	281600	410	9	37.44852231	-122.16313534	4840551	1.152754944e+12	26.8250480249
1408227816077	86	4090344	266900	410	9	37.44852231	-122.16313534	4840551	1.0917128136e+12	26.8250480249
1408227816112	86	4089459	296300	410	9	37.44852231	-122.16313534	4840551	1.2117067017e+12	26.8250480249
1408227816147	86	4068795	309400	410	9	37.44852231	-122.16313534	4840551	1.258885173e+12	26.8250480249
1408227816166	86	4077651	304800	410	9	37.44852231	-122.16313534	4840551	1.2428680248e+12	26.8250480249
1408227816186	86	4077945	350800	410	9	37.44852231	-122.16313534	4840551	1.430543106e+12	26.8250480249
1408227816210	86	4085622	260100	410	9	37.44852231	-122.16313534	4840551	1.0626702822e+12	26.8250480249
1408227816228	86	4072044	456200	410	9	37.44852231	-122.16313534	4840551	1.8576664728e+12	26.8250480249
1408227816247	86	4075290	258900	410	9	37.44852231	-122.16313534	4840551	1.055092581e+12	26.8250480249
1408227816268	86	4075290	295800	410	9	37.44852231	-122.16313534	4840551	1.205470782e+12	26.8250480249
1408227816304	86	4077357	356400	410	9	37.44852231	-122.16313534	4840551	1.4531700348e+12	26.8250480249
1408227816323	86	4081785	444200	410	9	37.44852231	-122.16313534	4840551	1.813128897e+12	26.8250480249
1408227816342	86	4087392	341700	410	9	37.44852231	-122.16313534	4840551	1.3966618464e+12	26.8250480249
1408227816363	86	4090050	303600	410	9	37.44852231	-122.16313534	4840551	1.24173918e+12	26.8250480249
1408227816393	86	4088868	295200	410	9	37.44852231	-122.16313534	4840551	1.2070338336e+12	26.8250480249
1408227816443	86	4085325	298600	410	9	37.44852231	-122.16313534	4840551	1.219878045e+12	26.8250480249
1408227816457	86	4085325	298600	410	9	37.44840541	-122.16324547	4840551	1.219878045e+12	43.0514325992
1408227816461	86	4070568	394900	410	9	37.44840541	-122.16324547	4840551	1.6074673032e+12	43.0514325992
1408227816477	86	4069386	445900	410	9	37.44840541	-122.16324547	4840551	1.8145392174e+12	43.0514325992
1408227816497	86	4075881	321800	410	9	37.44840541	-122.16324547	4840551	1.3116185058e+12	43.0514325992
1408227816533	86	4067910	347300	410	9	37.44840541	-122.16324547	4840551	1.412785143e+12	43.0514325992
1408227816553	86	4065843	457300	410	9	37.44840541	-122.16324547	4840551	1.8593100039e+12	43.0514325992
1408227816573	86	4081194	334900	410	9	37.44840541	-122.16324547	4840551	1.3667918706e+12	43.0514325992
1408227816591	86	4083555	308800	410	9	37.44840541	-122.16324547	4840551	1.261001784e+12	43.0514325992
1408227816608	86	4075584	292900	410	9	37.44840541	-122.16324547	4840551	1.1937385536e+12	43.0514325992
1408227816636	86	4079127	417100	410	9	37.44840541	-122.16324547	4840551	1.7014038717e+12	43.0514325992
1408227816656	86	4083261	363800	410	9	37.44840541	-122.16324547	4840551	1.4854903518e+12	43.0514325992
1408227816677	86	4084737	287900	410	9	37.44840541	-122.16324547	4840551	1.1759957823e+12	43.0514325992
1408227816699	86	4086801	291200	410	9	37.44840541	-122.16324547	4840551	1.1900764512e+12	43.0514325992
1408227816734	86	4086801	290700	410	9	37.44840541	-122.16324547	4840551	1.1880330507e+12	43.0514325992
1408227816772	86	4084737	304800	410	9	37.44840541	-122.16324547	4840551	1.2450278376e+12	43.0514325992
1408227816791	86	4092411	274800	410	9	37.44840541	-122.16324547	4840551	1.1245945428e+12	43.0514325992
1408227816814	86	4090050	262900	410	9	37.44840541	-122.16324547	4840551	1.075274145e+12	43.0514325992
1408227816837	86	4090935	256600	410	9	37.44840541	-122.16324547	4840551	1.049733921e+12	43.0514325992
1408227816875	86	4089753	290700	410	9	37.44840541	-122.16324547	4840551	1.1888911971e+12	43.0514325992
1408227816919	86	4090050	297500	410	9	37.44840541	-122.16324547	4840551	1.216789875e+12	43.0514325992
1408227816939	86	4091229	279300	410	9	37.44840541	-122.16324547	4840551	1.1426802597e+12	43.0514325992
1408227816960	86	4092114	259400	410	9	37.44840541	-122.16324547	4840551	1.0614943716e+12	43.0514325992
1408227816982	86	4092411	266200	410	9	37.44840541	-122.16324547	4840551	1.0893998082e+12	43.0514325992
1408227817018	86	4090638	307100	410	9	37.44840541	-122.16324547	4840551	1.2562349298e+12	43.0514325992
1408227817065	86	4090638	298600	410	9	37.44840541	-122.16324547	4840551	1.2214645068e+12	43.0514325992
1408227817086	86	4092114	258900	410	9	37.44840541	-122.16324547	4840551	1.0594483146e+12	43.0514325992
1408227817110	86	4091526	255000	410	9	37.44840541	-122.16324547	4840551	1.04333913e+12	43.0514325992
1408227817132	86	4091526	271400	410	9	37.44840541	-122.16324547	4840551	1.1104401564e+12	43.0514325992
1408227817169	86	4089162	297500	410	9	37.44840541	-122.16324547	4840551	1.216525695e+12	43.0514325992
1408227817197	86	4070862	323500	410	9	37.44840541	-122.16324547	4840551	1.316923857e+12	43.0514325992
1408227817214	86	4077357	355200	410	9	37.44840541	-122.16324547	4840551	1.4482772064e+12	43.0514325992
1408227817230	86	4082079	360400	410	9	37.44840541	-122.16324547	4840551	1.4711812716e+12	43.0514325992
1408227817260	86	4076469	362000	410	9	37.44840541	-122.16324547	4840551	1.475681778e+12	43.0514325992
1408227817278	86	4075584	431800	410	9	37.44840541	-122.16324547	4840551	1.7598371712e+12	43.0514325992
1408227817297	86	4074108	325300	410	9	37.44840541	-122.16324547	4840551	1.3253073324e+12	43.0514325992
1408227817318	86	4076766	269700	410	9	37.44840541	-122.16324547	4840551	1.0995037902e+12	43.0514325992
1408227817353	86	4074108	337200	410	9	37.44840541	-122.16324547	4840551	1.3737892176e+12	43.0514325992
1408227817370	86	4082079	347900	410	9	37.44840541	-122.16324547	4840551	1.4201552841e+12	43.0514325992
1408227817391	86	4082670	343300	410	9	37.44840541	-122.16324547	4840551	1.401580611e+12	43.0514325992
1408227817412	86	4087098	271400	410	9	37.44840541	-122.16324547	4840551	1.1092383972e+12	43.0514325992
1408227817465	86	4088868	297500	410	9	37.44840541	-122.16324547	4840551	1.21643823e+12	43.0514325992
1408227817495	86	4087983	295200	410	9	37.44840541	-122.16324547	4840551	1.2067725816e+12	43.0514325992
1408227817514	86	4070568	438000	410	9	37.44840541	-122.16324547	4840551	1.782908784e+12	43.0514325992
1408227817533	86	4082079	322400	410	9	37.44840541	-122.16324547	4840551	1.3160622696e+12	43.0514325992
1408227817553	86	4084737	317800	410	9	37.44840541	-122.16324547	4840551	1.2981294186e+12	43.0514325992
1408227817584	86	4067910	452700	410	9	37.44840541	-122.16324547	4840551	1.841542857e+12	43.0514325992
1408227817603	86	4084440	348500	410	9	37.44840541	-122.16324547	4840551	1.42342734e+12	43.0514325992
1408227817620	86	4084146	346800	410	9	37.44840541	-122.16324547	4840551	1.4163818328e+12	43.0514325992
1408227817638	86	4077651	345100	410	9	37.44840541	-122.16324547	4840551	1.4071973601e+12	43.0514325992
1408227817661	86	4077945	354700	410	9	37.44840541	-122.16324547	4840551	1.4464470915e+12	43.0514325992
1408227817680	86	4074699	450500	410	9	37.44840541	-122.16324547	4840551	1.8356518995e+12	43.0514325992
1408227817700	86	4085916	345100	410	9	37.44840541	-122.16324547	4840551	1.4100496116e+12	43.0514325992
1408227817719	86	4087098	286700	410	9	37.44840541	-122.16324547	4840551	1.1717709966e+12	43.0514325992
1408227817753	86	4090935	313900	410	9	37.44840541	-122.16324547	4840551	1.2841444965e+12	43.0514325992
1408227817791	86	4086507	294700	410	9	37.44840541	-122.16324547	4840551	1.2042936129e+12	43.0514325992
1408227817809	86	4076469	292900	410	9	37.44840541	-122.16324547	4840551	1.1939977701e+12	43.0514325992
1408227817827	86	4084440	273100	410	9	37.44840541	-122.16324547	4840551	1.115460564e+12	43.0514325992
1408227817847	86	4077651	315000	410	9	37.44840541	-122.16324547	4840551	1.284460065e+12	43.0514325992
1408227817873	86	4067910	259400	410	9	37.44840541	-122.16324547	4840551	1.055215854e+12	43.0514325992
1408227817890	86	4073814	443700	410	9	37.44840541	-122.16324547	4840551	1.8075512718e+12	43.0514325992
1408227817909	86	4075881	274200	410	9	37.44840541	-122.16324547	4840551	1.1176065702e+12	43.0514325992
1408227817926	86	4086507	267400	410	9	37.44840541	-122.16324547	4840551	1.0927319718e+12	43.0514325992
1408227817963	86	4077651	303600	410	9	37.44840541	-122.16324547	4840551	1.2379748436e+12	43.0514325992
1408227817982	86	4084440	307600	410	9	37.44840541	-122.16324547	4840551	1.256373744e+12	43.0514325992
1408227818004	86	4090050	272000	410	9	37.44840541	-122.16324547	4840551	1.1124936e+12	43.0514325992
1408227818025	86	4086213	271400	410	9	37.44840541	-122.16324547	4840551	1.1089982082e+12	43.0514325992
1408227818056	86	4090050	293500	410	9	37.44840541	-122.16324547	4840551	1.200429675e+12	43.0514325992
1408227818106	86	4089753	298000	410	9	37.44840541	-122.16324547	4840551	1.218746394e+12	43.0514325992
1408227818127	86	4093002	261200	410	9	37.44840541	-122.16324547	4840551	1.0690921224e+12	43.0514325992
1408227818149	86	4090935	292400	410	9	37.44840541	-122.16324547	4840551	1.196189394e+12	43.0514325992
1408227818171	86	4091526	247500	410	9	37.44840541	-122.16324547	4840551	1.012652685e+12	43.0514325992
1408227818207	86	4087983	296800	410	9	37.44840541	-122.16324547	4840551	1.2133133544e+12	43.0514325992
1408227818247	86	4071747	291800	410	9	37.44840541	-122.16324547	4840551	1.1881357746e+12	43.0514325992
1408227818267	86	4074996	362700	410	9	37.44840541	-122.16324547	4840551	1.4780010492e+12	43.0514325992
1408227818286	86	4077060	309900	410	9	37.44840541	-122.16324547	4840551	1.263480894e+12	43.0514325992
1408227818307	86	4078833	343300	410	9	37.44840541	-122.16324547	4840551	1.4002633689e+12	43.0514325992
1408227818337	86	4072632	462400	410	9	37.44840541	-122.16324547	4840551	1.8831850368e+12	43.0514325992
1408227818357	86	4075290	352900	410	9	37.44840541	-122.16324547	4840551	1.438169841e+12	43.0514325992
1408227818376	86	4076469	283300	410	9	37.44840541	-122.16324547	4840551	1.1548636677e+12	43.0514325992
1408227818401	86	4077357	305400	410	9	37.44840541	-122.16324547	4840551	1.2452248278e+12	43.0514325992
1408227818418	86	4074699	457300	410	9	37.44840541	-122.16324547	4840551	1.8633598527e+12	43.0514325992
1408227818449	86	4085622	334900	410	9	37.44840541	-122.16324547	4840551	1.3682748078e+12	43.0514325992
1408227818466	86	4085622	334900	410	9	37.44828555	-122.163368	4840551	1.3682748078e+12	60.2129326654
1408227818471	86	4084737	290700	410	9	37.44828555	-122.163368	4840551	1.1874330459e+12	60.2129326654
1408227818503	86	4081785	332100	410	9	37.44828555	-122.163368	4840551	1.3555607985e+12	60.2129326654
1408227818537	86	4083849	340500	410	9	37.44828555	-122.163368	4840551	1.3905505845e+12	60.2129326654
1408227818553	86	4068204	443700	410	9	37.44828555	-122.163368	4840551	1.8050621148e+12	60.2129326654
1408227818568	86	4064958	435200	410	9	37.44828555	-122.163368	4840551	1.7690697216e+12	60.2129326654
1408227818584	86	4066728	448200	410	9	37.44828555	-122.163368	4840551	1.8227074896e+12	60.2129326654
1408227818615	86	4067319	449400	410	9	37.44828555	-122.163368	4840551	1.8278531586e+12	60.2129326654
1408227818632	86	4070271	440300	410	9	37.44828555	-122.163368	4840551	1.7921403213e+12	60.2129326654
1408227818650	86	4057875	447100	410	9	37.44828555	-122.163368	4840551	1.8142759125e+12	60.2129326654
1408227818668	86	4058169	486800	410	9	37.44828555	-122.163368	4840551	1.9755166692e+12	60.2129326654
1408227818687	86	4058463	497000	410	9	37.44828555	-122.163368	4840551	2.017056111e+12	60.2129326654
1408227818705	86	4058463	609200	410	9	37.44828555	-122.163368	4840551	2.4724156596e+12	60.2129326654
1408227818723	86	4057875	519000	410	9	37.44828555	-122.163368	4840551	2.106037125e+12	60.2129326654
1408227818740	86	4047837	487900	410	9	37.44828555	-122.163368	4840551	1.9749396723e+12	60.2129326654
1408227818760	86	4072929	480000	410	9	37.44828555	-122.163368	4840551	1.95500592e+12	60.2129326654
1408227818779	86	4055808	501000	410	9	37.44828555	-122.163368	4840551	2.031959808e+12	60.2129326654
1408227818797	86	4076469	422100	410	9	37.44828555	-122.163368	4840551	1.7206775649e+12	60.2129326654
1408227818814	86	4074699	403400	410	9	37.44828555	-122.163368	4840551	1.6437335766e+12	60.2129326654
1408227818832	86	4074996	371700	410	9	37.44828555	-122.163368	4840551	1.5146760132e+12	60.2129326654
1408227818851	86	4056693	386500	410	9	37.44828555	-122.163368	4840551	1.5679118445e+12	60.2129326654
1408227818870	86	4077060	504800	410	9	37.44828555	-122.163368	4840551	2.058099888e+12	60.2129326654
1408227818887	86	4080603	358100	410	9	37.44828555	-122.163368	4840551	1.4612639343e+12	60.2129326654
1408227818905	86	4082079	366600	410	9	37.44828555	-122.163368	4840551	1.4964901614e+12	60.2129326654
1408227818930	86	4080897	372300	410	9	37.44828555	-122.163368	4840551	1.5193179531e+12	60.2129326654
1408227818949	86	4068204	454500	410	9	37.44828555	-122.163368	4840551	1.848998718e+12	60.2129326654
1408227818968	86	4073520	291200	410	9	37.44828555	-122.163368	4840551	1.186209024e+12	60.2129326654
1408227818987	86	4074108	360400	410	9	37.44828555	-122.163368	4840551	1.4683085232e+12	60.2129326654
1408227819012	86	4075584	352400	410	9	37.44828555	-122.163368	4840551	1.4362358016e+12	60.2129326654
1408227819028	86	4072632	443700	410	9	37.44828555	-122.163368	4840551	1.8070268184e+12	60.2129326654
1408227819050	86	4082079	330900	410	9	37.44828555	-122.163368	4840551	1.3507599411e+12	60.2129326654
1408227819070	86	4086507	277000	410	9	37.44828555	-122.163368	4840551	1.131962439e+12	60.2129326654
1408227819103	86	4085916	308800	410	9	37.44828555	-122.163368	4840551	1.2617308608e+12	60.2129326654
1408227819151	86	4089162	301400	410	9	37.44828555	-122.163368	4840551	1.2324734268e+12	60.2129326654
1408227819168	86	4075584	311600	410	9	37.44828555	-122.163368	4840551	1.2699519744e+12	60.2129326654
1408227819187	86	4076175	290100	410	9	37.44828555	-122.163368	4840551	1.1824983675e+12	60.2129326654
1408227819206	86	4078536	326400	410	9	37.44828555	-122.163368	4840551	1.3312341504e+12	60.2129326654
1408227819242	86	4078242	269200	410	9	37.44828555	-122.163368	4840551	1.0978627464e+12	60.2129326654
1408227819259	86	4075290	324100	410	9	37.44828555	-122.163368	4840551	1.320801489e+12	60.2129326654
1408227819302	86	4064664	384200	410	9	37.44828555	-122.163368	4840551	1.5616439088e+12	60.2129326654
1408227819318	86	4074996	398900	410	9	37.44828555	-122.163368	4840551	1.6255159044e+12	60.2129326654
1408227819348	86	4073520	368300	410	9	37.44828555	-122.163368	4840551	1.500277416e+12	60.2129326654
1408227819377	86	4080012	361500	410	9	37.44828555	-122.163368	4840551	1.474924338e+12	60.2129326654
1408227819397	86	4086507	309400	410	9	37.44828555	-122.163368	4840551	1.2643652658e+12	60.2129326654
1408227819419	86	4087392	257300	410	9	37.44828555	-122.163368	4840551	1.0516859616e+12	60.2129326654
1408227819448	86	4087686	313400	410	9	37.44828555	-122.163368	4840551	1.2810807924e+12	60.2129326654
1408227819498	86	4070271	312700	410	9	37.44828555	-122.163368	4840551	1.2727737417e+12	60.2129326654
1408227819514	86	4067910	448700	410	9	37.44828555	-122.163368	4840551	1.825271217e+12	60.2129326654
1408227819534	86	4082670	319500	410	9	37.44828555	-122.163368	4840551	1.304413065e+12	60.2129326654
1408227819551	86	4082373	338200	410	9	37.44828555	-122.163368	4840551	1.3806585486e+12	60.2129326654
1408227819581	86	4076766	314500	410	9	37.44828555	-122.163368	4840551	1.282142907e+12	60.2129326654
1408227819600	86	4076469	342800	410	9	37.44828555	-122.163368	4840551	1.3974135732e+12	60.2129326654
1408227819620	86	4077651	315500	410	9	37.44828555	-122.163368	4840551	1.2864988905e+12	60.2129326654
1408227819638	86	4077945	334900	410	9	37.44828555	-122.163368	4840551	1.3657037805e+12	60.2129326654
1408227819661	86	4077060	350800	410	9	37.44828555	-122.163368	4840551	1.430232648e+12	60.2129326654
1408227819678	86	4072338	452200	410	9	37.44828555	-122.163368	4840551	1.8415112436e+12	60.2129326654
1408227819700	86	4084737	341100	410	9	37.44828555	-122.163368	4840551	1.3933037907e+12	60.2129326654
1408227819720	86	4087098	293500	410	9	37.44828555	-122.163368	4840551	1.199563263e+12	60.2129326654
1408227819753	86	4085622	305900	410	9	37.44828555	-122.163368	4840551	1.2497917698e+12	60.2129326654
1408227819798	86	4086213	294000	410	9	37.44828555	-122.163368	4840551	1.201346622e+12	60.2129326654
1408227819818	86	4077357	261700	410	9	37.44828555	-122.163368	4840551	1.0670443269e+12	60.2129326654
1408227819837	86	4078536	309900	410	9	37.44828555	-122.163368	4840551	1.2639383064e+12	60.2129326654
1408227819858	86	4077060	276500	410	9	37.44828555	-122.163368	4840551	1.12730709e+12	60.2129326654
1408227819883	86	4068501	296300	410	9	37.44828555	-122.163368	4840551	1.2054968463e+12	60.2129326654
1408227819900	86	4074405	438600	410	9	37.44828555	-122.163368	4840551	1.787034033e+12	60.2129326654
1408227819920	86	4076766	315500	410	9	37.44828555	-122.163368	4840551	1.286219673e+12	60.2129326654
1408227819938	86	4077945	337700	410	9	37.44828555	-122.163368	4840551	1.3771220265e+12	60.2129326654
1408227819961	86	4076766	272500	410	9	37.44828555	-122.163368	4840551	1.110918735e+12	60.2129326654
1408227819978	86	4067319	452700	410	9	37.44828555	-122.163368	4840551	1.8412753113e+12	60.2129326654
1408227820000	86	4085916	301400	410	9	37.44828555	-122.163368	4840551	1.2314950824e+12	60.2129326654
1408227820021	86	4086507	287200	410	9	37.44828555	-122.163368	4840551	1.1736448104e+12	60.2129326654
1408227820044	86	4087392	307100	410	9	37.44828555	-122.163368	4840551	1.2552380832e+12	60.2129326654
1408227820077	86	4085031	307100	410	9	37.44828555	-122.163368	4840551	1.2545130201e+12	60.2129326654
1408227820124	86	4089459	303100	410	9	37.44828555	-122.163368	4840551	1.2395150229e+12	60.2129326654
1408227820147	86	4093296	260100	410	9	37.44828555	-122.163368	4840551	1.0646662896e+12	60.2129326654
1408227820168	86	4088868	270800	410	9	37.44828555	-122.163368	4840551	1.1072654544e+12	60.2129326654
1408227820188	86	4087392	272000	410	9	37.44828555	-122.163368	4840551	1.111770624e+12	60.2129326654
1408227820218	86	4089459	305900	410	9	37.44828555	-122.163368	4840551	1.2509655081e+12	60.2129326654
1408227820254	86	4069092	294000	410	9	37.44828555	-122.163368	4840551	1.196313048e+12	60.2129326654
1408227820274	86	4083849	358100	410	9	37.44828555	-122.163368	4840551	1.4624263269e+12	60.2129326654
1408227820293	86	4083261	304300	410	9	37.44828555	-122.163368	4840551	1.2425363223e+12	60.2129326654
1408227820320	86	4080897	346800	410	9	37.44828555	-122.163368	4840551	1.4152550796e+12	60.2129326654
1408227820338	86	4069680	456700	410	9	37.44828555	-122.163368	4840551	1.858622856e+12	60.2129326654
1408227820355	86	4072929	362000	410	9	37.44828555	-122.163368	4840551	1.474400298e+12	60.2129326654
1408227820373	86	4079421	374600	410	9	37.44828555	-122.163368	4840551	1.5281511066e+12	60.2129326654
1408227820401	86	4079127	320100	410	9	37.44828555	-122.163368	4840551	1.3057285527e+12	60.2129326654
1408227820418	86	4074405	434000	410	9	37.44828555	-122.163368	4840551	1.76829177e+12	60.2129326654
1408227820440	86	4075584	337700	410	9	37.44828555	-122.163368	4840551	1.3763247168e+12	60.2129326654
1408227820466	86	4075584	337700	410	9	37.44816457	-122.16349155	4840551	1.3763247168e+12	77.5278217541
1408227820467	86	4084440	312200	410	9	37.44816457	-122.16349155	4840551	1.275162168e+12	77.5278217541
1408227820493	86	4082079	339400	410	9	37.44816457	-122.16349155	4840551	1.3854576126e+12	77.5278217541
1408227820523	86	4080012	347900	410	9	37.44816457	-122.16349155	4840551	1.4194361748e+12	77.5278217541
1408227820544	86	4085622	329200	410	9	37.44816457	-122.16349155	4840551	1.3449867624e+12	77.5278217541
1408227820567	86	4088574	295800	410	9	37.44816457	-122.16349155	4840551	1.2094001892e+12	77.5278217541
1408227820587	86	4085031	285600	410	9	37.44816457	-122.16349155	4840551	1.1666848536e+12	77.5278217541
1408227820625	86	4089459	257800	410	9	37.44816457	-122.16349155	4840551	1.0542625302e+12	77.5278217541
1408227820669	86	4090344	292900	410	9	37.44816457	-122.16349155	4840551	1.1980617576e+12	77.5278217541
1408227820689	86	4090935	269700	410	9	37.44816457	-122.16349155	4840551	1.1033251695e+12	77.5278217541
1408227820710	86	4089459	247500	410	9	37.44816457	-122.16349155	4840551	1.0121411025e+12	77.5278217541
1408227820731	86	4091526	262300	410	9	37.44816457	-122.16349155	4840551	1.0732072698e+12	77.5278217541
1408227820769	86	4087983	291800	410	9	37.44816457	-122.16349155	4840551	1.1928734394e+12	77.5278217541
1408227820807	86	4071453	291200	410	9	37.44816457	-122.16349155	4840551	1.1856071136e+12	77.5278217541
1408227820827	86	4075584	296800	410	9	37.44816457	-122.16349155	4840551	1.2096333312e+12	77.5278217541
1408227820846	86	4074996	315500	410	9	37.44816457	-122.16349155	4840551	1.285661238e+12	77.5278217541
1408227820866	86	4077945	263400	410	9	37.44816457	-122.16349155	4840551	1.074130713e+12	77.5278217541
1408227820896	86	4074996	452200	410	9	37.44816457	-122.16349155	4840551	1.8427131912e+12	77.5278217541
1408227820916	86	4077651	266900	410	9	37.44816457	-122.16349155	4840551	1.0883250519e+12	77.5278217541
1408227820937	86	4076766	268000	410	9	37.44816457	-122.16349155	4840551	1.092573288e+12	77.5278217541
1408227820960	86	4077945	342200	410	9	37.44816457	-122.16349155	4840551	1.395472779e+12	77.5278217541
1408227820978	86	4072929	449400	410	9	37.44816457	-122.16349155	4840551	1.8303742926e+12	77.5278217541
1408227821001	86	4084440	307100	410	9	37.44816457	-122.16349155	4840551	1.254331524e+12	77.5278217541
1408227821021	86	4086801	288900	410	9	37.44816457	-122.16349155	4840551	1.1806768089e+12	77.5278217541
1408227821053	86	4087392	308800	410	9	37.44816457	-122.16349155	4840551	1.2621866496e+12	77.5278217541
1408227821098	86	4090050	294700	410	9	37.44816457	-122.16349155	4840551	1.205337735e+12	77.5278217541
1408227821118	86	4074405	262300	410	9	37.44816457	-122.16349155	4840551	1.0687164315e+12	77.5278217541
1408227821137	86	4077945	317800	410	9	37.44816457	-122.16349155	4840551	1.295970921e+12	77.5278217541
1408227821157	86	4074996	262300	410	9	37.44816457	-122.16349155	4840551	1.0688714508e+12	77.5278217541
1408227821197	86	4067616	285600	410	9	37.44816457	-122.16349155	4840551	1.1617111296e+12	77.5278217541
1408227821217	86	4076175	263400	410	9	37.44816457	-122.16349155	4840551	1.073664495e+12	77.5278217541
1408227821237	86	4077945	295200	410	9	37.44816457	-122.16349155	4840551	1.203809364e+12	77.5278217541
1408227821257	86	4078242	337200	410	9	37.44816457	-122.16349155	4840551	1.3751832024e+12	77.5278217541
1408227821278	86	4067910	302600	410	9	37.44816457	-122.16349155	4840551	1.230949566e+12	77.5278217541
1408227821300	86	4080012	446500	410	9	37.44816457	-122.16349155	4840551	1.821725358e+12	77.5278217541
1408227821321	86	4085325	302600	410	9	37.44816457	-122.16349155	4840551	1.236219345e+12	77.5278217541
1408227821344	86	4085325	315500	410	9	37.44816457	-122.16349155	4840551	1.2889200375e+12	77.5278217541
1408227821377	86	4089162	292400	410	9	37.44816457	-122.16349155	4840551	1.1956709688e+12	77.5278217541
1408227821427	86	4085916	295800	410	9	37.44816457	-122.16349155	4840551	1.2086139528e+12	77.5278217541
1408227821457	86	4067616	426100	410	9	37.44816457	-122.16349155	4840551	1.7332111776e+12	77.5278217541
1408227821473	86	4066728	452200	410	9	37.44816457	-122.16349155	4840551	1.8389744016e+12	77.5278217541
1408227821489	86	4065843	446500	410	9	37.44816457	-122.16349155	4840551	1.8153988995e+12	77.5278217541
1408227821512	86	4063779	436800	410	9	37.44816457	-122.16349155	4840551	1.7750586672e+12	77.5278217541
1408227821530	86	4071156	444800	410	9	37.44816457	-122.16349155	4840551	1.8108501888e+12	77.5278217541
1408227821550	86	4075584	371100	410	9	37.44816457	-122.16349155	4840551	1.5124492224e+12	77.5278217541
1408227821568	86	4077357	286100	410	9	37.44816457	-122.16349155	4840551	1.1665318377e+12	77.5278217541
1408227821603	86	4074996	334900	410	9	37.44816457	-122.16349155	4840551	1.3647161604e+12	77.5278217541
1408227821620	86	4075881	366000	410	9	37.44816457	-122.16349155	4840551	1.491772446e+12	77.5278217541
1408227821640	86	4077357	348500	410	9	37.44816457	-122.16349155	4840551	1.4209589145e+12	77.5278217541
1408227821659	86	4083261	286100	410	9	37.44816457	-122.16349155	4840551	1.1682209721e+12	77.5278217541
1408227821685	86	4085031	296800	410	9	37.44816457	-122.16349155	4840551	1.2124372008e+12	77.5278217541
1408227821713	86	4077357	363200	410	9	37.44816457	-122.16349155	4840551	1.4808960624e+12	77.5278217541
1408227821734	86	4087392	286100	410	9	37.44816457	-122.16349155	4840551	1.1694028512e+12	77.5278217541
1408227821757	86	4092411	297500	410	9	37.44816457	-122.16349155	4840551	1.2174922725e+12	77.5278217541
1408227821780	86	4091526	273700	410	9	37.44816457	-122.16349155	4840551	1.1198506662e+12	77.5278217541
1408227821816	86	4090050	270800	410	9	37.44816457	-122.16349155	4840551	1.10758554e+12	77.5278217541
1408227821854	86	4088277	303600	410	9	37.44816457	-122.16349155	4840551	1.2412008972e+12	77.5278217541
1408227821873	86	4082079	343300	410	9	37.44816457	-122.16349155	4840551	1.4013777207e+12	77.5278217541
1408227821891	86	4076175	316700	410	9	37.44816457	-122.16349155	4840551	1.2909246225e+12	77.5278217541
1408227821908	86	4072044	290700	410	9	37.44816457	-122.16349155	4840551	1.1837431908e+12	77.5278217541
1408227821933	86	4067025	403400	410	9	37.44816457	-122.16349155	4840551	1.640637885e+12	77.5278217541
1408227821951	86	4083555	426700	410	9	37.44816457	-122.16349155	4840551	1.7424529185e+12	77.5278217541
1408227821968	86	4073223	309900	410	9	37.44816457	-122.16349155	4840551	1.2622918077e+12	77.5278217541
1408227821987	86	4072929	300300	410	9	37.44816457	-122.16349155	4840551	1.2231005787e+12	77.5278217541
1408227822011	86	4074996	351300	410	9	37.44816457	-122.16349155	4840551	1.4315460948e+12	77.5278217541
1408227822029	86	4070271	451000	410	9	37.44816457	-122.16349155	4840551	1.835692221e+12	77.5278217541
1408227822051	86	4085325	295200	410	9	37.44816457	-122.16349155	4840551	1.20598794e+12	77.5278217541
1408227822071	86	4085031	284400	410	9	37.44816457	-122.16349155	4840551	1.1617828164e+12	77.5278217541
1408227822103	86	4085622	306600	410	9	37.44816457	-122.16349155	4840551	1.2526517052e+12	77.5278217541
1408227822147	86	4086801	305900	410	9	37.44816457	-122.16349155	4840551	1.2501524259e+12	77.5278217541
1408227822168	86	4074996	252100	410	9	37.44816457	-122.16349155	4840551	1.0273064916e+12	77.5278217541
1408227822187	86	4081785	317800	410	9	37.44816457	-122.16349155	4840551	1.297191273e+12	77.5278217541
1408227822207	86	4068501	295800	410	9	37.44816457	-122.16349155	4840551	1.2034625958e+12	77.5278217541
1408227822233	86	4066434	326400	410	9	37.44816457	-122.16349155	4840551	1.3272840576e+12	77.5278217541
1408227822250	86	4081785	400600	410	9	37.44816457	-122.16349155	4840551	1.635163071e+12	77.5278217541
1408227822270	86	4075584	311600	410	9	37.44816457	-122.16349155	4840551	1.2699519744e+12	77.5278217541
1408227822288	86	4084737	338800	410	9	37.44816457	-122.16349155	4840551	1.3839088956e+12	77.5278217541
1408227822311	86	4068795	286100	410	9	37.44816457	-122.16349155	4840551	1.1640822495e+12	77.5278217541
1408227822328	86	4063779	458500	410	9	37.44816457	-122.16349155	4840551	1.8632426715e+12	77.5278217541
1408227822350	86	4083555	306600	410	9	37.44816457	-122.16349155	4840551	1.252017963e+12	77.5278217541
1408227822371	86	4083555	294700	410	9	37.44816457	-122.16349155	4840551	1.2034236585e+12	77.5278217541
1408227822394	86	4085031	325300	410	9	37.44816457	-122.16349155	4840551	1.3288605843e+12	77.5278217541
1408227822427	86	4084737	305400	410	9	37.44816457	-122.16349155	4840551	1.2474786798e+12	77.5278217541
1408227822489	86	4084737	305400	410	9	37.44804124	-122.16361274	4840551	1.2474786798e+12	94.916192425
1408227822499	86	4068795	297500	410	9	37.44804124	-122.16361274	4840551	1.2104665125e+12	94.916192425
1408227822515	86	4065843	447100	410	9	37.44804124	-122.16361274	4840551	1.8178384053e+12	94.916192425
1408227822530	86	4059645	476500	410	9	37.44804124	-122.16361274	4840551	1.9344208425e+12	94.916192425
1408227822550	86	4073223	487900	410	9	37.44804124	-122.16361274	4840551	1.9873255017e+12	94.916192425
1408227822577	86	4073223	452200	410	9	37.44804124	-122.16361274	4840551	1.8419114406e+12	94.916192425
1408227822597	86	4076766	339400	410	9	37.44804124	-122.16361274	4840551	1.3836543804e+12	94.916192425
1408227822618	86	4076469	268000	410	9	37.44804124	-122.16361274	4840551	1.092493692e+12	94.916192425
1408227822654	86	4075290	320700	410	9	37.44804124	-122.16361274	4840551	1.306945503e+12	94.916192425
1408227822673	86	4083261	318500	410	9	37.44804124	-122.16361274	4840551	1.3005186285e+12	94.916192425
1408227822692	86	4082373	300800	410	9	37.44804124	-122.16361274	4840551	1.2279777984e+12	94.916192425
1408227822712	86	4085916	310500	410	9	37.44804124	-122.16361274	4840551	1.268676918e+12	94.916192425
1408227822746	86	4084146	312700	410	9	37.44804124	-122.16361274	4840551	1.2771124542e+12	94.916192425
1408227822780	86	4085622	299100	410	9	37.44804124	-122.16361274	4840551	1.2220095402e+12	94.916192425
1408227822801	86	4090935	263400	410	9	37.44804124	-122.16361274	4840551	1.077552279e+12	94.916192425
1408227822821	86	4089459	281000	410	9	37.44804124	-122.16361274	4840551	1.149137979e+12	94.916192425
1408227822842	86	4090344	291800	410	9	37.44804124	-122.16361274	4840551	1.1935623792e+12	94.916192425
1408227822877	86	4086801	306600	410	9	37.44804124	-122.16361274	4840551	1.2530131866e+12	94.916192425
1408227822924	86	4088277	302000	410	9	37.44804124	-122.16361274	4840551	1.234659654e+12	94.916192425
1408227822947	86	4090050	286700	410	9	37.44804124	-122.16361274	4840551	1.172617335e+12	94.916192425
1408227822969	86	4087686	269700	410	9	37.44804124	-122.16361274	4840551	1.1024489142e+12	94.916192425
1408227822989	86	4088868	282700	410	9	37.44804124	-122.16361274	4840551	1.1559229836e+12	94.916192425
1408227823030	86	4083261	326400	410	9	37.44804124	-122.16361274	4840551	1.3327763904e+12	94.916192425
1408227823055	86	4063482	304300	410	9	37.44804124	-122.16361274	4840551	1.2365175726e+12	94.916192425
1408227823076	86	4083849	305900	410	9	37.44804124	-122.16361274	4840551	1.2492494091e+12	94.916192425
1408227823095	86	4079421	309900	410	9	37.44804124	-122.16361274	4840551	1.2642125679e+12	94.916192425
1408227823120	86	4079127	364900	410	9	37.44804124	-122.16361274	4840551	1.4884734423e+12	94.916192425
1408227823138	86	4070862	470400	410	9	37.44804124	-122.16361274	4840551	1.9149334848e+12	94.916192425
1408227823157	86	4072044	376800	410	9	37.44804124	-122.16361274	4840551	1.5343461792e+12	94.916192425
1408227823176	86	4076469	290100	410	9	37.44804124	-122.16361274	4840551	1.1825836569e+12	94.916192425
1408227823201	86	4076175	342800	410	9	37.44804124	-122.16361274	4840551	1.39731279e+12	94.916192425
1408227823218	86	4067025	456700	410	9	37.44804124	-122.16361274	4840551	1.8574103175e+12	94.916192425
1408227823237	86	4074405	338200	410	9	37.44804124	-122.16361274	4840551	1.377963771e+12	94.916192425
1408227823259	86	4085916	282100	410	9	37.44804124	-122.16361274	4840551	1.1526369036e+12	94.916192425
1408227823280	86	4085916	291200	410	9	37.44804124	-122.16361274	4840551	1.1898187392e+12	94.916192425
1408227823315	86	4086213	311100	410	9	37.44804124	-122.16361274	4840551	1.2712208643e+12	94.916192425
1408227823356	86	4064958	372800	410	9	37.44804124	-122.16361274	4840551	1.5154163424e+12	94.916192425
1408227823377	86	4078833	316700	410	9	37.44804124	-122.16361274	4840551	1.2917664111e+12	94.916192425
1408227823396	86	4072632	339400	410	9	37.44804124	-122.16361274	4840551	1.3822513008e+12	94.916192425
1408227823417	86	4074108	342800	410	9	37.44804124	-122.16361274	4840551	1.3966042224e+12	94.916192425
1408227823443	86	4064664	478800	410	9	37.44804124	-122.16361274	4840551	1.9461611232e+12	94.916192425
1408227823462	86	4068501	379100	410	9	37.44804124	-122.16361274	4840551	1.5423687291e+12	94.916192425
1408227823479	86	4074108	436800	410	9	37.44804124	-122.16361274	4840551	1.7795703744e+12	94.916192425
1408227823497	86	4076175	349100	410	9	37.44804124	-122.16361274	4840551	1.4229926925e+12	94.916192425
1408227823523	86	4065843	320700	410	9	37.44804124	-122.16361274	4840551	1.3039158501e+12	94.916192425
1408227823542	86	4070862	427200	410	9	37.44804124	-122.16361274	4840551	1.7390722464e+12	94.916192425
1408227823562	86	4084737	292900	410	9	37.44804124	-122.16361274	4840551	1.1964194673e+12	94.916192425
1408227823581	86	4085622	300300	410	9	37.44804124	-122.16361274	4840551	1.2269122866e+12	94.916192425
1408227823607	86	4087983	282700	410	9	37.44804124	-122.16361274	4840551	1.1556727941e+12	94.916192425
1408227823651	86	4085325	298000	410	9	37.44804124	-122.16361274	4840551	1.21742685e+12	94.916192425
1408227823673	86	4075584	422700	410	9	37.44804124	-122.16361274	4840551	1.7227493568e+12	94.916192425
1408227823693	86	4082373	299100	410	9	37.44804124	-122.16361274	4840551	1.2210377643e+12	94.916192425
1408227823710	86	4081785	317300	410	9	37.44804124	-122.16361274	4840551	1.2951503805e+12	94.916192425
1408227823745	86	4066140	330900	410	9	37.44804124	-122.16361274	4840551	1.345485726e+12	94.916192425
1408227823767	86	4073520	358700	410	9	37.44804124	-122.16361274	4840551	1.461171624e+12	94.916192425
1408227823787	86	4076175	301400	410	9	37.44804124	-122.16361274	4840551	1.228559145e+12	94.916192425
1408227823806	86	4077357	262900	410	9	37.44804124	-122.16361274	4840551	1.0719371553e+12	94.916192425
1408227823833	86	4067910	420400	410	9	37.44804124	-122.16361274	4840551	1.710149364e+12	94.916192425
1408227823851	86	4087392	419900	410	9	37.44804124	-122.16361274	4840551	1.7162959008e+12	94.916192425
1408227823871	86	4085622	287900	410	9	37.44804124	-122.16361274	4840551	1.1762505738e+12	94.916192425
1408227823891	86	4085325	309400	410	9	37.44804124	-122.16361274	4840551	1.263999555e+12	94.916192425
1408227823923	86	4094478	263400	410	9	37.44804124	-122.16361274	4840551	1.0784855052e+12	94.916192425
1408227823971	86	4082373	355200	410	9	37.44804124	-122.16361274	4840551	1.4500588896e+12	94.916192425
1408227823992	86	4089753	296800	410	9	37.44804124	-122.16361274	4840551	1.2138386904e+12	94.916192425
1408227824017	86	4091229	277600	410	9	37.44804124	-122.16361274	4840551	1.1357251704e+12	94.916192425
1408227824038	86	4087686	277000	410	9	37.44804124	-122.16361274	4840551	1.132289022e+12	94.916192425
1408227824075	86	4086507	308200	410	9	37.44804124	-122.16361274	4840551	1.2594614574e+12	94.916192425
1408227824119	86	4089162	296300	410	9	37.44804124	-122.16361274	4840551	1.2116187006e+12	94.916192425
1408227824145	86	4090050	284900	410	9	37.44804124	-122.16361274	4840551	1.165255245e+12	94.916192425
1408227824169	86	4086801	341100	410	9	37.44804124	-122.16361274	4840551	1.3940078211e+12	94.916192425
1408227824191	86	4088868	281600	410	9	37.44804124	-122.16361274	4840551	1.1514252288e+12	94.916192425
1408227824234	86	4086213	291800	410	9	37.44804124	-122.16361274	4840551	1.1923569534e+12	94.916192425
1408227824274	86	4085916	319500	410	9	37.44804124	-122.16361274	4840551	1.305450162e+12	94.916192425
1408227824297	86	4087392	302600	410	9	37.44804124	-122.16361274	4840551	1.2368448192e+12	94.916192425
1408227824322	86	4091820	266200	410	9	37.44804124	-122.16361274	4840551	1.089242484e+12	94.916192425
1408227824346	86	4085325	330900	410	9	37.44804124	-122.16361274	4840551	1.3518340425e+12	94.916192425
1408227824383	86	4086801	325300	410	9	37.44804124	-122.16361274	4840551	1.3294363653e+12	94.916192425
1408227824427	86	4082373	311600	410	9	37.44804124	-122.16361274	4840551	1.2720674268e+12	94.916192425
1408227824453	86	4069977	324600	410	9	37.44804124	-122.16361274	4840551	1.3211145342e+12	94.916192425
1408227824456	86	4069977	324600	410	9	37.4479106	-122.16373409	4840551	1.3211145342e+12	112.958589949
1408227824470	86	4067910	405200	410	9	37.4479106	-122.16373409	4840551	1.648317132e+12	112.958589949
1408227824501	86	4074699	432900	410	9	37.4479106	-122.16373409	4840551	1.7639371971e+12	112.958589949
1408227824519	86	4076175	330300	410	9	37.4479106	-122.16373409	4840551	1.3463606025e+12	112.958589949
1408227824537	86	4078833	350800	410	9	37.4479106	-122.16373409	4840551	1.4308546164e+12	112.958589949
1408227824557	86	4072338	383000	410	9	37.4479106	-122.16373409	4840551	1.559705454e+12	112.958589949
1408227824592	86	4082964	312200	410	9	37.4479106	-122.16373409	4840551	1.2747013608e+12	112.958589949
1408227824609	86	4077060	311600	410	9	37.4479106	-122.16373409	4840551	1.270411896e+12	112.958589949
1408227824627	86	4086213	292900	410	9	37.4479106	-122.16373409	4840551	1.1968517877e+12	112.958589949
1408227824650	86	4084440	321800	410	9	37.4479106	-122.16373409	4840551	1.314372792e+12	112.958589949
1408227824684	86	4082964	293500	410	9	37.4479106	-122.16373409	4840551	1.198349934e+12	112.958589949
1408227824705	86	4085031	331400	410	9	37.4479106	-122.16373409	4840551	1.3537792734e+12	112.958589949
1408227824726	86	4091229	260600	410	9	37.4479106	-122.16373409	4840551	1.0661742774e+12	112.958589949
1408227824751	86	4090638	276000	410	9	37.4479106	-122.16373409	4840551	1.129016088e+12	112.958589949
1408227824774	86	4093590	283300	410	9	37.4479106	-122.16373409	4840551	1.159714047e+12	112.958589949
1408227824807	86	4090344	256600	410	9	37.4479106	-122.16373409	4840551	1.0495822704e+12	112.958589949
1408227824854	86	4069977	280400	410	9	37.4479106	-122.16373409	4840551	1.1412215508e+12	112.958589949
1408227824873	86	4082670	310500	410	9	37.4479106	-122.16373409	4840551	1.267669035e+12	112.958589949
1408227824891	86	4084737	287900	410	9	37.4479106	-122.16373409	4840551	1.1759957823e+12	112.958589949
1408227824908	86	4076175	287200	410	9	37.4479106	-122.16373409	4840551	1.17067746e+12	112.958589949
1408227824937	86	4073814	435200	410	9	37.4479106	-122.16373409	4840551	1.7729238528e+12	112.958589949
1408227824956	86	4073223	376200	410	9	37.4479106	-122.16373409	4840551	1.5323464926e+12	112.958589949
1408227824977	86	4078833	274200	410	9	37.4479106	-122.16373409	4840551	1.1184160086e+12	112.958589949
1408227825001	86	4078536	320100	410	9	37.4479106	-122.16373409	4840551	1.3055393736e+12	112.958589949
1408227825018	86	4066728	452700	410	9	37.4479106	-122.16373409	4840551	1.8410077656e+12	112.958589949
1408227825036	86	4078242	298000	410	9	37.4479106	-122.16373409	4840551	1.215316116e+12	112.958589949
1408227825059	86	4082670	304800	410	9	37.4479106	-122.16373409	4840551	1.244397816e+12	112.958589949
1408227825081	86	4087392	308800	410	9	37.4479106	-122.16373409	4840551	1.2621866496e+12	112.958589949
1408227825138	86	4091229	281600	410	9	37.4479106	-122.16373409	4840551	1.1520900864e+12	112.958589949
1408227825184	86	4077945	308200	410	9	37.4479106	-122.16373409	4840551	1.256822649e+12	112.958589949
1408227825203	86	4085325	324100	410	9	37.4479106	-122.16373409	4840551	1.3240538325e+12	112.958589949
1408227825221	86	4085622	338200	410	9	37.4479106	-122.16373409	4840551	1.3817573604e+12	112.958589949
1408227825238	86	4078536	351300	410	9	37.4479106	-122.16373409	4840551	1.4327896968e+12	112.958589949
1408227825266	86	4072338	457800	410	9	37.4479106	-122.16373409	4840551	1.8643163364e+12	112.958589949
1408227825286	86	4077651	302600	410	9	37.4479106	-122.16373409	4840551	1.2338971926e+12	112.958589949
1408227825307	86	4075584	353600	410	9	37.4479106	-122.16373409	4840551	1.4411265024e+12	112.958589949
1408227825334	86	4077060	282100	410	9	37.4479106	-122.16373409	4840551	1.150138626e+12	112.958589949
1408227825353	86	4078833	448700	410	9	37.4479106	-122.16373409	4840551	1.8301723671e+12	112.958589949
1408227825372	86	4084440	358700	410	9	37.4479106	-122.16373409	4840551	1.465088628e+12	112.958589949
1408227825394	86	4089459	283900	410	9	37.4479106	-122.16373409	4840551	1.1609974101e+12	112.958589949
1408227825424	86	4085325	290100	410	9	37.4479106	-122.16373409	4840551	1.1851527825e+12	112.958589949
1408227825481	86	4089753	279300	410	9	37.4479106	-122.16373409	4840551	1.1422680129e+12	112.958589949
1408227825497	86	4069977	425000	410	9	37.4479106	-122.16373409	4840551	1.729740225e+12	112.958589949
1408227825518	86	4077945	253300	410	9	37.4479106	-122.16373409	4840551	1.0329434685e+12	112.958589949
1408227825538	86	4079127	309900	410	9	37.4479106	-122.16373409	4840551	1.2641214573e+12	112.958589949
1408227825563	86	4064367	364300	410	9	37.4479106	-122.16373409	4840551	1.4806488981e+12	112.958589949
1408227825583	86	4082964	373900	410	9	37.4479106	-122.16373409	4840551	1.5266202396e+12	112.958589949
1408227825603	86	4085031	338800	410	9	37.4479106	-122.16373409	4840551	1.3840085028e+12	112.958589949
1408227825621	86	4085325	336500	410	9	37.4479106	-122.16373409	4840551	1.3747118625e+12	112.958589949
1408227825645	86	4078833	354700	410	9	37.4479106	-122.16373409	4840551	1.4467620651e+12	112.958589949
1408227825663	86	4077945	454500	410	9	37.4479106	-122.16373409	4840551	1.8534260025e+12	112.958589949
1408227825681	86	4090050	305900	410	9	37.4479106	-122.16373409	4840551	1.251146295e+12	112.958589949
1408227825701	86	4088574	265200	410	9	37.4479106	-122.16373409	4840551	1.0842898248e+12	112.958589949
1408227825733	86	4087392	284900	410	9	37.4479106	-122.16373409	4840551	1.1644979808e+12	112.958589949
1408227825778	86	4089753	282100	410	9	37.4479106	-122.16373409	4840551	1.1537193213e+12	112.958589949
1408227825797	86	4075584	391500	410	9	37.4479106	-122.16373409	4840551	1.595591136e+12	112.958589949
1408227825817	86	4079718	244700	410	9	37.4479106	-122.16373409	4840551	9.983069946e+11	112.958589949
1408227825837	86	4078242	304800	410	9	37.4479106	-122.16373409	4840551	1.2430481616e+12	112.958589949
1408227825863	86	4056693	309900	410	9	37.4479106	-122.16373409	4840551	1.2571691607e+12	112.958589949
1408227825881	86	4079718	449400	410	9	37.4479106	-122.16373409	4840551	1.8334252692e+12	112.958589949
1408227825897	86	4074996	310500	410	9	37.4479106	-122.16373409	4840551	1.265286258e+12	112.958589949
1408227825918	86	4077945	249800	410	9	37.4479106	-122.16373409	4840551	1.018670661e+12	112.958589949
1408227825944	86	4078833	304300	410	9	37.4479106	-122.16373409	4840551	1.2411888819e+12	112.958589949
1408227825961	86	4082670	434600	410	9	37.4479106	-122.16373409	4840551	1.774328382e+12	112.958589949
1408227825979	86	4082079	351300	410	9	37.4479106	-122.16373409	4840551	1.4340343527e+12	112.958589949
1408227826001	86	4087098	272000	410	9	37.4479106	-122.16373409	4840551	1.111690656e+12	112.958589949
1408227826033	86	4087686	284400	410	9	37.4479106	-122.16373409	4840551	1.1625378984e+12	112.958589949
1408227826078	86	4090344	284400	410	9	37.4479106	-122.16373409	4840551	1.1632938336e+12	112.958589949
1408227826100	86	4076766	373900	410	9	37.4479106	-122.16373409	4840551	1.5243028074e+12	112.958589949
1408227826118	86	4078536	294000	410	9	37.4479106	-122.16373409	4840551	1.199089584e+12	112.958589949
1408227826137	86	4079421	305900	410	9	37.4479106	-122.16373409	4840551	1.2478948839e+12	112.958589949
1408227826163	86	4064367	340000	410	9	37.4479106	-122.16373409	4840551	1.38188478e+12	112.958589949
1408227826181	86	4082964	371100	410	9	37.4479106	-122.16373409	4840551	1.5151879404e+12	112.958589949
1408227826198	86	4077651	286700	410	9	37.4479106	-122.16373409	4840551	1.1690625417e+12	112.958589949
1408227826218	86	4078536	244700	410	9	37.4479106	-122.16373409	4840551	9.980177592e+11	112.958589949
1408227826241	86	4078833	307100	410	9	37.4479106	-122.16373409	4840551	1.2526096143e+12	112.958589949
1408227826258	86	4064073	438000	410	9	37.4479106	-122.16373409	4840551	1.780063974e+12	112.958589949
1408227826280	86	4082079	311100	410	9	37.4479106	-122.16373409	4840551	1.2699347769e+12	112.958589949
1408227826301	86	4085622	283900	410	9	37.4479106	-122.16373409	4840551	1.1599080858e+12	112.958589949
1408227826324	86	4088277	291800	410	9	37.4479106	-122.16373409	4840551	1.1929592286e+12	112.958589949
1408227826365	86	4087983	269700	410	9	37.4479106	-122.16373409	4840551	1.1025290151e+12	112.958589949
1408227826406	86	4089753	303100	410	9	37.4479106	-122.16373409	4840551	1.2396041343e+12	112.958589949
1408227826427	86	4091526	257800	410	9	37.4479106	-122.16373409	4840551	1.0547954028e+12	112.958589949
1408227826462	86	4091526	257800	410	9	37.44778178	-122.16385586	4840551	1.0547954028e+12	130.861418815
1408227826463	86	4090638	273700	410	9	37.44778178	-122.16385586	4840551	1.1196076206e+12	130.861418815
1408227826503	86	4087098	303100	410	9	37.44778178	-122.16385586	4840551	1.2387994038e+12	130.861418815
1408227826525	86	4089459	296800	410	9	37.44778178	-122.16385586	4840551	1.2137514312e+12	130.861418815
1408227826549	86	4068795	431200	410	9	37.44778178	-122.16385586	4840551	1.754464404e+12	130.861418815
1408227826568	86	4074405	379600	410	9	37.44778178	-122.16385586	4840551	1.546644138e+12	130.861418815
1408227826587	86	4075584	318500	410	9	37.44778178	-122.16385586	4840551	1.298073504e+12	130.861418815
1408227826620	86	4078242	251500	410	9	37.44778178	-122.16385586	4840551	1.025677863e+12	130.861418815
1408227826638	86	4076766	437500	410	9	37.44778178	-122.16385586	4840551	1.783585125e+12	130.861418815
1408227826657	86	4086213	242500	410	9	37.44778178	-122.16385586	4840551	9.909066525e+11	130.861418815
1408227826676	86	4076175	294000	410	9	37.44778178	-122.16385586	4840551	1.19839545e+12	130.861418815
1408227826701	86	4074996	305900	410	9	37.44778178	-122.16385586	4840551	1.2465412764e+12	130.861418815
1408227826718	86	4074996	440300	410	9	37.44778178	-122.16385586	4840551	1.7942207388e+12	130.861418815
1408227826740	86	4086801	324600	410	9	37.44778178	-122.16385586	4840551	1.3265756046e+12	130.861418815
1408227826759	86	4091229	263400	410	9	37.44778178	-122.16385586	4840551	1.0776297186e+12	130.861418815
1408227826793	86	4091820	282700	410	9	37.44778178	-122.16385586	4840551	1.156757514e+12	130.861418815
1408227826830	86	4090638	286700	410	9	37.44778178	-122.16385586	4840551	1.1727859146e+12	130.861418815
1408227826848	86	4077651	260100	410	9	37.44778178	-122.16385586	4840551	1.0605970251e+12	130.861418815
1408227826867	86	4079718	279900	410	9	37.44778178	-122.16385586	4840551	1.1419130682e+12	130.861418815
1408227826887	86	4078536	324100	410	9	37.44778178	-122.16385586	4840551	1.3218535176e+12	130.861418815
1408227826913	86	4066434	366000	410	9	37.44778178	-122.16385586	4840551	1.488314844e+12	130.861418815
1408227826931	86	4084440	361500	410	9	37.44778178	-122.16385586	4840551	1.47652506e+12	130.861418815
1408227826948	86	4076766	274800	410	9	37.44778178	-122.16385586	4840551	1.1202952968e+12	130.861418815
1408227826966	86	4078833	248700	410	9	37.44778178	-122.16385586	4840551	1.0144057671e+12	130.861418815
1408227827004	86	4074108	277600	410	9	37.44778178	-122.16385586	4840551	1.1309723808e+12	130.861418815
1408227827023	86	4085622	304800	410	9	37.44778178	-122.16385586	4840551	1.2452975856e+12	130.861418815
1408227827045	86	4092705	266200	410	9	37.44778178	-122.16385586	4840551	1.089478071e+12	130.861418815
1408227827067	86	4090638	295200	410	9	37.44778178	-122.16385586	4840551	1.2075563376e+12	130.861418815
1408227827105	86	4088574	285600	410	9	37.44778178	-122.16385586	4840551	1.1676967344e+12	130.861418815
1408227827146	86	4091526	278800	410	9	37.44778178	-122.16385586	4840551	1.1407174488e+12	130.861418815
1408227827169	86	4091820	246500	410	9	37.44778178	-122.16385586	4840551	1.00863363e+12	130.861418815
1408227827191	86	4093887	260100	410	9	37.44778178	-122.16385586	4840551	1.0648200087e+12	130.861418815
1408227827212	86	4095954	258900	410	9	37.44778178	-122.16385586	4840551	1.0604424906e+12	130.861418815
1408227827247	86	4092114	277000	410	9	37.44778178	-122.16385586	4840551	1.133515578e+12	130.861418815
1408227827295	86	4085916	277600	410	9	37.44778178	-122.16385586	4840551	1.1342502816e+12	130.861418815
1408227827317	86	4092705	253300	410	9	37.44778178	-122.16385586	4840551	1.0366821765e+12	130.861418815
1408227827341	86	4091526	263400	410	9	37.44778178	-122.16385586	4840551	1.0777079484e+12	130.861418815
1408227827362	86	4094772	262300	410	9	37.44778178	-122.16385586	4840551	1.0740586956e+12	130.861418815
1408227827395	86	4088574	299800	410	9	37.44778178	-122.16385586	4840551	1.2257544852e+12	130.861418815
1408227827433	86	4067319	326400	410	9	37.44778178	-122.16385586	4840551	1.3275729216e+12	130.861418815
1408227827456	86	4077060	340500	410	9	37.44778178	-122.16385586	4840551	1.38823893e+12	130.861418815
1408227827472	86	4070568	419900	410	9	37.44778178	-122.16385586	4840551	1.7092315032e+12	130.861418815
1408227827500	86	4084146	294700	410	9	37.44778178	-122.16385586	4840551	1.2035978262e+12	130.861418815
1408227827518	86	4074108	432900	410	9	37.44778178	-122.16385586	4840551	1.7636813532e+12	130.861418815
1408227827543	86	4067025	394900	410	9	37.44778178	-122.16385586	4840551	1.6060681725e+12	130.861418815
1408227827562	86	4087392	392100	410	9	37.44778178	-122.16385586	4840551	1.6026664032e+12	130.861418815
1408227827591	86	4077945	333700	410	9	37.44778178	-122.16385586	4840551	1.3608102465e+12	130.861418815
1408227827611	86	4073814	396600	410	9	37.44778178	-122.16385586	4840551	1.6156746324e+12	130.861418815
1408227827637	86	4085916	311100	410	9	37.44778178	-122.16385586	4840551	1.2711284676e+12	130.861418815
1408227827657	86	4086801	264000	410	9	37.44778178	-122.16385586	4840551	1.078915464e+12	130.861418815
1408227827693	86	4091820	278100	410	9	37.44778178	-122.16385586	4840551	1.137935142e+12	130.861418815
1408227827731	86	4088277	291800	410	9	37.44778178	-122.16385586	4840551	1.1929592286e+12	130.861418815
1408227827754	86	4086507	333700	410	9	37.44778178	-122.16385586	4840551	1.3636673859e+12	130.861418815
1408227827773	86	4084737	300300	410	9	37.44778178	-122.16385586	4840551	1.2266465211e+12	130.861418815
1408227827793	86	4084737	308200	410	9	37.44778178	-122.16385586	4840551	1.2589159434e+12	130.861418815
1408227827823	86	4068795	326900	410	9	37.44778178	-122.16385586	4840551	1.3300890855e+12	130.861418815
1408227827840	86	4085325	332600	410	9	37.44778178	-122.16385586	4840551	1.358779095e+12	130.861418815
1408227827858	86	4078242	292900	410	9	37.44778178	-122.16385586	4840551	1.1945170818e+12	130.861418815
1408227827876	86	4078242	291800	410	9	37.44778178	-122.16385586	4840551	1.1900310156e+12	130.861418815
1408227827913	86	4078833	322400	410	9	37.44778178	-122.16385586	4840551	1.3150157592e+12	130.861418815
1408227827932	86	4085031	288400	410	9	37.44778178	-122.16385586	4840551	1.1781229404e+12	130.861418815
1408227827954	86	4092411	273100	410	9	37.44778178	-122.16385586	4840551	1.1176374441e+12	130.861418815
1408227827976	86	4086801	258900	410	9	37.44778178	-122.16385586	4840551	1.0580727789e+12	130.861418815
1408227828016	86	4090344	297500	410	9	37.44778178	-122.16385586	4840551	1.21687734e+12	130.861418815
1408227828055	86	4091229	286700	410	9	37.44778178	-122.16385586	4840551	1.1729553543e+12	130.861418815
1408227828077	86	4093296	248700	410	9	37.44778178	-122.16385586	4840551	1.0180027152e+12	130.861418815
1408227828099	86	4093296	259400	410	9	37.44778178	-122.16385586	4840551	1.0618009824e+12	130.861418815
1408227828121	86	4092411	256100	410	9	37.44778178	-122.16385586	4840551	1.0480664571e+12	130.861418815
1408227828157	86	4089753	273100	410	9	37.44778178	-122.16385586	4840551	1.1169115443e+12	130.861418815
1408227828197	86	4071747	280400	410	9	37.44778178	-122.16385586	4840551	1.1417178588e+12	130.861418815
1408227828217	86	4075881	303100	410	9	37.44778178	-122.16385586	4840551	1.2353995311e+12	130.861418815
1408227828236	86	4077357	305400	410	9	37.44778178	-122.16385586	4840551	1.2452248278e+12	130.861418815
1408227828256	86	4076766	334900	410	9	37.44778178	-122.16385586	4840551	1.3653089334e+12	130.861418815
1408227828286	86	4082373	434000	410	9	37.44778178	-122.16385586	4840551	1.771749882e+12	130.861418815
1408227828307	86	4074405	371100	410	9	37.44778178	-122.16385586	4840551	1.5120116955e+12	130.861418815
1408227828326	86	4078536	288900	410	9	37.44778178	-122.16385586	4840551	1.1782890504e+12	130.861418815
1408227828363	86	4076175	341700	410	9	37.44778178	-122.16385586	4840551	1.3928289975e+12	130.861418815
1408227828383	86	4083555	302000	410	9	37.44778178	-122.16385586	4840551	1.23323361e+12	130.861418815
1408227828405	86	4087983	313900	410	9	37.44778178	-122.16385586	4840551	1.2832178637e+12	130.861418815
1408227828428	86	4089753	273700	410	9	37.44778178	-122.16385586	4840551	1.1193653961e+12	130.861418815
1408227828467	86	4089753	273700	410	9	37.44766499	-122.1639701	4840551	1.1193653961e+12	147.299215461
1408227828475	86	4088574	270800	410	9	37.44766499	-122.1639701	4840551	1.1071858392e+12	147.299215461
1408227828536	86	4089162	282100	410	9	37.44766499	-122.1639701	4840551	1.1535526002e+12	147.299215461
1408227828554	86	4070862	407400	410	9	37.44766499	-122.1639701	4840551	1.6584691788e+12	147.299215461
1408227828573	86	4083849	291800	410	9	37.44766499	-122.1639701	4840551	1.1916671382e+12	147.299215461
1408227828590	86	4068204	411300	410	9	37.44766499	-122.1639701	4840551	1.6732523052e+12	147.299215461
1408227828612	86	4065549	436300	410	9	37.44766499	-122.1639701	4840551	1.7737990287e+12	147.299215461
1408227828629	86	4067910	441900	410	9	37.44766499	-122.1639701	4840551	1.797609429e+12	147.299215461
1408227828648	86	4076766	388100	410	9	37.44766499	-122.1639701	4840551	1.5821928846e+12	147.299215461
1408227828667	86	4078536	239100	410	9	37.44766499	-122.1639701	4840551	9.751779576e+11	147.299215461
1408227828702	86	4080012	291200	410	9	37.44766499	-122.1639701	4840551	1.1880994944e+12	147.299215461
1408227828719	86	4076469	393800	410	9	37.44766499	-122.1639701	4840551	1.6053134922e+12	147.299215461
1408227828740	86	4086507	332600	410	9	37.44766499	-122.1639701	4840551	1.3591722282e+12	147.299215461
1408227828760	86	4085916	274200	410	9	37.44766499	-122.1639701	4840551	1.1203581672e+12	147.299215461
1408227828800	86	4086213	284900	410	9	37.44766499	-122.1639701	4840551	1.1641620837e+12	147.299215461
1408227828838	86	4088868	286100	410	9	37.44766499	-122.1639701	4840551	1.1698251348e+12	147.299215461
1408227828858	86	4077945	249300	410	9	37.44766499	-122.1639701	4840551	1.0166316885e+12	147.299215461
1408227828877	86	4080603	292900	410	9	37.44766499	-122.1639701	4840551	1.1952086187e+12	147.299215461
1408227828897	86	4072929	309900	410	9	37.44766499	-122.1639701	4840551	1.2622006971e+12	147.299215461
1408227828923	86	4068501	248200	410	9	37.44766499	-122.1639701	4840551	1.0098019482e+12	147.299215461
1408227828941	86	4074405	432900	410	9	37.44766499	-122.1639701	4840551	1.7638099245e+12	147.299215461
1408227828959	86	4077945	288900	410	9	37.44766499	-122.1639701	4840551	1.1781183105e+12	147.299215461
1408227828977	86	4080309	311600	410	9	37.44766499	-122.1639701	4840551	1.2714242844e+12	147.299215461
1408227828996	86	4085031	317300	410	9	37.44766499	-122.1639701	4840551	1.2961803363e+12	147.299215461
1408227829015	86	4066728	443100	410	9	37.44766499	-122.1639701	4840551	1.8019671768e+12	147.299215461
1408227829034	86	4080603	300300	410	9	37.44766499	-122.1639701	4840551	1.2254050809e+12	147.299215461
1408227829057	86	4090344	284900	410	9	37.44766499	-122.1639701	4840551	1.1653390056e+12	147.299215461
1408227829080	86	4087686	275300	410	9	37.44766499	-122.1639701	4840551	1.1253399558e+12	147.299215461
1408227829117	86	4089162	247000	410	9	37.44766499	-122.1639701	4840551	1.010023014e+12	147.299215461
1408227829160	86	4088868	301400	410	9	37.44766499	-122.1639701	4840551	1.2323848152e+12	147.299215461
1408227829184	86	4092114	256100	410	9	37.44766499	-122.1639701	4840551	1.0479903954e+12	147.299215461
1408227829209	86	4090935	281600	410	9	37.44766499	-122.1639701	4840551	1.152007296e+12	147.299215461
1408227829232	86	4090935	277600	410	9	37.44766499	-122.1639701	4840551	1.135643556e+12	147.299215461
1408227829277	86	4090050	292400	410	9	37.44766499	-122.1639701	4840551	1.19593062e+12	147.299215461
1408227829349	86	4067319	314500	410	9	37.44766499	-122.1639701	4840551	1.2791718255e+12	147.299215461
1408227829368	86	4073814	379100	410	9	37.44766499	-122.1639701	4840551	1.5443828874e+12	147.299215461
1408227829387	86	4080603	322400	410	9	37.44766499	-122.1639701	4840551	1.3155864072e+12	147.299215461
1408227829407	86	4079718	287200	410	9	37.44766499	-122.1639701	4840551	1.1716950096e+12	147.299215461
1408227829437	86	4072929	454500	410	9	37.44766499	-122.1639701	4840551	1.8511462305e+12	147.299215461
1408227829457	86	4076175	383000	410	9	37.44766499	-122.1639701	4840551	1.561175025e+12	147.299215461
1408227829473	86	4072044	299800	410	9	37.44766499	-122.1639701	4840551	1.2207987912e+12	147.299215461
1408227829500	86	4075881	423300	410	9	37.44766499	-122.1639701	4840551	1.7253204273e+12	147.299215461
1408227829518	86	4075584	418100	410	9	37.44766499	-122.1639701	4840551	1.7040016704e+12	147.299215461
1408227829541	86	4084440	317300	410	9	37.44766499	-122.1639701	4840551	1.295992812e+12	147.299215461
1408227829560	86	4086213	270200	410	9	37.44766499	-122.1639701	4840551	1.1040947526e+12	147.299215461
1408227829596	86	4087098	286100	410	9	37.44766499	-122.1639701	4840551	1.1693187378e+12	147.299215461
1408227829638	86	4090344	286700	410	9	37.44766499	-122.1639701	4840551	1.1727016248e+12	147.299215461
1408227829656	86	4077651	283300	410	9	37.44766499	-122.1639701	4840551	1.1551985283e+12	147.299215461
1408227829676	86	4079718	284900	410	9	37.44766499	-122.1639701	4840551	1.1623116582e+12	147.299215461
1408227829696	86	4077651	312200	410	9	37.44766499	-122.1639701	4840551	1.2730426422e+12	147.299215461
1408227829723	86	4069977	309900	410	9	37.44766499	-122.1639701	4840551	1.2612858723e+12	147.299215461
1408227829740	86	4083849	399400	410	9	37.44766499	-122.1639701	4840551	1.6310892906e+12	147.299215461
1408227829759	86	4079127	287900	410	9	37.44766499	-122.1639701	4840551	1.1743806633e+12	147.299215461
1408227829777	86	4080603	298600	410	9	37.44766499	-122.1639701	4840551	1.2184680558e+12	147.299215461
1408227829805	86	4079421	325800	410	9	37.44766499	-122.1639701	4840551	1.3290753618e+12	147.299215461
1408227829823	86	4083261	404000	410	9	37.44766499	-122.1639701	4840551	1.649637444e+12	147.299215461
1408227829842	86	4088868	321300	410	9	37.44766499	-122.1639701	4840551	1.3137532884e+12	147.299215461
1408227829863	86	4091526	273700	410	9	37.44766499	-122.1639701	4840551	1.1198506662e+12	147.299215461
1408227829893	86	4092114	256100	410	9	37.44766499	-122.1639701	4840551	1.0479903954e+12	147.299215461
1408227829938	86	4089753	280400	410	9	37.44766499	-122.1639701	4840551	1.1467667412e+12	147.299215461
1408227829958	86	4077945	249300	410	9	37.44766499	-122.1639701	4840551	1.0166316885e+12	147.299215461
1408227829977	86	4079127	291200	410	9	37.44766499	-122.1639701	4840551	1.1878417824e+12	147.299215461
1408227829997	86	4079421	337700	410	9	37.44766499	-122.1639701	4840551	1.3776204717e+12	147.299215461
1408227830023	86	4069092	314500	410	9	37.44766499	-122.1639701	4840551	1.279729434e+12	147.299215461
1408227830040	86	4084146	400100	410	9	37.44766499	-122.1639701	4840551	1.6340668146e+12	147.299215461
1408227830059	86	4078242	303600	410	9	37.44766499	-122.1639701	4840551	1.2381542712e+12	147.299215461
1408227830077	86	4079127	298000	410	9	37.44766499	-122.1639701	4840551	1.215579846e+12	147.299215461
1408227830109	86	4080603	316200	410	9	37.44766499	-122.1639701	4840551	1.2902866686e+12	147.299215461
1408227830127	86	4078242	399400	410	9	37.44766499	-122.1639701	4840551	1.6288498548e+12	147.299215461
1408227830151	86	4087983	335400	410	9	37.44766499	-122.1639701	4840551	1.3711094982e+12	147.299215461
1408227830171	86	4089162	278800	410	9	37.44766499	-122.1639701	4840551	1.1400583656e+12	147.299215461
1408227830203	86	4092411	260600	410	9	37.44766499	-122.1639701	4840551	1.0664823066e+12	147.299215461
1408227830242	86	4092114	280400	410	9	37.44766499	-122.1639701	4840551	1.1474287656e+12	147.299215461
1408227830259	86	4078536	317800	410	9	37.44766499	-122.1639701	4840551	1.2961587408e+12	147.299215461
1408227830277	86	4079421	295200	410	9	37.44766499	-122.1639701	4840551	1.2042450792e+12	147.299215461
1408227830297	86	4078833	323000	410	9	37.44766499	-122.1639701	4840551	1.317463059e+12	147.299215461
1408227830337	86	4066728	263400	410	9	37.44766499	-122.1639701	4840551	1.0711761552e+12	147.299215461
1408227830357	86	4076175	265700	410	9	37.44766499	-122.1639701	4840551	1.0830396975e+12	147.299215461
1408227830377	86	4078536	303100	410	9	37.44766499	-122.1639701	4840551	1.2362042616e+12	147.299215461
1408227830397	86	4079718	334900	410	9	37.44766499	-122.1639701	4840551	1.3662975582e+12	147.299215461
1408227830444	86	4070568	447700	410	9	37.44766499	-122.1639701	4840551	1.8223932936e+12	147.299215461
1408227830463	86	4070568	447700	410	9	37.44759273	-122.16405208	4840551	1.8223932936e+12	158.113125451
1408227830466	86	4086801	292400	410	9	37.44759273	-122.16405208	4840551	1.1949806124e+12	158.113125451
1408227830487	86	4085325	311100	410	9	37.44759273	-122.16405208	4840551	1.2709446075e+12	158.113125451
1408227830506	86	4086801	308200	410	9	37.44759273	-122.16405208	4840551	1.2595520682e+12	158.113125451
1408227830535	86	4087098	304300	410	9	37.44759273	-122.16405208	4840551	1.2437039214e+12	158.113125451
1408227830565	86	4085916	319500	410	9	37.44759273	-122.16405208	4840551	1.305450162e+12	158.113125451
1408227830585	86	4091229	260600	410	9	37.44759273	-122.16405208	4840551	1.0661742774e+12	158.113125451
1408227830607	86	4090050	243000	410	9	37.44759273	-122.16405208	4840551	9.9388215e+11	158.113125451
1408227830628	86	4090050	266200	410	9	37.44759273	-122.16405208	4840551	1.08877131e+12	158.113125451
1408227830660	86	4090050	300300	410	9	37.44759273	-122.16405208	4840551	1.228242015e+12	158.113125451
1408227830694	86	4070862	279900	410	9	37.44759273	-122.16405208	4840551	1.1394342738e+12	158.113125451
1408227830713	86	4084737	324100	410	9	37.44759273	-122.16405208	4840551	1.3238632617e+12	158.113125451
1408227830733	86	4078833	299800	410	9	37.44759273	-122.16405208	4840551	1.2228341334e+12	158.113125451
1408227830760	86	4086801	311100	410	9	37.44759273	-122.16405208	4840551	1.2714037911e+12	158.113125451
1408227830778	86	4075584	432300	410	9	37.44759273	-122.16405208	4840551	1.7618749632e+12	158.113125451
1408227830798	86	4078833	256100	410	9	37.44759273	-122.16405208	4840551	1.0445891313e+12	158.113125451
1408227830818	86	4079127	261700	410	9	37.44759273	-122.16405208	4840551	1.0675075359e+12	158.113125451
1408227830853	86	4079127	325800	410	9	37.44759273	-122.16405208	4840551	1.3289795766e+12	158.113125451
1408227830870	86	4084737	306600	410	9	37.44759273	-122.16405208	4840551	1.2523803642e+12	158.113125451
1408227830891	86	4088574	281000	410	9	37.44759273	-122.16405208	4840551	1.148889294e+12	158.113125451
1408227830912	86	4088574	258900	410	9	37.44759273	-122.16405208	4840551	1.0585318086e+12	158.113125451
1408227830946	86	4086507	270200	410	9	37.44759273	-122.16405208	4840551	1.1041741914e+12	158.113125451
1408227830988	86	4087392	342200	410	9	37.44759273	-122.16405208	4840551	1.3987055424e+12	158.113125451
1408227831006	86	4077945	266200	410	9	37.44759273	-122.16405208	4840551	1.085548959e+12	158.113125451
1408227831025	86	4087983	273100	410	9	37.44759273	-122.16405208	4840551	1.1164281573e+12	158.113125451
1408227831046	86	4084146	303600	410	9	37.44759273	-122.16405208	4840551	1.2399467256e+12	158.113125451
1408227831073	86	4068501	409700	410	9	37.44759273	-122.16405208	4840551	1.6668648597e+12	158.113125451
1408227831093	86	4085031	387000	410	9	37.44759273	-122.16405208	4840551	1.580906997e+12	158.113125451
1408227831111	86	4086801	310500	410	9	37.44759273	-122.16405208	4840551	1.2689517105e+12	158.113125451
1408227831128	86	4079127	341100	410	9	37.44759273	-122.16405208	4840551	1.3913902197e+12	158.113125451
1408227831165	86	4078536	249800	410	9	37.44759273	-122.16405208	4840551	1.0188182928e+12	158.113125451
1408227831186	86	4086213	288400	410	9	37.44759273	-122.16405208	4840551	1.1784638292e+12	158.113125451
1408227831207	86	4087098	286700	410	9	37.44759273	-122.16405208	4840551	1.1717709966e+12	158.113125451
1408227831228	86	4094478	254300	410	9	37.44759273	-122.16405208	4840551	1.0412257554e+12	158.113125451
1408227831266	86	4090638	257800	410	9	37.44759273	-122.16405208	4840551	1.0545664764e+12	158.113125451
1408227831307	86	4091526	278800	410	9	37.44759273	-122.16405208	4840551	1.1407174488e+12	158.113125451
1408227831332	86	4093002	253800	410	9	37.44759273	-122.16405208	4840551	1.0388039076e+12	158.113125451
1408227831354	86	4093002	270200	410	9	37.44759273	-122.16405208	4840551	1.1059291404e+12	158.113125451
1408227831377	86	4090344	265700	410	9	37.44759273	-122.16405208	4840551	1.0868044008e+12	158.113125451
1408227831418	86	4090638	283300	410	9	37.44759273	-122.16405208	4840551	1.1588777454e+12	158.113125451
1408227831481	86	4091820	298000	410	9	37.44759273	-122.16405208	4840551	1.21936236e+12	158.113125451
1408227831501	86	4071453	399400	410	9	37.44759273	-122.16405208	4840551	1.6261383282e+12	158.113125451
1408227831518	86	4078833	325300	410	9	37.44759273	-122.16405208	4840551	1.3268443749e+12	158.113125451
1408227831537	86	4080603	301400	410	9	37.44759273	-122.16405208	4840551	1.2298937442e+12	158.113125451
1408227831566	86	4076175	410800	410	9	37.44759273	-122.16405208	4840551	1.67449269e+12	158.113125451
1408227831587	86	4079127	298600	410	9	37.44759273	-122.16405208	4840551	1.2180273222e+12	158.113125451
1408227831607	86	4077060	268000	410	9	37.44759273	-122.16405208	4840551	1.09265208e+12	158.113125451
1408227831632	86	4080309	281000	410	9	37.44759273	-122.16405208	4840551	1.146566829e+12	158.113125451
1408227831649	86	4074108	433500	410	9	37.44759273	-122.16405208	4840551	1.766125818e+12	158.113125451
1408227831667	86	4078242	272000	410	9	37.44759273	-122.16405208	4840551	1.109281824e+12	158.113125451
1408227831691	86	4087098	272500	410	9	37.44759273	-122.16405208	4840551	1.113734205e+12	158.113125451
1408227831722	86	4088574	258300	410	9	37.44759273	-122.16405208	4840551	1.0560786642e+12	158.113125451
1408227831746	86	4086213	323000	410	9	37.44759273	-122.16405208	4840551	1.319846799e+12	158.113125451
1408227831766	86	4086507	261200	410	9	37.44759273	-122.16405208	4840551	1.0673956284e+12	158.113125451
1408227831791	86	4090935	266900	410	9	37.44759273	-122.16405208	4840551	1.0918705515e+12	158.113125451
1408227831814	86	4095657	253300	410	9	37.44759273	-122.16405208	4840551	1.0374299181e+12	158.113125451
1408227831846	86	4091526	241900	410	9	37.44759273	-122.16405208	4840551	9.897401394e+11	158.113125451
1408227831893	86	4091229	279900	410	9	37.44759273	-122.16405208	4840551	1.1451349971e+12	158.113125451
1408227831912	86	4087392	323500	410	9	37.44759273	-122.16405208	4840551	1.322271312e+12	158.113125451
1408227831928	86	4081194	328100	410	9	37.44759273	-122.16405208	4840551	1.3390397514e+12	158.113125451
1408227831947	86	4079421	321800	410	9	37.44759273	-122.16405208	4840551	1.3127576778e+12	158.113125451
1408227831973	86	4066728	389300	410	9	37.44759273	-122.16405208	4840551	1.5831772104e+12	158.113125451
1408227831994	86	4082079	412000	410	9	37.44759273	-122.16405208	4840551	1.681816548e+12	158.113125451
1408227832013	86	4086507	329800	410	9	37.44759273	-122.16405208	4840551	1.3477300086e+12	158.113125451
1408227832032	86	4084146	277000	410	9	37.44759273	-122.16405208	4840551	1.131308442e+12	158.113125451
1408227832062	86	4081785	315500	410	9	37.44759273	-122.16405208	4840551	1.2878031675e+12	158.113125451
1408227832082	86	4078536	333700	410	9	37.44759273	-122.16405208	4840551	1.3610074632e+12	158.113125451
1408227832104	86	4093590	272500	410	9	37.44759273	-122.16405208	4840551	1.115503275e+12	158.113125451
1408227832127	86	4089459	249300	410	9	37.44759273	-122.16405208	4840551	1.0195021287e+12	158.113125451
1408227832164	86	4093590	237900	410	9	37.44759273	-122.16405208	4840551	9.73865061e+11	158.113125451
1408227832210	86	4091820	278100	410	9	37.44759273	-122.16405208	4840551	1.137935142e+12	158.113125451
1408227832232	86	4092114	266200	410	9	37.44759273	-122.16405208	4840551	1.0893207468e+12	158.113125451
1408227832254	86	4095066	248700	410	9	37.44759273	-122.16405208	4840551	1.0184429142e+12	158.113125451
1408227832277	86	4092114	259400	410	9	37.44759273	-122.16405208	4840551	1.0614943716e+12	158.113125451
1408227832316	86	4090050	255000	410	9	37.44759273	-122.16405208	4840551	1.04296275e+12	158.113125451
1408227832360	86	4088868	279900	410	9	37.44759273	-122.16405208	4840551	1.1444741532e+12	158.113125451
1408227832382	86	4090344	283900	410	9	37.44759273	-122.16405208	4840551	1.1612486616e+12	158.113125451
1408227832404	86	4095066	261700	410	9	37.44759273	-122.16405208	4840551	1.0716787722e+12	158.113125451
1408227832427	86	4090935	244700	410	9	37.44759273	-122.16405208	4840551	1.0010517945e+12	158.113125451
1408227832477	86	4091229	276500	410	9	37.44759273	-122.16405208	4840551	1.1312248185e+12	158.113125451
1408227832500	86	4071747	280400	410	9	37.44759273	-122.16405208	4840551	1.1417178588e+12	158.113125451
1408227832518	86	4070862	421600	410	9	37.44759273	-122.16405208	4840551	1.7162754192e+12	158.113125451
1408227832537	86	4078242	311100	410	9	37.44759273	-122.16405208	4840551	1.2687410862e+12	158.113125451
1408227832556	86	4079127	235100	410	9	37.44759273	-122.16405208	4840551	9.590027577e+11	158.113125451
1408227832587	86	4074996	436300	410	9	37.44759273	-122.16405208	4840551	1.7779207548e+12	158.113125451
1408227832607	86	4079718	236300	410	9	37.44759273	-122.16405208	4840551	9.640373634e+11	158.113125451
1408227832627	86	4079421	282100	410	9	37.44759273	-122.16405208	4840551	1.1508046641e+12	158.113125451
1408227832659	86	4080603	253800	410	9	37.44759273	-122.16405208	4840551	1.0356570414e+12	158.113125451
1408227832677	86	4079127	401700	410	9	37.44759273	-122.16405208	4840551	1.6385853159e+12	158.113125451
1408227832698	86	4087686	265700	410	9	37.44759273	-122.16405208	4840551	1.0860981702e+12	158.113125451
1408227832720	86	4088868	269700	410	9	37.44759273	-122.16405208	4840551	1.1027676996e+12	158.113125451
1408227832753	86	4092705	261700	410	9	37.44759273	-122.16405208	4840551	1.0710608985e+12	158.113125451
1408227832791	86	4090638	278800	410	9	37.44759273	-122.16405208	4840551	1.1404698744e+12	158.113125451
1408227832809	86	4077357	309400	410	9	37.44759273	-122.16405208	4840551	1.2615342558e+12	158.113125451
1408227832827	86	4079127	304300	410	9	37.44759273	-122.16405208	4840551	1.2412783461e+12	158.113125451
1408227832847	86	4081194	239600	410	9	37.44759273	-122.16405208	4840551	9.778540824e+11	158.113125451
1408227832887	86	4070568	253800	410	9	37.44759273	-122.16405208	4840551	1.0331101584e+12	158.113125451
1408227832906	86	4079127	236300	410	9	37.44759273	-122.16405208	4840551	9.638977101e+11	158.113125451
1408227832926	86	4079421	285600	410	9	37.44759273	-122.16405208	4840551	1.1650826376e+12	158.113125451
1408227832946	86	4079421	317800	410	9	37.44759273	-122.16405208	4840551	1.2964399938e+12	158.113125451
1408227832971	86	4069680	380200	410	9	37.44759273	-122.16405208	4840551	1.547292336e+12	158.113125451
1408227832991	86	4083261	401700	410	9	37.44759273	-122.16405208	4840551	1.6402459437e+12	158.113125451
1408227833012	86	4087392	267400	410	9	37.44759273	-122.16405208	4840551	1.0929686208e+12	158.113125451
1408227833034	86	4090638	253800	410	9	37.44759273	-122.16405208	4840551	1.0382039244e+12	158.113125451
1408227833057	86	4093887	257800	410	9	37.44759273	-122.16405208	4840551	1.0554040686e+12	158.113125451
1408227833094	86	4090638	252700	410	9	37.44759273	-122.16405208	4840551	1.0337042226e+12	158.113125451
1408227833138	86	4090344	277600	410	9	37.44759273	-122.16405208	4840551	1.1354794944e+12	158.113125451
1408227833156	86	4077945	268500	410	9	37.44759273	-122.16405208	4840551	1.0949282325e+12	158.113125451
1408227833176	86	4077060	309400	410	9	37.44759273	-122.16405208	4840551	1.261442364e+12	158.113125451
1408227833193	86	4085622	345600	410	9	37.44759273	-122.16405208	4840551	1.4119909632e+12	158.113125451
1408227833227	86	4078833	380200	410	9	37.44759273	-122.16405208	4840551	1.5507723066e+12	158.113125451
1408227833247	86	4080012	244200	410	9	37.44759273	-122.16405208	4840551	9.963389304e+11	158.113125451
1408227833266	86	4080309	253300	410	9	37.44759273	-122.16405208	4840551	1.0335422697e+12	158.113125451
1408227833303	86	4080012	294700	410	9	37.44759273	-122.16405208	4840551	1.2023795364e+12	158.113125451
1408227833320	86	4085916	300800	410	9	37.44759273	-122.16405208	4840551	1.2290435328e+12	158.113125451
1408227833340	86	4086801	296800	410	9	37.44759273	-122.16405208	4840551	1.2129625368e+12	158.113125451
1408227833362	86	4087686	278800	410	9	37.44759273	-122.16405208	4840551	1.1396468568e+12	158.113125451
1408227833396	86	4090344	283900	410	9	37.44759273	-122.16405208	4840551	1.1612486616e+12	158.113125451
1408227833442	86	4092705	284900	410	9	37.44759273	-122.16405208	4840551	1.1660116545e+12	158.113125451
1408227833460	86	4075290	325300	410	9	37.44759273	-122.16405208	4840551	1.325691837e+12	158.113125451
1408227833477	86	4070862	420400	410	9	37.44759273	-122.16405208	4840551	1.7113903848e+12	158.113125451
1408227833493	86	4069092	373900	410	9	37.44759273	-122.16405208	4840551	1.5214334988e+12	158.113125451
1408227833512	86	4068501	419900	410	9	37.44759273	-122.16405208	4840551	1.7083635699e+12	158.113125451
1408227833530	86	4071453	427800	410	9	37.44759273	-122.16405208	4840551	1.7417675934e+12	158.113125451
1408227833548	86	4076766	258900	410	9	37.44759273	-122.16405208	4840551	1.0554747174e+12	158.113125451
1408227833568	86	4078833	264600	410	9	37.44759273	-122.16405208	4840551	1.0792592118e+12	158.113125451
1408227833587	86	4080012	352900	410	9	37.44759273	-122.16405208	4840551	1.4398362348e+12	158.113125451
1408227833616	86	4077357	421600	410	9	37.44759273	-122.16405208	4840551	1.7190137112e+12	158.113125451
1408227833638	86	4087686	294700	410	9	37.44759273	-122.16405208	4840551	1.2046410642e+12	158.113125451
1408227833658	86	4089459	255500	410	9	37.44759273	-122.16405208	4840551	1.0448567745e+12	158.113125451
1408227833693	86	4087686	273700	410	9	37.44759273	-122.16405208	4840551	1.1187996582e+12	158.113125451
1408227833736	86	4088277	274800	410	9	37.44759273	-122.16405208	4840551	1.1234585196e+12	158.113125451
1408227833757	86	4078242	249300	410	9	37.44759273	-122.16405208	4840551	1.0167057306e+12	158.113125451
1408227833775	86	4086507	302000	410	9	37.44759273	-122.16405208	4840551	1.234125114e+12	158.113125451
1408227833796	86	4076175	332100	410	9	37.44759273	-122.16405208	4840551	1.3536977175e+12	158.113125451
1408227833823	86	4070568	260100	410	9	37.44759273	-122.16405208	4840551	1.0587547368e+12	158.113125451
1408227833840	86	4085325	388700	410	9	37.44759273	-122.16405208	4840551	1.5879658275e+12	158.113125451
1408227833859	86	4078536	280400	410	9	37.44759273	-122.16405208	4840551	1.1436214944e+12	158.113125451
1408227833876	86	4087686	294000	410	9	37.44759273	-122.16405208	4840551	1.201779684e+12	158.113125451
1408227833915	86	4076766	323500	410	9	37.44759273	-122.16405208	4840551	1.318833801e+12	158.113125451
1408227833936	86	4083555	292900	410	9	37.44759273	-122.16405208	4840551	1.1960732595e+12	158.113125451
1408227833957	86	4086801	283300	410	9	37.44759273	-122.16405208	4840551	1.1577907233e+12	158.113125451
1408227833977	86	4092114	281000	410	9	37.44759273	-122.16405208	4840551	1.149884034e+12	158.113125451
1408227834016	86	4090638	258300	410	9	37.44759273	-122.16405208	4840551	1.0566117954e+12	158.113125451
1408227834056	86	4090344	283300	410	9	37.44759273	-122.16405208	4840551	1.1587944552e+12	158.113125451
1408227834077	86	4095066	254300	410	9	37.44759273	-122.16405208	4840551	1.0413752838e+12	158.113125451
1408227834099	86	4093002	243000	410	9	37.44759273	-122.16405208	4840551	9.94599486e+11	158.113125451
1408227834121	86	4091526	256600	410	9	37.44759273	-122.16405208	4840551	1.0498855716e+12	158.113125451
1408227834157	86	4090344	287200	410	9	37.44759273	-122.16405208	4840551	1.1747467968e+12	158.113125451
1408227834202	86	4064367	284900	410	9	37.44759273	-122.16405208	4840551	1.1579381583e+12	158.113125451
1408227834219	86	4076766	347300	410	9	37.44759273	-122.16405208	4840551	1.4158608318e+12	158.113125451
1408227834238	86	4077651	336500	410	9	37.44759273	-122.16405208	4840551	1.3721295615e+12	158.113125451
1408227834257	86	4078536	242500	410	9	37.44759273	-122.16405208	4840551	9.8904498e+11	158.113125451
1408227834286	86	4074996	435800	410	9	37.44759273	-122.16405208	4840551	1.7758832568e+12	158.113125451
1408227834307	86	4071156	270800	410	9	37.44759273	-122.16405208	4840551	1.1024690448e+12	158.113125451
1408227834327	86	4079127	307100	410	9	37.44759273	-122.16405208	4840551	1.2526999017e+12	158.113125451
1408227834360	86	4076766	356400	410	9	37.44759273	-122.16405208	4840551	1.4529594024e+12	158.113125451
1408227834377	86	4075584	375700	410	9	37.44759273	-122.16405208	4840551	1.5311969088e+12	158.113125451
1408227834402	86	4085031	284900	410	9	37.44759273	-122.16405208	4840551	1.1638253319e+12	158.113125451
1408227834424	86	4085916	316200	410	9	37.44759273	-122.16405208	4840551	1.2919666392e+12	158.113125451
1408227834472	86	4087392	296300	410	9	37.44759273	-122.16405208	4840551	1.2110942496e+12	158.113125451
1408227834502	86	4087392	296300	410	9	37.44750852	-122.16411092	4840551	1.2110942496e+12	168.811657186
1408227834505	86	4087983	292400	410	9	37.44750852	-122.16411092	4840551	1.1953262292e+12	168.811657186
1408227834520	86	4068795	431200	410	9	37.44750852	-122.16411092	4840551	1.754464404e+12	168.811657186
1408227834538	86	4077357	290100	410	9	37.44750852	-122.16411092	4840551	1.1828412657e+12	168.811657186
1408227834557	86	4079127	242500	410	9	37.44750852	-122.16411092	4840551	9.891882975e+11	168.811657186
1408227834584	86	4067616	311600	410	9	37.44750852	-122.16411092	4840551	1.2674691456e+12	168.811657186
1408227834604	86	4083261	435800	410	9	37.44750852	-122.16411092	4840551	1.7794851438e+12	168.811657186
1408227834620	86	4085916	328100	410	9	37.44750852	-122.16411092	4840551	1.3405890396e+12	168.811657186
1408227834638	86	4078242	282100	410	9	37.44750852	-122.16411092	4840551	1.1504720682e+12	168.811657186
1408227834661	86	4078242	267400	410	9	37.44750852	-122.16411092	4840551	1.0905219108e+12	168.811657186
1408227834678	86	4070271	427200	410	9	37.44750852	-122.16411092	4840551	1.7388197712e+12	168.811657186
1408227834698	86	4084440	296800	410	9	37.44750852	-122.16411092	4840551	1.212261792e+12	168.811657186
1408227834718	86	4087098	268500	410	9	37.44750852	-122.16411092	4840551	1.097385813e+12	168.811657186
1408227834753	86	4086801	283900	410	9	37.44750852	-122.16411092	4840551	1.1602428039e+12	168.811657186
1408227834796	86	4090638	278800	410	9	37.44750852	-122.16411092	4840551	1.1404698744e+12	168.811657186
1408227834814	86	4085031	284400	410	9	37.44750852	-122.16411092	4840551	1.1617828164e+12	168.811657186
1408227834833	86	4084440	302000	410	9	37.44750852	-122.16411092	4840551	1.23350088e+12	168.811657186
1408227834853	86	4086801	305400	410	9	37.44750852	-122.16411092	4840551	1.2481090254e+12	168.811657186
1408227834884	86	4068501	291200	410	9	37.44750852	-122.16411092	4840551	1.1847474912e+12	168.811657186
1408227834904	86	4084146	392600	410	9	37.44750852	-122.16411092	4840551	1.6034357196e+12	168.811657186
1408227834923	86	4087983	287900	410	9	37.44750852	-122.16411092	4840551	1.1769303057e+12	168.811657186
1408227834941	86	4086507	305400	410	9	37.44750852	-122.16411092	4840551	1.2480192378e+12	168.811657186
1408227834973	86	4080012	281600	410	9	37.44750852	-122.16411092	4840551	1.1489313792e+12	168.811657186
1408227834993	86	4076469	316700	410	9	37.44750852	-122.16411092	4840551	1.2910177323e+12	168.811657186
1408227835016	86	4090935	268000	410	9	37.44750852	-122.16411092	4840551	1.09637058e+12	168.811657186
1408227835038	86	4085916	268000	410	9	37.44750852	-122.16411092	4840551	1.095025488e+12	168.811657186
1408227835073	86	4092705	254300	410	9	37.44750852	-122.16411092	4840551	1.0407748815e+12	168.811657186
1408227835120	86	4088574	272000	410	9	37.44750852	-122.16411092	4840551	1.112092128e+12	168.811657186
1408227835142	86	4093296	239100	410	9	37.44750852	-122.16411092	4840551	9.787070736e+11	168.811657186
1408227835164	86	4096839	258300	410	9	37.44750852	-122.16411092	4840551	1.0582135137e+12	168.811657186
1408227835186	86	4093590	243600	410	9	37.44750852	-122.16411092	4840551	9.97198524e+11	168.811657186
1408227835229	86	4090638	243600	410	9	37.44750852	-122.16411092	4840551	9.964794168e+11	168.811657186
1408227835266	86	4092114	274800	410	9	37.44750852	-122.16411092	4840551	1.1245129272e+12	168.811657186
1408227835288	86	4092705	263400	410	9	37.44750852	-122.16411092	4840551	1.078018497e+12	168.811657186
1408227835309	86	4089753	262300	410	9	37.44750852	-122.16411092	4840551	1.0727422119e+12	168.811657186
1408227835331	86	4090050	258900	410	9	37.44750852	-122.16411092	4840551	1.058913945e+12	168.811657186
1408227835368	86	4089162	285600	410	9	37.44750852	-122.16411092	4840551	1.1678646672e+12	168.811657186
1408227835407	86	4073814	286700	410	9	37.44750852	-122.16411092	4840551	1.1679624738e+12	168.811657186
1408227835427	86	4073223	286700	410	9	37.44750852	-122.16411092	4840551	1.1677930341e+12	168.811657186
1408227835448	86	4077945	354100	410	9	37.44750852	-122.16411092	4840551	1.4440003245e+12	168.811657186
1408227835464	86	4071747	336000	410	9	37.44750852	-122.16411092	4840551	1.368106992e+12	168.811657186
1408227835480	86	4068501	429500	410	9	37.44750852	-122.16411092	4840551	1.7474211795e+12	168.811657186
1408227835496	86	4069092	425500	410	9	37.44750852	-122.16411092	4840551	1.731398646e+12	168.811657186
1408227835517	86	4076469	269700	410	9	37.44750852	-122.16411092	4840551	1.0994236893e+12	168.811657186
1408227835536	86	4075881	319500	410	9	37.44750852	-122.16411092	4840551	1.3022439795e+12	168.811657186
1408227835573	86	4077357	241900	410	9	37.44750852	-122.16411092	4840551	9.863126583e+11	168.811657186
1408227835593	86	4085622	307600	410	9	37.44750852	-122.16411092	4840551	1.2567373272e+12	168.811657186
1408227835614	86	4089459	299100	410	9	37.44750852	-122.16411092	4840551	1.2231571869e+12	168.811657186
1408227835637	86	4087098	284400	410	9	37.44750852	-122.16411092	4840551	1.1623706712e+12	168.811657186
1408227835679	86	4090638	253300	410	9	37.44750852	-122.16411092	4840551	1.0361586054e+12	168.811657186
1408227835719	86	4091526	278800	410	9	37.44750852	-122.16411092	4840551	1.1407174488e+12	168.811657186
1408227835741	86	4093590	240200	410	9	37.44750852	-122.16411092	4840551	9.83280318e+11	168.811657186
1408227835764	86	4096248	262900	410	9	37.44750852	-122.16411092	4840551	1.0769035992e+12	168.811657186
1408227835786	86	4093002	249300	410	9	37.44750852	-122.16411092	4840551	1.0203853986e+12	168.811657186
1408227835832	86	4091526	277600	410	9	37.44750852	-122.16411092	4840551	1.1358076176e+12	168.811657186
1408227835867	86	4091526	278100	410	9	37.44750852	-122.16411092	4840551	1.1378533806e+12	168.811657186
1408227835889	86	4093296	260600	410	9	37.44750852	-122.16411092	4840551	1.0667129376e+12	168.811657186
1408227835912	86	4093590	236300	410	9	37.44750852	-122.16411092	4840551	9.67315317e+11	168.811657186
1408227835931	86	4095657	246500	410	9	37.44750852	-122.16411092	4840551	1.0095794505e+12	168.811657186
1408227835968	86	4090935	280400	410	9	37.44750852	-122.16411092	4840551	1.147098174e+12	168.811657186
1408227836000	86	4076469	282700	410	9	37.44750852	-122.16411092	4840551	1.1524177863e+12	168.811657186
1408227836020	86	4078833	356900	410	9	37.44750852	-122.16411092	4840551	1.4557354977e+12	168.811657186
1408227836037	86	4079421	288400	410	9	37.44750852	-122.16411092	4840551	1.1765050164e+12	168.811657186
1408227836070	86	4076469	277600	410	9	37.44750852	-122.16411092	4840551	1.1316277944e+12	168.811657186
1408227836088	86	4077945	428900	410	9	37.44750852	-122.16411092	4840551	1.7490306105e+12	168.811657186
1408227836107	86	4087098	237900	410	9	37.44750852	-122.16411092	4840551	9.723206142e+11	168.811657186
1408227836126	86	4079421	286700	410	9	37.44750852	-122.16411092	4840551	1.1695700007e+12	168.811657186
1408227836163	86	4080012	329800	410	9	37.44750852	-122.16411092	4840551	1.3455879576e+12	168.811657186
1408227836181	86	4085916	289500	410	9	37.44750852	-122.16411092	4840551	1.182872682e+12	168.811657186
1408227836199	86	4088277	287200	410	9	37.44750852	-122.16411092	4840551	1.1741531544e+12	168.811657186
1408227836221	86	4088868	273100	410	9	37.44750852	-122.16411092	4840551	1.1166698508e+12	168.811657186
1408227836255	86	4090050	255500	410	9	37.44750852	-122.16411092	4840551	1.045007775e+12	168.811657186
1408227836299	86	4090935	278800	410	9	37.44750852	-122.16411092	4840551	1.140552678e+12	168.811657186
1408227836317	86	4074996	324100	410	9	37.44750852	-122.16411092	4840551	1.3207062036e+12	168.811657186
1408227836337	86	4073223	296800	410	9	37.44750852	-122.16411092	4840551	1.2089325864e+12	168.811657186
1408227836357	86	4078242	333700	410	9	37.44750852	-122.16411092	4840551	1.3609093554e+12	168.811657186
1408227836383	86	4067319	385300	410	9	37.44750852	-122.16411092	4840551	1.5671380107e+12	168.811657186
1408227836401	86	4075881	425000	410	9	37.44750852	-122.16411092	4840551	1.732249425e+12	168.811657186
1408227836418	86	4077945	330900	410	9	37.44750852	-122.16411092	4840551	1.3493920005e+12	168.811657186
1408227836440	86	4075881	311100	410	9	37.44750852	-122.16411092	4840551	1.2680065791e+12	168.811657186
1408227836467	86	4076469	328100	410	9	37.44750852	-122.16411092	4840551	1.3374894789e+12	168.811657186
