Time	SOD	Volt	Current	Temp	Signal	Latitude	Longitude	CellID	Power	Distance
1408228012509	85	4075290	326900	411	9	37.44492222	-122.16059125	4840551	1.332212301e+12	29.0526033924
1408228012507	85	4075290	326900	411	9	37.44504781	-122.16048964	4840551	1.332212301e+12	45.639783439
1408228012525	85	4054332	445900	411	9	37.44492222	-122.16059125	4840551	1.8078266388e+12	62.2269634855
1408228012545	85	4069386	338200	411	9	37.44492222	-122.16059125	4840551	1.3762663452e+12	62.2269634855
1408228012564	85	4071453	366000	411	9	37.44492222	-122.16059125	4840551	1.490151798e+12	62.2269634855
1408228012593	85	4053741	313900	411	9	37.44492222	-122.16059125	4840551	1.2724692999e+12	62.2269634855
1408228012611	85	4070862	434000	411	9	37.44492222	-122.16059125	4840551	1.766754108e+12	62.2269634855
1408228012628	85	4063779	351900	411	9	37.44492222	-122.16059125	4840551	1.4300438301e+12	62.2269634855
1408228012647	85	4064664	342800	411	9	37.44492222	-122.16059125	4840551	1.3933668192e+12	62.2269634855
1408228012668	85	4064073	267400	411	9	37.44492222	-122.16059125	4840551	1.0867331202e+12	62.2269634855
1408228012687	85	4054923	465800	411	9	37.44492222	-122.16059125	4840551	1.8887831334e+12	62.2269634855
1408228012708	85	4072338	296800	411	9	37.44492222	-122.16059125	4840551	1.2086699184e+12	62.2269634855
1408228012730	85	4072929	323000	411	9	37.44492222	-122.16059125	4840551	1.315556067e+12	62.2269634855
1408228012751	85	4078242	276500	411	9	37.44492222	-122.16059125	4840551	1.127633913e+12	62.2269634855
1408228012794	85	4077651	280400	411	9	37.44492222	-122.16059125	4840551	1.1433733404e+12	62.2269634855
1408228012835	85	4077945	303600	411	9	37.44492222	-122.16059125	4840551	1.238064102e+12	62.2269634855
1408228012857	85	4079718	284900	411	9	37.44492222	-122.16059125	4840551	1.1623116582e+12	62.2269634855
1408228012879	85	4081785	275300	410	9	37.44492222	-122.16059125	4840551	1.1237154105e+12	62.2269634855
1408228012901	85	4078536	263400	410	9	37.44492222	-122.16059125	4840551	1.0742863824e+12	62.2269634855
1408228012939	85	4077945	311100	411	9	37.44492222	-122.16059125	4840551	1.2686486895e+12	62.2269634855
1408228012974	85	4074405	302600	411	9	37.44492222	-122.16059125	4840551	1.232914953e+12	62.2269634855
1408228012996	85	4080309	281000	410	9	37.44492222	-122.16059125	4840551	1.146566829e+12	62.2269634855
1408228013018	85	4078536	276500	411	9	37.44492222	-122.16059125	4840551	1.127715204e+12	62.2269634855
1408228013051	85	4080012	282700	410	9	37.44492222	-122.16059125	4840551	1.1534193924e+12	62.2269634855
1408228013097	85	4076175	305900	411	9	37.44492222	-122.16059125	4840551	1.2469019325e+12	62.2269634855
1408228013117	85	4061712	304800	411	9	37.44492222	-122.16059125	4840551	1.2380098176e+12	62.2269634855
1408228013136	85	4062303	319000	411	9	37.44492222	-122.16059125	4840551	1.295874657e+12	62.2269634855
1408228013157	85	4065843	349600	411	9	37.44492222	-122.16059125	4840551	1.4214187128e+12	62.2269634855
1408228013180	85	4055217	295800	411	9	37.44492222	-122.16059125	4840551	1.1995331886e+12	62.2269634855
1408228013200	85	4060530	457300	411	9	37.44492222	-122.16059125	4840551	1.856880369e+12	62.2269634855
1408228013218	85	4064367	309400	411	9	37.44492222	-122.16059125	4840551	1.2575151498e+12	62.2269634855
1408228013237	85	4066140	335400	411	9	37.44492222	-122.16059125	4840551	1.363783356e+12	62.2269634855
1408228013264	85	4064073	264600	411	9	37.44492222	-122.16059125	4840551	1.0753537158e+12	62.2269634855
1408228013285	85	4051380	461300	411	9	37.44492222	-122.16059125	4840551	1.868901594e+12	62.2269634855
1408228013306	85	4067910	364900	411	9	37.44492222	-122.16059125	4840551	1.484380359e+12	62.2269634855
1408228013327	85	4072044	302600	411	9	37.44492222	-122.16059125	4840551	1.2322005144e+12	62.2269634855
1408228013353	85	4072338	289500	411	9	37.44492222	-122.16059125	4840551	1.178941851e+12	62.2269634855
1408228013386	85	4071747	330300	411	9	37.44492222	-122.16059125	4840551	1.3448980341e+12	62.2269634855
1408228013438	85	4074405	323500	411	9	37.44492222	-122.16059125	4840551	1.3180700175e+12	62.2269634855
1408228013459	85	4062891	393800	411	9	37.44492222	-122.16059125	4840551	1.5999664758e+12	62.2269634855
1408228013476	85	4052856	418800	411	9	37.44492222	-122.16059125	4840551	1.6973360928e+12	62.2269634855
1408228013495	85	4056987	459500	411	9	37.44492222	-122.16059125	4840551	1.8641855265e+12	62.2269634855
1408228013510	85	4056399	425000	410	9	37.44492222	-122.16059125	4840551	1.723969575e+12	62.2269634855
1408228013528	85	4063779	433500	411	9	37.44492222	-122.16059125	4840551	1.7616481965e+12	62.2269634855
1408228013547	85	4062891	334200	411	9	37.44492222	-122.16059125	4840551	1.3578181722e+12	62.2269634855
1408228013567	85	4062597	258900	411	9	37.44492222	-122.16059125	4840551	1.0518063633e+12	62.2269634855
1408228013600	85	4059645	304800	411	9	37.44492222	-122.16059125	4840551	1.237379796e+12	62.2269634855
1408228013617	85	4063482	297500	411	9	37.44492222	-122.16059125	4840551	1.208885895e+12	62.2269634855
1408228013637	85	4064664	335400	411	9	37.44492222	-122.16059125	4840551	1.3632883056e+12	62.2269634855
1408228013658	85	4069092	300800	410	9	37.44492222	-122.16059125	4840551	1.2239828736e+12	62.2269634855
1408228013686	85	4066434	321300	411	9	37.44492222	-122.16059125	4840551	1.3065452442e+12	62.2269634855
1408228013728	85	4074699	369400	411	9	37.44492222	-122.16059125	4840551	1.5051938106e+12	62.2269634855
1408228013749	85	4076175	272000	411	9	37.44492222	-122.16059125	4840551	1.1087196e+12	62.2269634855
1408228013769	85	4073520	293500	411	9	37.44492222	-122.16059125	4840551	1.19557812e+12	62.2269634855
1408228013791	85	4074699	288900	410	9	37.44492222	-122.16059125	4840551	1.1771805411e+12	62.2269634855
1408228013827	85	4075881	295800	410	9	37.44492222	-122.16059125	4840551	1.2056455998e+12	62.2269634855
1408228013871	85	4078242	310500	411	9	37.44492222	-122.16059125	4840551	1.266294141e+12	62.2269634855
1408228013895	85	4083849	261200	411	9	37.44492222	-122.16059125	4840551	1.0667013588e+12	62.2269634855
1408228013919	85	4080897	270800	411	9	37.44492222	-122.16059125	4840551	1.1051069076e+12	62.2269634855
1408228013939	85	4078833	281600	411	9	37.44492222	-122.16059125	4840551	1.1485993728e+12	62.2269634855
1408228013968	85	4078833	298600	411	9	37.44492222	-122.16059125	4840551	1.2179395338e+12	62.2269634855
1408228014007	85	4059939	298600	411	9	37.44492222	-122.16059125	4840551	1.2122977854e+12	62.2269634855
1408228014028	85	4062303	317300	411	9	37.44492222	-122.16059125	4840551	1.2889687419e+12	62.2269634855
1408228014047	85	4064073	347300	411	9	37.44492222	-122.16059125	4840551	1.4114525529e+12	62.2269634855
1408228014080	85	4062597	265200	411	9	37.44492222	-122.16059125	4840551	1.0774007244e+12	62.2269634855
1408228014098	85	4062006	453900	411	9	37.44492222	-122.16059125	4840551	1.8437445234e+12	62.2269634855
1408228014118	85	4061712	269200	411	9	37.44492222	-122.16059125	4840551	1.0934128704e+12	62.2269634855
1408228014137	85	4067910	316700	411	9	37.44492222	-122.16059125	4840551	1.288307097e+12	62.2269634855
1408228014171	85	4066434	283300	411	9	37.44492222	-122.16059125	4840551	1.1520207522e+12	62.2269634855
1408228014186	85	4073814	439100	410	9	37.44492222	-122.16059125	4840551	1.7888117274e+12	62.2269634855
1408228014209	85	4073814	288900	411	9	37.44492222	-122.16059125	4840551	1.1769248646e+12	62.2269634855
1408228014228	85	4074405	294700	410	9	37.44492222	-122.16059125	4840551	1.2007271535e+12	62.2269634855
1408228014264	85	4079127	269700	411	9	37.44492222	-122.16059125	4840551	1.1001405519e+12	62.2269634855
1408228014302	85	4077651	298000	411	9	37.44492222	-122.16059125	4840551	1.215139998e+12	62.2269634855
1408228014318	85	4061712	377400	411	9	37.44492222	-122.16059125	4840551	1.5328901088e+12	62.2269634855
1408228014337	85	4063779	345600	411	9	37.44492222	-122.16059125	4840551	1.4044420224e+12	62.2269634855
1408228014357	85	4061121	287200	411	9	37.44492222	-122.16059125	4840551	1.1663539512e+12	62.2269634855
1408228014383	85	4052856	322400	411	9	37.44492222	-122.16059125	4840551	1.3066407744e+12	62.2269634855
1408228014400	85	4060236	470400	411	9	37.44492222	-122.16059125	4840551	1.9099350144e+12	62.2269634855
1408228014418	85	4060530	316700	411	9	37.44492222	-122.16059125	4840551	1.285969851e+12	62.2269634855
1408228014437	85	4058760	358100	411	9	37.44492222	-122.16059125	4840551	1.453441956e+12	62.2269634855
1408228014459	85	4062891	414200	411	9	37.44492222	-122.16059125	4840551	1.6828494522e+12	62.2269634855
1408228014500	85	4055217	453900	410	9	37.44492222	-122.16059125	4840551	1.8406629963e+12	62.2269634855
1408228014503	85	4055217	453900	410	9	37.44482428	-122.16067639	4840551	1.8406629963e+12	75.4526194008
1408228014517	85	4067025	390400	411	9	37.44482428	-122.16067639	4840551	1.58776656e+12	75.4526194008
1408228014535	85	4068204	381400	410	9	37.44482428	-122.16067639	4840551	1.5516130056e+12	75.4526194008
1408228014557	85	4062597	326900	411	9	37.44482428	-122.16067639	4840551	1.3280629593e+12	75.4526194008
1408228014583	85	4057284	309400	411	9	37.44482428	-122.16067639	4840551	1.2553236696e+12	75.4526194008
1408228014600	85	4062303	419300	411	9	37.44482428	-122.16067639	4840551	1.7033236479e+12	75.4526194008
1408228014618	85	4062303	338800	411	9	37.44482428	-122.16067639	4840551	1.3763082564e+12	75.4526194008
1408228014637	85	4064073	359200	411	9	37.44482428	-122.16067639	4840551	1.4598150216e+12	75.4526194008
1408228014661	85	4066728	256100	411	9	37.44482428	-122.16067639	4840551	1.0414890408e+12	75.4526194008
1408228014680	85	4060827	452700	411	9	37.44482428	-122.16067639	4840551	1.8383363829e+12	75.4526194008
1408228014698	85	4064958	280400	411	9	37.44482428	-122.16067639	4840551	1.1398142232e+12	75.4526194008
1408228014718	85	4064073	288900	411	9	37.44482428	-122.16067639	4840551	1.1741106897e+12	75.4526194008
1408228014744	85	4066140	334200	411	9	37.44482428	-122.16067639	4840551	1.358903988e+12	75.4526194008
1408228014773	85	4070568	343300	411	9	37.44482428	-122.16067639	4840551	1.3974259944e+12	75.4526194008
1408228014793	85	4080309	289500	410	9	37.44482428	-122.16067639	4840551	1.1812494555e+12	75.4526194008
1408228014816	85	4080309	312700	411	9	37.44482428	-122.16067639	4840551	1.2759126243e+12	75.4526194008
1408228014836	85	4075290	292900	411	9	37.44482428	-122.16067639	4840551	1.193652441e+12	75.4526194008
1408228014880	85	4079718	257800	410	9	37.44482428	-122.16067639	4840551	1.0517513004e+12	75.4526194008
1408228014922	85	4081194	283900	410	9	37.44482428	-122.16067639	4840551	1.1586509766e+12	75.4526194008
1408228014944	85	4078242	278800	410	9	37.44482428	-122.16067639	4840551	1.1370138696e+12	75.4526194008
1408228014967	85	4080309	258300	410	9	37.44482428	-122.16067639	4840551	1.0539438147e+12	75.4526194008
1408228014987	85	4078536	270800	410	9	37.44482428	-122.16067639	4840551	1.1044675488e+12	75.4526194008
1408228015029	85	4075881	295800	410	9	37.44482428	-122.16067639	4840551	1.2056455998e+12	75.4526194008
1408228015069	85	4077651	326900	411	9	37.44482428	-122.16067639	4840551	1.3329841119e+12	75.4526194008
1408228015089	85	4078536	277000	410	9	37.44482428	-122.16067639	4840551	1.129754472e+12	75.4526194008
1408228015112	85	4079421	253300	411	9	37.44482428	-122.16067639	4840551	1.0333173393e+12	75.4526194008
1408228015131	85	4080309	279300	410	9	37.44482428	-122.16067639	4840551	1.1396303037e+12	75.4526194008
1408228015168	85	4075881	297500	410	9	37.44482428	-122.16067639	4840551	1.2125745975e+12	75.4526194008
1408228015200	85	4062597	298600	411	9	37.44482428	-122.16067639	4840551	1.2130914642e+12	75.4526194008
1408228015220	85	4061712	352400	411	9	37.44482428	-122.16067639	4840551	1.4313473088e+12	75.4526194008
1408228015238	85	4063779	383600	411	9	37.44482428	-122.16067639	4840551	1.5588656244e+12	75.4526194008
1408228015270	85	4064073	377400	411	9	37.44482428	-122.16067639	4840551	1.5337811502e+12	75.4526194008
1408228015288	85	4064367	448700	411	9	37.44482428	-122.16067639	4840551	1.8236814729e+12	75.4526194008
1408228015307	85	4068501	265200	411	9	37.44482428	-122.16067639	4840551	1.0789664652e+12	75.4526194008
1408228015326	85	4062303	310500	411	9	37.44482428	-122.16067639	4840551	1.2613450815e+12	75.4526194008
1408228015365	85	4063482	342800	411	9	37.44482428	-122.16067639	4840551	1.3929616296e+12	75.4526194008
1408228015386	85	4073223	282100	411	9	37.44482428	-122.16067639	4840551	1.1490562083e+12	75.4526194008
1408228015407	85	4079127	375100	411	9	37.44482428	-122.16067639	4840551	1.5300805377e+12	75.4526194008
1408228015430	85	4072044	294700	411	9	37.44482428	-122.16067639	4840551	1.2000313668e+12	75.4526194008
1408228015489	85	4076766	328100	410	9	37.44482428	-122.16067639	4840551	1.3375869246e+12	75.4526194008
1408228015509	85	4055808	405700	411	9	37.44482428	-122.16067639	4840551	1.6454413056e+12	75.4526194008
1408228015526	85	4054038	445900	411	9	37.44482428	-122.16067639	4840551	1.8076955442e+12	75.4526194008
1408228015547	85	4062006	349100	411	9	37.44482428	-122.16067639	4840551	1.4180462946e+12	75.4526194008
1408228015566	85	4064664	292900	411	9	37.44482428	-122.16067639	4840551	1.1905400856e+12	75.4526194008
1408228015593	85	4056102	351300	411	9	37.44482428	-122.16067639	4840551	1.4249086326e+12	75.4526194008
1408228015612	85	4062006	451700	411	9	37.44482428	-122.16067639	4840551	1.8348081102e+12	75.4526194008
1408228015630	85	4060530	372300	411	9	37.44482428	-122.16067639	4840551	1.511735319e+12	75.4526194008
1408228015648	85	4062006	317800	411	9	37.44482428	-122.16067639	4840551	1.2909055068e+12	75.4526194008
1408228015682	85	4065255	290700	411	9	37.44482428	-122.16067639	4840551	1.1817696285e+12	75.4526194008
1408228015702	85	4073520	333700	411	9	37.44482428	-122.16067639	4840551	1.359333624e+12	75.4526194008
1408228015721	85	4078242	296300	411	9	37.44482428	-122.16067639	4840551	1.2083831046e+12	75.4526194008
1408228015744	85	4072338	300300	410	9	37.44482428	-122.16067639	4840551	1.2229231014e+12	75.4526194008
1408228015783	85	4079718	262300	411	9	37.44482428	-122.16067639	4840551	1.0701100314e+12	75.4526194008
1408228015826	85	4077357	300300	410	9	37.44482428	-122.16067639	4840551	1.2244303071e+12	75.4526194008
1408228015846	85	4077945	294700	410	9	37.44482428	-122.16067639	4840551	1.2017703915e+12	75.4526194008
1408228015868	85	4079127	273700	410	9	37.44482428	-122.16067639	4840551	1.1164570599e+12	75.4526194008
1408228015889	85	4080012	276000	410	9	37.44482428	-122.16067639	4840551	1.126083312e+12	75.4526194008
1408228015920	85	4077357	253800	411	9	37.44482428	-122.16067639	4840551	1.0348332066e+12	75.4526194008
1408228015970	85	4073223	320100	411	9	37.44482428	-122.16067639	4840551	1.3038386823e+12	75.4526194008
1408228015991	85	4079127	294000	411	9	37.44482428	-122.16067639	4840551	1.199263338e+12	75.4526194008
1408228016012	85	4081785	279900	410	9	37.44482428	-122.16067639	4840551	1.1424916215e+12	75.4526194008
1408228016037	85	4078536	279900	411	9	37.44482428	-122.16067639	4840551	1.1415822264e+12	75.4526194008
1408228016074	85	4074699	327500	410	9	37.44482428	-122.16067639	4840551	1.3344639225e+12	75.4526194008
1408228016122	85	4077060	323500	411	9	37.44482428	-122.16067639	4840551	1.31892891e+12	75.4526194008
1408228016144	85	4080603	290700	411	9	37.44482428	-122.16067639	4840551	1.1862312921e+12	75.4526194008
1408228016167	85	4080012	280400	410	9	37.44482428	-122.16067639	4840551	1.1440353648e+12	75.4526194008
1408228016191	85	4078242	282100	410	9	37.44482428	-122.16067639	4840551	1.1504720682e+12	75.4526194008
1408228016230	85	4075584	305900	410	9	37.44482428	-122.16067639	4840551	1.2467211456e+12	75.4526194008
1408228016257	85	4054923	334200	411	9	37.44482428	-122.16067639	4840551	1.3551552666e+12	75.4526194008
1408228016278	85	4062597	345600	411	9	37.44482428	-122.16067639	4840551	1.4040335232e+12	75.4526194008
1408228016318	85	4063188	317300	411	9	37.44482428	-122.16067639	4840551	1.2892495524e+12	75.4526194008
1408228016350	85	4061121	329200	411	9	37.44482428	-122.16067639	4840551	1.3369210332e+12	75.4526194008
1408228016368	85	4057578	418800	411	9	37.44482428	-122.16067639	4840551	1.6993136664e+12	75.4526194008
1408228016387	85	4062597	288900	411	9	37.44482428	-122.16067639	4840551	1.1736842733e+12	75.4526194008
1408228016407	85	4065549	333700	411	9	37.44482428	-122.16067639	4840551	1.3566737013e+12	75.4526194008
1408228016451	85	4062597	272500	410	9	37.44482428	-122.16067639	4840551	1.1070576825e+12	75.4526194008
1408228016475	85	4062597	272500	410	9	37.44472317	-122.16078097	4840551	1.1070576825e+12	89.998089218
1408228016477	85	4074108	362700	411	9	37.44472317	-122.16078097	4840551	1.4776789716e+12	89.998089218
1408228016496	85	4073223	346200	411	9	37.44472317	-122.16078097	4840551	1.4101498026e+12	89.998089218
1408228016516	85	4072929	328600	410	9	37.44472317	-122.16078097	4840551	1.3383644694e+12	89.998089218
1408228016542	85	4072044	285600	411	9	37.44472317	-122.16078097	4840551	1.1629757664e+12	89.998089218
1408228016576	85	4068204	381400	411	9	37.44472317	-122.16078097	4840551	1.5516130056e+12	89.998089218
1408228016597	85	4075881	277600	411	9	37.44472317	-122.16078097	4840551	1.1314645656e+12	89.998089218
1408228016618	85	4076175	292400	411	9	37.44472317	-122.16078097	4840551	1.19187357e+12	89.998089218
1408228016640	85	4072632	295200	411	9	37.44472317	-122.16078097	4840551	1.2022409664e+12	89.998089218
1408228016676	85	4077357	278800	410	9	37.44472317	-122.16078097	4840551	1.1367671316e+12	89.998089218
1408228016719	85	4077651	303100	411	9	37.44472317	-122.16078097	4840551	1.2359360181e+12	89.998089218
1408228016739	85	4079421	291200	410	9	37.44472317	-122.16078097	4840551	1.1879273952e+12	89.998089218
1408228016760	85	4074405	300300	411	9	37.44472317	-122.16078097	4840551	1.2235438215e+12	89.998089218
1408228016782	85	4079421	283300	410	9	37.44472317	-122.16078097	4840551	1.1556999693e+12	89.998089218
1408228016818	85	4076766	282100	411	9	37.44472317	-122.16078097	4840551	1.1500556886e+12	89.998089218
1408228016857	85	4057875	292900	411	9	37.44472317	-122.16078097	4840551	1.1885515875e+12	89.998089218
1408228016877	85	4061712	362700	411	9	37.44472317	-122.16078097	4840551	1.4731829424e+12	89.998089218
1408228016896	85	4064958	340500	411	9	37.44472317	-122.16078097	4840551	1.384118199e+12	89.998089218
1408228016917	85	4066140	332100	411	9	37.44472317	-122.16078097	4840551	1.350365094e+12	89.998089218
1408228016943	85	4068501	451000	411	9	37.44472317	-122.16078097	4840551	1.834893951e+12	89.998089218
1408228016963	85	4067910	346800	411	9	37.44472317	-122.16078097	4840551	1.410751188e+12	89.998089218
1408228016983	85	4070862	363800	411	9	37.44472317	-122.16078097	4840551	1.4809795956e+12	89.998089218
1408228017011	85	4071156	304800	411	9	37.44472317	-122.16078097	4840551	1.2408883488e+12	89.998089218
1408228017029	85	4071453	434000	411	9	37.44472317	-122.16078097	4840551	1.767010602e+12	89.998089218
1408228017049	85	4072044	301400	411	9	37.44472317	-122.16078097	4840551	1.2273140616e+12	89.998089218
1408228017071	85	4073814	299100	411	9	37.44472317	-122.16078097	4840551	1.2184777674e+12	89.998089218
1408228017103	85	4077357	296800	410	9	37.44472317	-122.16078097	4840551	1.2101595576e+12	89.998089218
1408228017148	85	4077651	296300	411	9	37.44472317	-122.16078097	4840551	1.2082079913e+12	89.998089218
1408228017167	85	4063188	414800	411	9	37.44472317	-122.16078097	4840551	1.6854103824e+12	89.998089218
1408228017187	85	4065549	272500	411	9	37.44472317	-122.16078097	4840551	1.1078621025e+12	89.998089218
1408228017207	85	4064958	320700	411	9	37.44472317	-122.16078097	4840551	1.3036320306e+12	89.998089218
1408228017233	85	4056399	264000	410	9	37.44472317	-122.16078097	4840551	1.070889336e+12	89.998089218
1408228017250	85	4058760	440300	411	9	37.44472317	-122.16078097	4840551	1.787072028e+12	89.998089218
1408228017271	85	4054626	478800	411	9	37.44472317	-122.16078097	4840551	1.9413549288e+12	89.998089218
1408228017287	85	4054038	445400	411	9	37.44472317	-122.16078097	4840551	1.8056685252e+12	89.998089218
1408228017311	85	4061712	327500	411	9	37.44472317	-122.16078097	4840551	1.33021068e+12	89.998089218
1408228017328	85	4061121	493000	411	9	37.44472317	-122.16078097	4840551	2.002132653e+12	89.998089218
1408228017349	85	4066728	309900	411	9	37.44472317	-122.16078097	4840551	1.2602790072e+12	89.998089218
1408228017368	85	4069386	332100	411	9	37.44472317	-122.16078097	4840551	1.3514430906e+12	89.998089218
1408228017403	85	4071156	287200	410	9	37.44472317	-122.16078097	4840551	1.1692360032e+12	89.998089218
1408228017446	85	4074108	308800	411	9	37.44472317	-122.16078097	4840551	1.2580845504e+12	89.998089218
1408228017467	85	4062597	421100	411	9	37.44472317	-122.16078097	4840551	1.7107595967e+12	89.998089218
1408228017486	85	4064073	342800	410	9	37.44472317	-122.16078097	4840551	1.3931642244e+12	89.998089218
1408228017504	85	4055514	441900	411	9	37.44472317	-122.16078097	4840551	1.7921316366e+12	89.998089218
1408228017526	85	4057578	326400	411	9	37.44472317	-122.16078097	4840551	1.3243934592e+12	89.998089218
1408228017547	85	4056987	435200	411	9	37.44472317	-122.16078097	4840551	1.7656007424e+12	89.998089218
1408228017567	85	4065549	329200	411	9	37.44472317	-122.16078097	4840551	1.3383787308e+12	89.998089218
1408228017586	85	4066434	258300	411	9	37.44472317	-122.16078097	4840551	1.0503599022e+12	89.998089218
1408228017607	85	4065549	315000	411	9	37.44472317	-122.16078097	4840551	1.280647935e+12	89.998089218
1408228017631	85	4059645	251000	410	9	37.44472317	-122.16078097	4840551	1.018970895e+12	89.998089218
1408228017652	85	4068795	445900	411	9	37.44472317	-122.16078097	4840551	1.8142756905e+12	89.998089218
1408228017671	85	4069386	300800	411	9	37.44472317	-122.16078097	4840551	1.2240713088e+12	89.998089218
1408228017691	85	4074108	312700	411	9	37.44472317	-122.16078097	4840551	1.2739735716e+12	89.998089218
1408228017723	85	4077945	267400	410	9	37.44472317	-122.16078097	4840551	1.090442493e+12	89.998089218
1408228017775	85	4076766	300800	411	9	37.44472317	-122.16078097	4840551	1.2262912128e+12	89.998089218
1408228017797	85	4079421	266900	410	9	37.44472317	-122.16078097	4840551	1.0887974649e+12	89.998089218
1408228017819	85	4079718	274800	411	9	37.44472317	-122.16078097	4840551	1.1211065064e+12	89.998089218
1408228017840	85	4080309	282100	410	9	37.44472317	-122.16078097	4840551	1.1510551689e+12	89.998089218
1408228017876	85	4073520	264600	410	9	37.44472317	-122.16078097	4840551	1.077853392e+12	89.998089218
1408228017919	85	4077357	311100	410	9	37.44472317	-122.16078097	4840551	1.2684657627e+12	89.998089218
1408228017939	85	4079127	270800	410	9	37.44472317	-122.16078097	4840551	1.1046275916e+12	89.998089218
1408228017962	85	4078242	287900	411	9	37.44472317	-122.16078097	4840551	1.1741258718e+12	89.998089218
1408228017984	85	4077357	307600	411	9	37.44472317	-122.16078097	4840551	1.2541950132e+12	89.998089218
1408228018018	85	4078242	279900	410	9	37.44472317	-122.16078097	4840551	1.1414999358e+12	89.998089218
1408228018067	85	4074405	305900	411	9	37.44472317	-122.16078097	4840551	1.2463604895e+12	89.998089218
1408228018091	85	4076766	281000	410	9	37.44472317	-122.16078097	4840551	1.145571246e+12	89.998089218
1408228018112	85	4083849	269200	410	9	37.44472317	-122.16078097	4840551	1.0993721508e+12	89.998089218
1408228018134	85	4083261	274800	410	9	37.44472317	-122.16078097	4840551	1.1220801228e+12	89.998089218
1408228018166	85	4074699	298000	410	9	37.44472317	-122.16078097	4840551	1.214260302e+12	89.998089218
1408228018204	85	4061121	301400	411	9	37.44472317	-122.16078097	4840551	1.2240218694e+12	89.998089218
1408228018223	85	4074699	308800	411	9	37.44472317	-122.16078097	4840551	1.2582670512e+12	89.998089218
1408228018241	85	4073520	296800	411	9	37.44472317	-122.16078097	4840551	1.209020736e+12	89.998089218
1408228018270	85	4065843	317300	411	9	37.44472317	-122.16078097	4840551	1.2900919839e+12	89.998089218
1408228018288	85	4061121	431200	411	9	37.44472317	-122.16078097	4840551	1.7511553752e+12	89.998089218
1408228018307	85	4062006	338800	411	9	37.44472317	-122.16078097	4840551	1.3762076328e+12	89.998089218
1408228018326	85	4063188	379100	411	9	37.44472317	-122.16078097	4840551	1.5403545708e+12	89.998089218
1408228018352	85	4065255	261700	411	9	37.44472317	-122.16078097	4840551	1.0638772335e+12	89.998089218
1408228018369	85	4059939	453900	411	9	37.44472317	-122.16078097	4840551	1.8428063121e+12	89.998089218
1408228018387	85	4062891	299100	411	9	37.44472317	-122.16078097	4840551	1.2152106981e+12	89.998089218
1408228018409	85	4074699	373400	410	9	37.44472317	-122.16078097	4840551	1.5214926066e+12	89.998089218
1408228018451	85	4072632	278800	410	9	37.44472317	-122.16078097	4840551	1.1354498016e+12	89.998089218
1408228018498	85	4072632	278800	410	9	37.44463152	-122.16087002	4840551	1.1354498016e+12	102.865184966
1408228018499	85	4073223	305400	411	9	37.44463152	-122.16087002	4840551	1.2439623042e+12	102.865184966
1408228018515	85	4055514	476500	411	9	37.44463152	-122.16087002	4840551	1.932452421e+12	102.865184966
1408228018537	85	4072632	311100	411	9	37.44463152	-122.16087002	4840551	1.2669958152e+12	102.865184966
1408228018557	85	4062303	321800	411	9	37.44463152	-122.16087002	4840551	1.3072491054e+12	102.865184966
1408228018583	85	4054626	367800	411	9	37.44463152	-122.16087002	4840551	1.4912914428e+12	102.865184966
1408228018600	85	4070568	374600	411	9	37.44463152	-122.16087002	4840551	1.5248347728e+12	102.865184966
1408228018620	85	4064958	275300	411	9	37.44463152	-122.16087002	4840551	1.1190829374e+12	102.865184966
1408228018638	85	4064073	317800	411	9	37.44463152	-122.16087002	4840551	1.2915623994e+12	102.865184966
1408228018661	85	4065255	322400	411	9	37.44463152	-122.16087002	4840551	1.310638212e+12	102.865184966
1408228018680	85	4056987	462400	410	9	37.44463152	-122.16087002	4840551	1.8759507888e+12	102.865184966
1408228018700	85	4071156	376800	410	9	37.44463152	-122.16087002	4840551	1.5340115808e+12	102.865184966
1408228018720	85	4069977	280400	410	9	37.44463152	-122.16087002	4840551	1.1412215508e+12	102.865184966
1408228018755	85	4074108	299800	410	9	37.44463152	-122.16087002	4840551	1.2214175784e+12	102.865184966
1408228018798	85	4078242	301400	411	9	37.44463152	-122.16087002	4840551	1.2291821388e+12	102.865184966
1408228018818	85	4064958	266200	411	9	37.44463152	-122.16087002	4840551	1.0820918196e+12	102.865184966
1408228018837	85	4064958	298000	411	9	37.44463152	-122.16087002	4840551	1.211357484e+12	102.865184966
1408228018856	85	4067910	333200	411	9	37.44463152	-122.16087002	4840551	1.355427612e+12	102.865184966
1408228018883	85	4054332	397200	410	9	37.44463152	-122.16087002	4840551	1.6103806704e+12	102.865184966
1408228018900	85	4074405	347900	411	9	37.44463152	-122.16087002	4840551	1.4174854995e+12	102.865184966
1408228018920	85	4067319	278100	411	9	37.44463152	-122.16087002	4840551	1.1311214139e+12	102.865184966
1408228018938	85	4067319	302600	411	9	37.44463152	-122.16087002	4840551	1.2307707294e+12	102.865184966
1408228018961	85	4073223	318500	411	9	37.44463152	-122.16087002	4840551	1.2973215255e+12	102.865184966
1408228018980	85	4057578	470400	411	9	37.44463152	-122.16087002	4840551	1.9086846912e+12	102.865184966
1408228018999	85	4073223	357500	411	9	37.44463152	-122.16087002	4840551	1.4561772225e+12	102.865184966
1408228019020	85	4074699	285600	411	9	37.44463152	-122.16087002	4840551	1.1637340344e+12	102.865184966
1408228019054	85	4074699	309900	410	9	37.44463152	-122.16087002	4840551	1.2627492201e+12	102.865184966
1408228019098	85	4075881	307600	411	9	37.44463152	-122.16087002	4840551	1.2537409956e+12	102.865184966
1408228019117	85	4065549	425500	411	9	37.44463152	-122.16087002	4840551	1.7298910995e+12	102.865184966
1408228019137	85	4068204	264000	411	9	37.44463152	-122.16087002	4840551	1.074005856e+12	102.865184966
1408228019156	85	4065549	323000	411	9	37.44463152	-122.16087002	4840551	1.313172327e+12	102.865184966
1408228019183	85	4051674	380200	411	9	37.44463152	-122.16087002	4840551	1.5404464548e+12	102.865184966
1408228019200	85	4070271	373400	411	9	37.44463152	-122.16087002	4840551	1.5198391914e+12	102.865184966
1408228019220	85	4064958	278100	411	9	37.44463152	-122.16087002	4840551	1.1304648198e+12	102.865184966
1408228019238	85	4066434	319000	411	9	37.44463152	-122.16087002	4840551	1.297192446e+12	102.865184966
1408228019271	85	4067319	316200	410	9	37.44463152	-122.16087002	4840551	1.2860862678e+12	102.865184966
1408228019306	85	4064664	394900	411	9	37.44463152	-122.16087002	4840551	1.6051358136e+12	102.865184966
1408228019328	85	4065549	368300	410	9	37.44463152	-122.16087002	4840551	1.4973416967e+12	102.865184966
1408228019349	85	4072338	294000	410	9	37.44463152	-122.16087002	4840551	1.197267372e+12	102.865184966
1408228019371	85	4069680	310500	410	9	37.44463152	-122.16087002	4840551	1.26363564e+12	102.865184966
1408228019415	85	4070271	363800	410	9	37.44463152	-122.16087002	4840551	1.4807645898e+12	102.865184966
1408228019451	85	4066728	302600	411	9	37.44463152	-122.16087002	4840551	1.2305918928e+12	102.865184966
1408228019472	85	4061712	375100	410	9	37.44463152	-122.16087002	4840551	1.5235481712e+12	102.865184966
1408228019488	85	4051086	476000	411	9	37.44463152	-122.16087002	4840551	1.928316936e+12	102.865184966
1408228019518	85	4060236	401700	411	9	37.44463152	-122.16087002	4840551	1.6309968012e+12	102.865184966
1408228019547	85	4059054	455000	411	9	37.44463152	-122.16087002	4840551	1.84686957e+12	102.865184966
1408228019568	85	4064958	278100	411	9	37.44463152	-122.16087002	4840551	1.1304648198e+12	102.865184966
1408228019587	85	4063482	295800	411	9	37.44463152	-122.16087002	4840551	1.2019779756e+12	102.865184966
1408228019611	85	4062303	342200	411	9	37.44463152	-122.16087002	4840551	1.3901200866e+12	102.865184966
1408228019628	85	4057875	440300	411	9	37.44463152	-122.16087002	4840551	1.7866823625e+12	102.865184966
1408228019651	85	4074108	296800	410	9	37.44463152	-122.16087002	4840551	1.2091952544e+12	102.865184966
1408228019670	85	4074405	269700	410	9	37.44463152	-122.16087002	4840551	1.0988670285e+12	102.865184966
1408228019703	85	4070568	300300	410	9	37.44463152	-122.16087002	4840551	1.2223915704e+12	102.865184966
1408228019746	85	4075881	299800	411	9	37.44463152	-122.16087002	4840551	1.2219491238e+12	102.865184966
1408228019762	85	4067910	375100	410	9	37.44463152	-122.16087002	4840551	1.525873041e+12	102.865184966
1408228019780	85	4068501	377900	411	9	37.44463152	-122.16087002	4840551	1.5374865279e+12	102.865184966
1408228019798	85	4061712	389300	410	9	37.44463152	-122.16087002	4840551	1.5812244816e+12	102.865184966
1408228019823	85	4055217	379600	411	9	37.44463152	-122.16087002	4840551	1.5393603732e+12	102.865184966
1408228019840	85	4070862	377900	411	9	37.44463152	-122.16087002	4840551	1.5383787498e+12	102.865184966
1408228019859	85	4064367	286100	411	9	37.44463152	-122.16087002	4840551	1.1628153987e+12	102.865184966
1408228019877	85	4061712	341700	411	9	37.44463152	-122.16087002	4840551	1.3878869904e+12	102.865184966
1408228019911	85	4062303	329800	411	9	37.44463152	-122.16087002	4840551	1.3397475294e+12	102.865184966
1408228019930	85	4059351	305900	411	9	37.44463152	-122.16087002	4840551	1.2417554709e+12	102.865184966
1408228019949	85	4073520	349600	410	9	37.44463152	-122.16087002	4840551	1.424102592e+12	102.865184966
1408228019970	85	4078242	288400	410	9	37.44463152	-122.16087002	4840551	1.1761649928e+12	102.865184966
1408228020023	85	4075881	313400	410	9	37.44463152	-122.16087002	4840551	1.2773811054e+12	102.865184966
1408228020066	85	4056987	322400	411	9	37.44463152	-122.16087002	4840551	1.3079726088e+12	102.865184966
1408228020082	85	4053150	437500	411	9	37.44463152	-122.16087002	4840551	1.773253125e+12	102.865184966
1408228020099	85	4051086	468600	411	9	37.44463152	-122.16087002	4840551	1.8983388996e+12	102.865184966
1408228020115	85	4055808	463500	410	9	37.44463152	-122.16087002	4840551	1.879867008e+12	102.865184966
1408228020141	85	4051674	447100	410	9	37.44463152	-122.16087002	4840551	1.8115034454e+12	102.865184966
1408228020157	85	4054626	447700	410	9	37.44463152	-122.16087002	4840551	1.8152560602e+12	102.865184966
1408228020172	85	4055217	448700	410	9	37.44463152	-122.16087002	4840551	1.8195758679e+12	102.865184966
1408228020190	85	4057284	441400	410	9	37.44463152	-122.16087002	4840551	1.7908851576e+12	102.865184966
1408228020223	85	4060236	392600	411	9	37.44463152	-122.16087002	4840551	1.5940486536e+12	102.865184966
1408228020240	85	4070862	321300	411	9	37.44463152	-122.16087002	4840551	1.3079679606e+12	102.865184966
1408228020259	85	4065843	287200	411	9	37.44463152	-122.16087002	4840551	1.1677101096e+12	102.865184966
1408228020277	85	4065843	313900	411	9	37.44463152	-122.16087002	4840551	1.2762681177e+12	102.865184966
1408228020314	85	4068204	338800	410	9	37.44463152	-122.16087002	4840551	1.3783075152e+12	102.865184966
1408228020348	85	4076469	336000	411	9	37.44463152	-122.16087002	4840551	1.369693584e+12	102.865184966
1408228020367	85	4062303	280400	411	9	37.44463152	-122.16087002	4840551	1.1390697612e+12	102.865184966
1408228020387	85	4060236	312200	411	9	37.44463152	-122.16087002	4840551	1.2676056792e+12	102.865184966
1408228020407	85	4057875	372300	411	9	37.44463152	-122.16087002	4840551	1.5107468625e+12	102.865184966
1408228020433	85	4056102	273700	411	9	37.44463152	-122.16087002	4840551	1.1101551174e+12	102.865184966
1408228020451	85	4061121	431200	410	9	37.44463152	-122.16087002	4840551	1.7511553752e+12	102.865184966
1408228020472	85	4061415	363200	411	9	37.44463152	-122.16087002	4840551	1.475105928e+12	102.865184966
1408228020488	85	4052856	438000	411	9	37.44463152	-122.16087002	4840551	1.775150928e+12	102.865184966
1408228020510	85	4061121	406800	411	9	37.44463152	-122.16087002	4840551	1.6520640228e+12	102.865184966
1408228020528	85	4061121	460100	411	9	37.44463152	-122.16087002	4840551	1.8685217721e+12	102.865184966
1408228020548	85	4071156	329800	411	9	37.44463152	-122.16087002	4840551	1.3426672488e+12	102.865184966
1408228020571	85	4072338	288900	410	9	37.44463152	-122.16087002	4840551	1.1764984482e+12	102.865184966
1408228020603	85	4070862	303600	410	9	37.44463152	-122.16087002	4840551	1.2359137032e+12	102.865184966
1408228020647	85	4073814	313900	411	9	37.44463152	-122.16087002	4840551	1.2787702146e+12	102.865184966
1408228020667	85	4061712	372800	411	9	37.44463152	-122.16087002	4840551	1.5142062336e+12	102.865184966
1408228020686	85	4062891	296800	411	9	37.44463152	-122.16087002	4840551	1.2058660488e+12	102.865184966
1408228020706	85	4059054	348500	411	9	37.44463152	-122.16087002	4840551	1.414580319e+12	102.865184966
1408228020733	85	4048722	281600	411	9	37.44463152	-122.16087002	4840551	1.1401201152e+12	102.865184966
1408228020750	85	4071156	398400	411	9	37.44463152	-122.16087002	4840551	1.6219485504e+12	102.865184966
1408228020768	85	4063188	281000	411	9	37.44463152	-122.16087002	4840551	1.141755828e+12	102.865184966
1408228020786	85	4060530	302600	411	9	37.44463152	-122.16087002	4840551	1.228716378e+12	102.865184966
1408228020811	85	4063779	340500	410	9	37.44463152	-122.16087002	4840551	1.3837167495e+12	102.865184966
1408228020828	85	4060236	460600	411	9	37.44463152	-122.16087002	4840551	1.8701447016e+12	102.865184966
1408228020849	85	4070568	320100	410	9	37.44463152	-122.16087002	4840551	1.3029888168e+12	102.865184966
1408228020869	85	4073223	286700	410	9	37.44463152	-122.16087002	4840551	1.1677930341e+12	102.865184966
1408228020903	85	4072929	306600	410	9	37.44463152	-122.16087002	4840551	1.2487600314e+12	102.865184966
1408228020947	85	4075290	304800	411	9	37.44463152	-122.16087002	4840551	1.242148392e+12	102.865184966
1408228020967	85	4059645	397200	411	9	37.44463152	-122.16087002	4840551	1.612490994e+12	102.865184966
1408228020986	85	4060530	344000	411	9	37.44463152	-122.16087002	4840551	1.39682232e+12	102.865184966
1408228021006	85	4061712	328100	411	9	37.44463152	-122.16087002	4840551	1.3326477072e+12	102.865184966
1408228021033	85	4052562	284900	411	9	37.44463152	-122.16087002	4840551	1.1545749138e+12	102.865184966
1408228021050	85	4072338	400600	411	9	37.44463152	-122.16087002	4840551	1.6313786028e+12	102.865184966
1408228021068	85	4063779	285600	411	9	37.44463152	-122.16087002	4840551	1.1606152824e+12	102.865184966
1408228021087	85	4057284	355200	411	9	37.44463152	-122.16087002	4840551	1.4411472768e+12	102.865184966
1408228021111	85	4057578	370000	411	9	37.44463152	-122.16087002	4840551	1.50130386e+12	102.865184966
1408228021128	85	4062006	472000	411	9	37.44463152	-122.16087002	4840551	1.917266832e+12	102.865184966
1408228021150	85	4073814	317800	410	9	37.44463152	-122.16087002	4840551	1.2946580892e+12	102.865184966
1408228021171	85	4075290	278800	410	9	37.44463152	-122.16087002	4840551	1.136190852e+12	102.865184966
1408228021203	85	4076766	295800	410	9	37.44463152	-122.16087002	4840551	1.2059073828e+12	102.865184966
1408228021248	85	4075881	312200	411	9	37.44463152	-122.16087002	4840551	1.2724900482e+12	102.865184966
1408228021268	85	4063482	269200	411	9	37.44463152	-122.16087002	4840551	1.0938893544e+12	102.865184966
1408228021286	85	4064367	346800	411	9	37.44463152	-122.16087002	4840551	1.4095224756e+12	102.865184966
1408228021306	85	4065843	344500	411	9	37.44463152	-122.16087002	4840551	1.4006829135e+12	102.865184966
1408228021333	85	4055217	311600	410	9	37.44463152	-122.16087002	4840551	1.2636056172e+12	102.865184966
1408228021350	85	4068795	392100	411	9	37.44463152	-122.16087002	4840551	1.5953745195e+12	102.865184966
1408228021369	85	4060827	296800	411	9	37.44463152	-122.16087002	4840551	1.2052534536e+12	102.865184966
1408228021387	85	4059939	337700	411	9	37.44463152	-122.16087002	4840551	1.3710414003e+12	102.865184966
1408228021411	85	4060827	365500	411	9	37.44463152	-122.16087002	4840551	1.4842322685e+12	102.865184966
1408228021430	85	4059054	465800	411	9	37.44463152	-122.16087002	4840551	1.8907073532e+12	102.865184966
1408228021457	85	4071156	367800	410	9	37.44463152	-122.16087002	4840551	1.4973711768e+12	102.865184966
1408228021479	85	4071453	332100	410	9	37.44463152	-122.16087002	4840551	1.3521295413e+12	102.865184966
1408228021511	85	4069386	340500	410	9	37.44463152	-122.16087002	4840551	1.385625933e+12	102.865184966
1408228021538	85	4070568	351900	410	9	37.44463152	-122.16087002	4840551	1.4324328792e+12	102.865184966
1408228021557	85	4058760	375700	411	9	37.44463152	-122.16087002	4840551	1.524876132e+12	102.865184966
1408228021578	85	4064073	264600	411	9	37.44463152	-122.16087002	4840551	1.0753537158e+12	102.865184966
1408228021597	85	4061712	366600	411	9	37.44463152	-122.16087002	4840551	1.4890236192e+12	102.865184966
1408228021623	85	4054923	290700	410	9	37.44463152	-122.16087002	4840551	1.1787661161e+12	102.865184966
1408228021640	85	4061712	458500	411	9	37.44463152	-122.16087002	4840551	1.862294952e+12	102.865184966
1408228021659	85	4063779	299100	411	9	37.44463152	-122.16087002	4840551	1.2154762989e+12	102.865184966
1408228021677	85	4065255	265700	411	9	37.44463152	-122.16087002	4840551	1.0801382535e+12	102.865184966
1408228021714	85	4061712	367200	411	9	37.44463152	-122.16087002	4840551	1.4914606464e+12	102.865184966
1408228021733	85	4071747	314500	411	9	37.44463152	-122.16087002	4840551	1.2805644315e+12	102.865184966
1408228021752	85	4077945	320700	410	9	37.44463152	-122.16087002	4840551	1.3077969615e+12	102.865184966
1408228021774	85	4074108	288400	411	9	37.44463152	-122.16087002	4840551	1.1749727472e+12	102.865184966
1408228021805	85	4075584	290700	410	9	37.44463152	-122.16087002	4840551	1.1847722688e+12	102.865184966
1408228021850	85	4077945	320700	410	9	37.44463152	-122.16087002	4840551	1.3077969615e+12	102.865184966
1408228021870	85	4063482	286100	410	9	37.44463152	-122.16087002	4840551	1.1625622002e+12	102.865184966
1408228021888	85	4062303	318500	411	9	37.44463152	-122.16087002	4840551	1.2938435055e+12	102.865184966
1408228021907	85	4064664	349100	411	9	37.44463152	-122.16087002	4840551	1.4189742024e+12	102.865184966
1408228021933	85	4056987	408500	410	9	37.44463152	-122.16087002	4840551	1.6572791895e+12	102.865184966
1408228021951	85	4062597	422100	411	9	37.44463152	-122.16087002	4840551	1.7148221937e+12	102.865184966
1408228021968	85	4063188	305900	411	9	37.44463152	-122.16087002	4840551	1.2429292092e+12	102.865184966
1408228021987	85	4071453	282100	411	9	37.44463152	-122.16087002	4840551	1.1485568913e+12	102.865184966
1408228022011	85	4065843	327500	411	9	37.44463152	-122.16087002	4840551	1.3315635825e+12	102.865184966
1408228022028	85	4060530	459000	411	9	37.44463152	-122.16087002	4840551	1.86378327e+12	102.865184966
1408228022050	85	4073520	322400	410	9	37.44463152	-122.16087002	4840551	1.313302848e+12	102.865184966
1408228022071	85	4072929	294700	411	9	37.44463152	-122.16087002	4840551	1.2002921763e+12	102.865184966
1408228022103	85	4074699	309900	410	9	37.44463152	-122.16087002	4840551	1.2627492201e+12	102.865184966
1408228022147	85	4077357	302000	411	9	37.44463152	-122.16087002	4840551	1.231361814e+12	102.865184966
1408228022168	85	4067319	249800	411	9	37.44463152	-122.16087002	4840551	1.0160162862e+12	102.865184966
1408228022185	85	4076175	276000	411	9	37.44463152	-122.16087002	4840551	1.1250243e+12	102.865184966
1408228022204	85	4070862	324100	411	9	37.44463152	-122.16087002	4840551	1.3193663742e+12	102.865184966
1408228022233	85	4054923	350100	411	9	37.44463152	-122.16087002	4840551	1.4196285423e+12	102.865184966
1408228022251	85	4072044	358100	411	9	37.44463152	-122.16087002	4840551	1.4581989564e+12	102.865184966
1408228022268	85	4064664	311600	411	9	37.44463152	-122.16087002	4840551	1.2665493024e+12	102.865184966
1408228022285	85	4072929	289500	410	9	37.44463152	-122.16087002	4840551	1.1791129455e+12	102.865184966
1408228022311	85	4059054	319500	411	9	37.44463152	-122.16087002	4840551	1.296867753e+12	102.865184966
1408228022328	85	4061712	477200	411	9	37.44463152	-122.16087002	4840551	1.9382489664e+12	102.865184966
1408228022351	85	4067319	391000	410	9	37.44463152	-122.16087002	4840551	1.590321729e+12	102.865184966
1408228022371	85	4072044	323500	410	9	37.44463152	-122.16087002	4840551	1.317306234e+12	102.865184966
1408228022403	85	4075881	312200	411	9	37.44463152	-122.16087002	4840551	1.2724900482e+12	102.865184966
1408228022448	85	4072929	326400	411	9	37.44463152	-122.16087002	4840551	1.3294040256e+12	102.865184966
1408228022466	85	4064367	428900	411	9	37.44463152	-122.16087002	4840551	1.7432070063e+12	102.865184966
1408228022479	85	4064367	428900	411	9	37.44455913	-122.16097961	4840551	1.7432070063e+12	115.458601178
1408228022483	85	4059054	371700	411	9	37.44455913	-122.16097961	4840551	1.5087503718e+12	115.458601178
1408228022499	85	4055514	440800	411	9	37.44455913	-122.16097961	4840551	1.7876705712e+12	115.458601178
1408228022521	85	4055217	278100	411	9	37.44455913	-122.16097961	4840551	1.1277558477e+12	115.458601178
1408228022539	85	4068795	461800	410	9	37.44455913	-122.16097961	4840551	1.878969531e+12	115.458601178
1408228022558	85	4064958	374600	410	9	37.44455913	-122.16097961	4840551	1.5227332668e+12	115.458601178
1408228022577	85	4065549	255500	411	9	37.44455913	-122.16097961	4840551	1.0387477695e+12	115.458601178
1408228022600	85	4062597	309400	411	9	37.44455913	-122.16097961	4840551	1.2569675118e+12	115.458601178
1408228022618	85	4057578	467400	411	9	37.44455913	-122.16097961	4840551	1.8965119572e+12	115.458601178
1408228022637	85	4062891	312200	411	9	37.44455913	-122.16097961	4840551	1.2684345702e+12	115.458601178
1408228022658	85	4072929	363800	411	9	37.44455913	-122.16097961	4840551	1.4817315702e+12	115.458601178
1408228022696	85	4075584	278800	410	9	37.44455913	-122.16097961	4840551	1.1362728192e+12	115.458601178
1408228022724	85	4077060	298000	410	9	37.44455913	-122.16097961	4840551	1.21496388e+12	115.458601178
1408228022748	85	4082670	250500	410	9	37.44455913	-122.16097961	4840551	1.022708835e+12	115.458601178
1408228022768	85	4076766	266200	410	9	37.44455913	-122.16097961	4840551	1.0852351092e+12	115.458601178
1408228022789	85	4077060	262900	410	9	37.44455913	-122.16097961	4840551	1.071859074e+12	115.458601178
1408228022825	85	4080603	274200	410	9	37.44455913	-122.16097961	4840551	1.1189013426e+12	115.458601178
1408228022866	85	4078833	291200	411	9	37.44455913	-122.16097961	4840551	1.1877561696e+12	115.458601178
1408228022888	85	4077945	278100	410	9	37.44455913	-122.16097961	4840551	1.1340765045e+12	115.458601178
1408228022909	85	4076766	281000	410	9	37.44455913	-122.16097961	4840551	1.145571246e+12	115.458601178
1408228022931	85	4079127	256600	410	9	37.44455913	-122.16097961	4840551	1.0467039882e+12	115.458601178
1408228022968	85	4078536	294000	410	9	37.44455913	-122.16097961	4840551	1.199089584e+12	115.458601178
1408228023007	85	4056987	284900	411	9	37.44455913	-122.16097961	4840551	1.1558355963e+12	115.458601178
1408228023027	85	4058760	312700	411	9	37.44455913	-122.16097961	4840551	1.269174252e+12	115.458601178
1408228023046	85	4059054	355200	411	9	37.44455913	-122.16097961	4840551	1.4417759808e+12	115.458601178
1408228023067	85	4064367	367200	411	9	37.44455913	-122.16097961	4840551	1.4924355624e+12	115.458601178
1408228023095	85	4061415	461800	411	9	37.44455913	-122.16097961	4840551	1.875561447e+12	115.458601178
1408228023116	85	4062597	349600	411	9	37.44455913	-122.16097961	4840551	1.4202839112e+12	115.458601178
1408228023137	85	4067025	290100	411	9	37.44455913	-122.16097961	4840551	1.1798439525e+12	115.458601178
1408228023161	85	4064664	342200	411	9	37.44455913	-122.16097961	4840551	1.3909280208e+12	115.458601178
1408228023180	85	4060530	448700	411	9	37.44455913	-122.16097961	4840551	1.821959811e+12	115.458601178
1408228023201	85	4075881	366000	411	9	37.44455913	-122.16097961	4840551	1.491772446e+12	115.458601178
1408228023221	85	4071156	283300	411	9	37.44455913	-122.16097961	4840551	1.1533584948e+12	115.458601178
1408228023253	85	4071747	329800	410	9	37.44455913	-122.16097961	4840551	1.3428621606e+12	115.458601178
1408228023297	85	4076766	305400	411	9	37.44455913	-122.16097961	4840551	1.2450443364e+12	115.458601178
1408228023316	85	4057284	408000	411	9	37.44455913	-122.16097961	4840551	1.655371872e+12	115.458601178
1408228023336	85	4063482	308200	411	9	37.44455913	-122.16097961	4840551	1.2523651524e+12	115.458601178
1408228023357	85	4061712	343300	411	9	37.44455913	-122.16097961	4840551	1.3943857296e+12	115.458601178
1408228023383	85	4053447	302600	410	9	37.44455913	-122.16097961	4840551	1.2265730622e+12	115.458601178
1408228023401	85	4069977	397800	411	9	37.44455913	-122.16097961	4840551	1.6190368506e+12	115.458601178
1408228023418	85	4059054	339400	411	9	37.44455913	-122.16097961	4840551	1.3776429276e+12	115.458601178
1408228023437	85	4060827	319500	411	9	37.44455913	-122.16097961	4840551	1.2974342265e+12	115.458601178
1408228023462	85	4062597	372300	411	9	37.44455913	-122.16097961	4840551	1.5125048631e+12	115.458601178
1408228023482	85	4052856	455000	411	9	37.44455913	-122.16097961	4840551	1.84404948e+12	115.458601178
1408228023500	85	4069977	402300	410	9	37.44455913	-122.16097961	4840551	1.6373517471e+12	115.458601178
1408228023518	85	4070271	346800	411	9	37.44455913	-122.16097961	4840551	1.4115699828e+12	115.458601178
1408228023539	85	4071747	302600	411	9	37.44455913	-122.16097961	4840551	1.2321106422e+12	115.458601178
1408228023565	85	4070271	312700	410	9	37.44455913	-122.16097961	4840551	1.2727737417e+12	115.458601178
1408228023599	85	4074699	336000	410	9	37.44455913	-122.16097961	4840551	1.369098864e+12	115.458601178
1408228023621	85	4073223	295800	410	9	37.44455913	-122.16097961	4840551	1.2048593634e+12	115.458601178
1408228023641	85	4069680	319500	411	9	37.44455913	-122.16097961	4840551	1.30026276e+12	115.458601178
1408228023673	85	4077651	274800	410	9	37.44455913	-122.16097961	4840551	1.1205384948e+12	115.458601178
1408228023721	85	4076766	308800	410	9	37.44455913	-122.16097961	4840551	1.2589053408e+12	115.458601178
1408228023741	85	4077060	310500	410	9	37.44455913	-122.16097961	4840551	1.26592713e+12	115.458601178
1408228023762	85	4079127	261700	410	9	37.44455913	-122.16097961	4840551	1.0675075359e+12	115.458601178
1408228023784	85	4080897	276500	410	9	37.44455913	-122.16097961	4840551	1.1283680205e+12	115.458601178
1408228023817	85	4077357	274200	410	9	37.44455913	-122.16097961	4840551	1.1180112894e+12	115.458601178
1408228023866	85	4072632	330300	410	9	37.44455913	-122.16097961	4840551	1.3451903496e+12	115.458601178
1408228023887	85	4077945	290700	410	9	37.44455913	-122.16097961	4840551	1.1854586115e+12	115.458601178
1408228023913	85	4080603	265200	410	9	37.44455913	-122.16097961	4840551	1.0821759156e+12	115.458601178
1408228023934	85	4079421	291200	411	9	37.44455913	-122.16097961	4840551	1.1879273952e+12	115.458601178
1408228023968	85	4076469	307100	410	9	37.44455913	-122.16097961	4840551	1.2518836299e+12	115.458601178
1408228024017	85	4075881	295200	410	9	37.44455913	-122.16097961	4840551	1.2032000712e+12	115.458601178
1408228024041	85	4073223	287200	410	9	37.44455913	-122.16097961	4840551	1.1698296456e+12	115.458601178
1408228024062	85	4080897	288900	410	9	37.44455913	-122.16097961	4840551	1.1789711433e+12	115.458601178
1408228024084	85	4080012	272500	410	9	37.44455913	-122.16097961	4840551	1.11180327e+12	115.458601178
1408228024120	85	4076766	307600	410	9	37.44455913	-122.16097961	4840551	1.2540132216e+12	115.458601178
1408228024154	85	4056399	332600	411	9	37.44455913	-122.16097961	4840551	1.3491583074e+12	115.458601178
1408228024173	85	4072338	338200	411	9	37.44455913	-122.16097961	4840551	1.3772647116e+12	115.458601178
1408228024191	85	4073223	304800	410	9	37.44455913	-122.16097961	4840551	1.2415183704e+12	115.458601178
1408228024216	85	4064958	295800	411	9	37.44455913	-122.16097961	4840551	1.2024145764e+12	115.458601178
1408228024236	85	4060827	452700	411	9	37.44455913	-122.16097961	4840551	1.8383363829e+12	115.458601178
1408228024254	85	4069386	349600	411	9	37.44455913	-122.16097961	4840551	1.4226573456e+12	115.458601178
1408228024273	85	4070862	385300	411	9	37.44455913	-122.16097961	4840551	1.5685031286e+12	115.458601178
1408228024301	85	4071453	313900	411	9	37.44455913	-122.16097961	4840551	1.2780290967e+12	115.458601178
1408228024317	85	4069092	451700	411	9	37.44455913	-122.16097961	4840551	1.8380088564e+12	115.458601178
1408228024336	85	4056399	305400	411	9	37.44455913	-122.16097961	4840551	1.2388242546e+12	115.458601178
1408228024358	85	4065843	407400	411	9	37.44455913	-122.16097961	4840551	1.6564244382e+12	115.458601178
1408228024394	85	4072338	334200	410	9	37.44455913	-122.16097961	4840551	1.3609753596e+12	115.458601178
1408228024432	85	4076175	309400	410	9	37.44455913	-122.16097961	4840551	1.261168545e+12	115.458601178
1408228024466	85	4074996	333700	410	9	37.44455913	-122.16097961	4840551	1.3598261652e+12	115.458601178
1408228024494	85	4076469	307100	410	9	37.44455913	-122.16097961	4840551	1.2518836299e+12	115.458601178
1408228024515	85	4076766	304300	410	9	37.44455913	-122.16097961	4840551	1.2405598938e+12	115.458601178
1408228024546	85	4069977	297500	411	9	37.44455913	-122.16097961	4840551	1.2108181575e+12	115.458601178
1408228024566	85	4047837	461300	411	9	37.44455913	-122.16097961	4840551	1.8672672081e+12	115.458601178
1408228024587	85	4066728	294700	411	9	37.44455913	-122.16097961	4840551	1.1984647416e+12	115.458601178
1408228024606	85	4062891	336500	411	9	37.44455913	-122.16097961	4840551	1.3671628215e+12	115.458601178
1408228024626	85	4065549	261700	411	9	37.44455913	-122.16097961	4840551	1.0639541733e+12	115.458601178
1408228024653	85	4054923	379600	410	9	37.44455913	-122.16097961	4840551	1.5392487708e+12	115.458601178
1408228024673	85	4068501	468100	411	9	37.44455913	-122.16097961	4840551	1.9044653181e+12	115.458601178
1408228024693	85	4072044	312200	411	9	37.44455913	-122.16097961	4840551	1.2712921368e+12	115.458601178
1408228024711	85	4071747	338800	411	9	37.44455913	-122.16097961	4840551	1.3795078836e+12	115.458601178
1408228024744	85	4064958	333700	411	9	37.44455913	-122.16097961	4840551	1.3564764846e+12	115.458601178
1408228024765	85	4069977	385300	410	9	37.44455913	-122.16097961	4840551	1.5681621381e+12	115.458601178
1408228024788	85	4075881	282700	411	9	37.44455913	-122.16097961	4840551	1.1522515587e+12	115.458601178
1408228024810	85	4078242	265700	410	9	37.44455913	-122.16097961	4840551	1.0835888994e+12	115.458601178
1408228024843	85	4078833	265200	410	9	37.44455913	-122.16097961	4840551	1.0817065116e+12	115.458601178
1408228024889	85	4072044	333200	410	9	37.44455913	-122.16097961	4840551	1.3568050608e+12	115.458601178
1408228024908	85	4062597	305900	411	9	37.44455913	-122.16097961	4840551	1.2427484223e+12	115.458601178
1408228024925	85	4071747	309400	411	9	37.44455913	-122.16097961	4840551	1.2597985218e+12	115.458601178
1408228024943	85	4069977	315500	411	9	37.44455913	-122.16097961	4840551	1.2840777435e+12	115.458601178
1408228024974	85	4054626	355900	410	9	37.44455913	-122.16097961	4840551	1.4430413934e+12	115.458601178
1408228024993	85	4071453	318500	411	9	37.44455913	-122.16097961	4840551	1.2967577805e+12	115.458601178
1408228025020	85	4072929	356900	411	9	37.44455913	-122.16097961	4840551	1.4536283601e+12	115.458601178
1408228025038	85	4056102	448200	411	9	37.44455913	-122.16097961	4840551	1.8179449164e+12	115.458601178
1408228025061	85	4061121	402300	411	9	37.44455913	-122.16097961	4840551	1.6337889783e+12	115.458601178
1408228025078	85	4052562	482800	411	9	37.44455913	-122.16097961	4840551	1.9565769336e+12	115.458601178
1408228025101	85	4067025	377400	411	9	37.44455913	-122.16097961	4840551	1.534895235e+12	115.458601178
1408228025121	85	4074108	285600	411	9	37.44455913	-122.16097961	4840551	1.1635652448e+12	115.458601178
1408228025144	85	4063482	324600	410	9	37.44455913	-122.16097961	4840551	1.3190062572e+12	115.458601178
1408228025177	85	4077357	317800	410	9	37.44455913	-122.16097961	4840551	1.2957840546e+12	115.458601178
1408228025225	85	4074996	305900	410	9	37.44455913	-122.16097961	4840551	1.2465412764e+12	115.458601178
1408228025247	85	4070271	279900	411	9	37.44455913	-122.16097961	4840551	1.1392688529e+12	115.458601178
1408228025269	85	4065549	360900	410	9	37.44455913	-122.16097961	4840551	1.4672566341e+12	115.458601178
1408228025289	85	4078536	305900	410	9	37.44455913	-122.16097961	4840551	1.2476241624e+12	115.458601178
1408228025318	85	4073814	329800	410	9	37.44455913	-122.16097961	4840551	1.3435438572e+12	115.458601178
1408228025357	85	4049610	339400	411	9	37.44455913	-122.16097961	4840551	1.374437634e+12	115.458601178
1408228025377	85	4055808	329800	411	9	37.44455913	-122.16097961	4840551	1.3376054784e+12	115.458601178
1408228025396	85	4061712	339400	411	9	37.44455913	-122.16097961	4840551	1.3785450528e+12	115.458601178
1408228025428	85	4064073	299800	410	9	37.44455913	-122.16097961	4840551	1.2184090854e+12	115.458601178
1408228025448	85	4047543	462900	411	9	37.44455913	-122.16097961	4840551	1.8736076547e+12	115.458601178
1408228025467	85	4057875	345100	411	9	37.44455913	-122.16097961	4840551	1.4003726625e+12	115.458601178
