Distance	Power
16.6872985718	1.9685352161e+12
29.749485741	1.99378849276e+12
41.8527613256	1.96080697312e+12
53.6385883294	1.87086010248e+12
66.709352767	1.85784000164e+12
81.3406036754	1.95009580455e+12
94.9158767332	2.27792725332e+12
110.304268018	2.19453545912e+12
126.180838739	2.0592925655e+12
144.665695897	2.12743182244e+12
154.953254994	2.05854414128e+12
165.436549331	1.93577617049e+12
175.66329392	2.70237573684e+12
195.72357561	2.22564764593e+12
205.766625384	2.41547892376e+12
224.205169855	2.33175574305e+12
234.332757643	2.26546317887e+12
252.359255155	2.03326640102e+12
268.47964776	2.5204089867e+12
286.415744291	2.06258173486e+12
296.555489906	2.24798014666e+12
307.274577613	2.22525479377e+12
318.427128473	2.36317586451e+12
330.233692018	2.3200034011e+12
340.267056897	2.14481998934e+12
358.020564691	2.04212150047e+12
372.223727027	2.11606144532e+12
385.611008465	2.00237972664e+12
399.048159845	1.95222765522e+12
412.358820103	2.02162515802e+12
424.198154689	2.34634275878e+12
16.2508347549	1.76544807641e+12
26.6035318911	1.80900637165e+12
39.0247998431	1.84949523968e+12
49.7207746906	1.65933403167e+12
63.2212620423	1.61711509391e+12
74.1292990811	1.64370117081e+12
87.6036266557	1.86834097483e+12
101.97631855	1.91527749670e+12
118.460292642	2.03105967853e+12
135.954581577	2.10162357116e+12
155.723016048	1.97642334188e+12
166.153091407	1.99288108801e+12
176.942073235	1.93319472195e+12
187.99474678	2.05592751932e+12
199.604746189	2.16950035642e+12
211.166961411	1.82458745721e+12
223.136389303	2.22188093186e+12
233.887277732	2.06300685941e+12
245.141203431	1.79326227973e+12
256.58348422	1.65673669363e+12
267.39941846	1.87553189029e+12
277.8586859	2.43969213692e+12
289.941722297	1.8953886071e+12
301.903688501	1.7899139549e+12
315.161817608	2.22341353165e+12
328.096075638	1.96391374783e+12
340.377325867	2.01102107199e+12
351.783184084	1.93042928892e+12
369.927604986	1.85190633161e+12
386.098939294	1.78584898419e+12
400.651142621	1.86763107209e+12
413.441067121	1.78007440258e+12
425.016359813	1.78802519705e+12
