Distance	Power
20.145308634	1.55221255973e+12
31.3739245894	1.56836594733e+12
42.3540977729	1.59964748626e+12
53.8089017008	1.61175936028e+12
64.6641789353	1.63275160613e+12
76.3656215081	1.66048714842e+12
88.4826732864	1.61246160122e+12
100.695198136	1.54259287281e+12
112.771392204	1.59622619765e+12
124.321898201	1.64925535014e+12
134.984710494	1.56869980131e+12
152.962487785	1.61836209663e+12
168.118111119	1.62991560548e+12
182.738134241	1.57873078988e+12
198.25856486	1.49114214017e+12
209.485678679	1.47213117088e+12
219.770871261	1.56389995425e+12
240.575375751	1.48840881252e+12
259.523481826	1.60817055946e+12
277.179896928	1.62061821848e+12
291.561739106	1.62605310957e+12
302.319884177	1.60699569289e+12
315.348678868	1.68673625287e+12
329.168014017	1.64421413135e+12
345.457069518	1.63751499248e+12
361.328127239	1.61233109715e+12
377.271243518	1.64906329307e+12
394.55596147	1.65550221491e+12
411.251127013	1.58590164673e+12
429.646222904	1.68775690263e+12
440.040785616	1.5323164087e+12
450.105438747	1.57769503606e+12
469.567062164	1.50235049688e+12
479.876217256	1.59617520203e+12
489.926820195	1.71483896362e+12
500.122477468	1.68088852785e+12
510.299338185	1.39656361078e+12
520.354259572	1.56065856486e+12
540.320419502	1.52494915352e+12
560.638733495	1.54511344556e+12
575.701462559	1.58559728131e+12
585.965708808	1.49932017016e+12
596.892959377	1.39730519321e+12
609.270531182	1.52821416487e+12
624.141874898	1.50122734648e+12
638.099582787	1.52068393009e+12
650.79309862	1.55149858016e+12
24.5576793438	1.53309367409e+12
39.2386894758	1.61167854495e+12
54.7093013711	1.60382462014e+12
73.0318200104	1.66296520283e+12
91.5016439398	1.64046640423e+12
110.103136878	1.48264693946e+12
120.407218904	1.76629039592e+12
139.285930937	1.64362351368e+12
157.121049643	1.63336313834e+12
173.635489163	1.60849673854e+12
187.101559484	1.66358321051e+12
200.730078758	1.6562263764e+12
211.456243247	1.56371973701e+12
224.351936005	1.56421914761e+12
238.343134057	1.44101833516e+12
253.775634414	1.55346320756e+12
271.126935313	1.48593554816e+12
289.493123305	1.50883027161e+12
310.271298715	1.55255417981e+12
320.588098242	1.58616069562e+12
339.404694907	1.6641734734e+12
351.041355953	1.6505959203e+12
363.650382833	1.68509067227e+12
376.243022907	1.70150540338e+12
392.95894157	1.62966799386e+12
410.832261475	1.52749846476e+12
421.160409896	1.56352119789e+12
439.505205589	1.58969639648e+12
450.921780531	1.56129158999e+12
461.985542925	1.46852030994e+12
473.739736631	1.5772172108e+12
484.720178896	1.73731082495e+12
496.140151534	1.68623599839e+12
508.069348778	1.5886413179e+12
521.171254611	1.60225725948e+12
533.908402021	1.59805250315e+12
544.592404413	1.57172974816e+12
562.096366974	1.56728728424e+12
575.044439217	1.55896648784e+12
585.58206057	1.53908964052e+12
597.569426727	1.57768041567e+12
608.464242379	1.58337129784e+12
622.094719809	1.53830667104e+12
640.850753851	1.58371583039e+12
660.139158547	1.58919281153e+12
676.050260155	1.55890273692e+12
