Distance	Power
15.4740670128	1.80681329113e+12
31.8211228447	1.78568453683e+12
50.6312870819	1.92675868709e+12
60.945390345	1.79474831666e+12
75.3802899515	1.76859570739e+12
89.8168643281	1.77075644244e+12
103.029400222	1.89863518885e+12
116.944155683	1.9645242646e+12
130.175630633	1.71005806606e+12
143.326589517	1.72861935347e+12
156.418016496	1.64303673719e+12
168.685542063	1.54556527408e+12
180.348894154	1.53446059961e+12
194.103969264	1.51738483711e+12
205.729345444	1.4297086335e+12
220.993849808	1.42507806388e+12
234.184976375	1.60812562844e+12
248.300698383	1.40437092996e+12
261.652789733	1.43550784788e+12
275.223091981	1.44170791889e+12
288.58247856	1.47959398768e+12
301.775738141	1.64159524822e+12
314.794279661	1.5907731884e+12
329.300133984	1.64985489869e+12
344.348318868	1.5283073935e+12
360.922801969	1.55965673767e+12
376.508379879	1.58718557395e+12
394.359443905	1.54492615944e+12
409.89446251	1.43965226804e+12
426.855760019	1.70082827216e+12
439.982185817	1.59654497634e+12
456.387663794	1.56465040086e+12
471.330677501	1.50273411412e+12
488.693629239	1.59718234525e+12
506.128938632	1.54514297027e+12
522.748906384	1.54473453238e+12
536.390948495	1.65009775744e+12
549.911954429	1.53734255471e+12
