Distance	Power
6.76850300346	2.96032780905e+12
19.1098456086	2.9916962544e+12
34.3989684596	3.12944596455e+12
49.9927870897	3.25553905924e+12
64.2467150318	3.02200793365e+12
80.216143336	3.13471495318e+12
98.6524848366	3.15130203996e+12
109.604733178	2.99258638416e+12
119.951038973	3.14349275079e+12
130.25426422	3.04794810088e+12
141.704624542	3.08841225198e+12
152.819640627	2.89527498236e+12
164.108431768	3.12925245481e+12
175.059613664	3.08684302036e+12
185.552236995	3.10177351988e+12
205.488600355	3.08765197763e+12
224.734990137	2.75302648733e+12
235.089699109	2.50421641766e+12
252.792256925	2.61662031649e+12
271.363383183	2.46270839046e+12
281.406153375	2.66079595681e+12
294.029358103	2.75660304852e+12
306.223290347	1.253809496e+12
318.036871254	1.57066239641e+12
330.503303757	1.65617314904e+12
343.34832611	1.62006493253e+12
355.416055793	2.29179191553e+12
367.315166006	1.92181856046e+12
378.937950901	1.87495653474e+12
391.565835683	1.70496008517e+12
403.536956879	1.78051808313e+12
415.099566467	1.86819375565e+12
426.473291109	1.70833592265e+12
449.440435032	1.38338401051e+12
460.766238852	1.71109463317e+12
474.88843637	1.94436568969e+12
487.944793436	1.74676901312e+12
500.684498015	1.42393461435e+12
513.416791524	1.55668059382e+12
526.682521024	1.77193447087e+12
539.480049	1.61901014062e+12
551.69900331	1.56922680126e+12
563.310359594	1.4767988321e+12
574.654569133	1.5964372176e+12
594.177945604	1.54128831953e+12
19.8767525424	1.84900064555e+12
35.7474836487	1.82908408129e+12
54.7083682517	1.80706146983e+12
65.2913495852	1.87817297905e+12
76.8095782036	1.80421490591e+12
88.5684144465	1.88191986681e+12
101.375567273	1.87687683882e+12
115.299447326	1.7999689105e+12
129.214378777	1.8130640365e+12
142.535783573	1.77544614833e+12
155.676586141	1.88615833784e+12
168.845468657	1.94162605828e+12
181.510910528	1.98898480333e+12
193.327074594	1.9955564457e+12
204.888679874	1.9261555197e+12
215.901339844	1.86971550707e+12
227.52272059	2.1016280903e+12
238.361950283	1.98084931034e+12
249.69576051	1.78804749866e+12
260.865625143	1.74969412588e+12
273.517114668	1.9412747531e+12
285.41300514	1.78504470637e+12
297.765489928	1.72042548154e+12
311.056670943	2.04072637009e+12
324.577550403	2.25047087256e+12
338.034369811	2.3228755721e+12
352.335383269	2.48050519462e+12
366.634305484	2.52167848525e+12
381.007468139	2.43080864177e+12
395.366425246	2.29805167798e+12
409.689387469	2.16156931408e+12
423.606390386	2.05505729926e+12
436.779603895	1.98803456006e+12
449.876904027	2.10267509864e+12
464.742863012	2.0959504511e+12
477.903072697	2.05258597268e+12
491.055022746	2.0761724998e+12
504.16739829	2.29573430471e+12
517.446881539	2.10907604356e+12
530.628863611	1.89326391087e+12
541.80012727	1.9328488297e+12
558.767839467	2.07728296005e+12
571.345573494	2.00430492855e+12
584.557457151	1.9905559286e+12
