Time	SOD	Volt	Current	Temp	Signal	Latitude	Longitude	CellID	Power	Distance
1408225663150	81	4027623	291000	368	15	37.44745122	-122.16419783	4791829	1.172038293e+12	7.38822048759
1408225663166	81	4021140	343700	368	15	37.44745122	-122.16419783	4791829	1.382065818e+12	7.38822048759
1408225663185	81	4000215	351100	368	15	37.44745122	-122.16419783	4791829	1.4044754865e+12	7.38822048759
1408225663215	81	4001100	521900	368	15	37.44745122	-122.16419783	4791829	2.08817409e+12	7.38822048759
1408225663230	81	4016718	405600	369	15	37.44745122	-122.16419783	4791829	1.6291808208e+12	7.38822048759
1408225663246	81	4019370	428600	369	15	37.44745122	-122.16419783	4791829	1.722701982e+12	7.38822048759
1408225663276	81	4003161	407300	368	15	37.44745122	-122.16419783	4791829	1.6304874753e+12	7.38822048759
1408225663291	81	4018782	450800	369	15	37.44745122	-122.16419783	4791829	1.8116669256e+12	7.38822048759
1408225663306	81	4019370	391800	369	15	37.44745122	-122.16419783	4791829	1.574789166e+12	7.38822048759
1408225663321	81	4019961	371200	369	15	37.44745122	-122.16419783	4791829	1.4922095232e+12	7.38822048759
1408225663353	81	4017309	503000	369	15	37.44745122	-122.16419783	4791829	2.020706427e+12	7.38822048759
1408225663369	81	4018782	373500	369	15	37.44745122	-122.16419783	4791829	1.501015077e+12	7.38822048759
1408225663385	81	4027623	374700	368	15	37.44745122	-122.16419783	4791829	1.5091503381e+12	7.38822048759
1408225663422	81	4026444	305900	368	15	37.44745122	-122.16419783	4791829	1.2316892196e+12	7.38822048759
1408225663439	81	4029981	307600	369	15	37.44745122	-122.16419783	4791829	1.2396221556e+12	7.38822048759
1408225663457	81	4029981	333400	368	15	37.44745122	-122.16419783	4791829	1.3435956654e+12	7.38822048759
1408225663518	81	4028508	321300	368	15	37.44745122	-122.16419783	4791829	1.2943596204e+12	7.38822048759
1408225663539	81	4036464	261100	368	15	37.44745122	-122.16419783	4791829	1.0539207504e+12	7.38822048759
1408225663566	81	4035876	289200	368	15	37.44745122	-122.16419783	4791829	1.1671753392e+12	7.38822048759
1408225663635	81	4033518	291000	369	15	37.44745122	-122.16419783	4791829	1.173753738e+12	7.38822048759
1408225663653	81	4022319	352300	369	15	37.44745122	-122.16419783	4791829	1.4170629837e+12	7.38822048759
1408225663668	81	4021434	354600	369	15	37.44745122	-122.16419783	4791829	1.4260004964e+12	7.38822048759
1408225663683	81	4020549	364900	368	15	37.44745122	-122.16419783	4791829	1.4670983301e+12	7.38822048759
1408225663713	81	4018191	510400	368	15	37.44745122	-122.16419783	4791829	2.0508846864e+12	7.38822048759
1408225663728	81	4021728	385600	369	15	37.44745122	-122.16419783	4791829	1.5507783168e+12	7.38822048759
1408225663743	81	4021434	348900	368	15	37.44745122	-122.16419783	4791829	1.4030783226e+12	7.38822048759
1408225663772	81	4012299	401600	368	15	37.44745122	-122.16419783	4791829	1.6113392784e+12	7.38822048759
1408225663787	81	4020846	376400	369	15	37.44745122	-122.16419783	4791829	1.5134464344e+12	7.38822048759
1408225663802	81	4022025	363800	369	15	37.44745122	-122.16419783	4791829	1.463212695e+12	7.38822048759
1408225663834	81	4017015	365500	368	15	37.44745122	-122.16419783	4791829	1.4682189825e+12	7.38822048759
1408225663857	81	4028508	304800	368	15	37.44745122	-122.16419783	4791829	1.2278892384e+12	7.38822048759
1408225663875	81	4022907	329400	368	15	37.44745122	-122.16419783	4791829	1.3251455658e+12	7.38822048759
1408225663942	81	4032633	338600	368	15	37.44745122	-122.16419783	4791829	1.3654495338e+12	7.38822048759
1408225663969	81	4031454	272700	368	15	37.44745122	-122.16419783	4791829	1.0993775058e+12	7.38822048759
1408225663990	81	4035582	288100	368	15	37.44745122	-122.16419783	4791829	1.1626511742e+12	7.38822048759
1408225664011	81	4029096	295600	369	15	37.44745122	-122.16419783	4791829	1.1910007776e+12	7.38822048759
1408225664089	81	4021728	295000	369	15	37.44745122	-122.16419783	4791829	1.18640976e+12	7.38822048759
1408225664104	81	4015836	390700	369	15	37.44745122	-122.16419783	4791829	1.5689871252e+12	7.38822048759
1408225664119	81	4020255	378700	368	15	37.44745122	-122.16419783	4791829	1.5224705685e+12	7.38822048759
1408225664153	81	4001982	398100	368	15	37.44745122	-122.16419783	4791829	1.5931890342e+12	7.38822048759
1408225664168	81	3997857	502500	368	15	37.44745122	-122.16419783	4791829	2.0089231425e+12	7.38822048759
1408225664184	81	4003752	501900	369	15	37.44745122	-122.16419783	4791829	2.0094831288e+12	7.38822048759
1408225664212	81	4017309	427900	369	15	37.44745122	-122.16419783	4791829	1.7190065211e+12	7.38822048759
1408225664228	81	4020255	386700	369	15	37.44745122	-122.16419783	4791829	1.5546326085e+12	7.38822048759
1408225664243	81	4020255	354000	369	15	37.44745122	-122.16419783	4791829	1.42317027e+12	7.38822048759
1408225664274	81	4019961	349400	368	15	37.44745122	-122.16419783	4791829	1.4045743734e+12	7.38822048759
1408225664291	81	4025559	441100	368	15	37.44745122	-122.16419783	4791829	1.7756740749e+12	7.38822048759
1408225664307	81	4028214	339700	368	15	37.44745122	-122.16419783	4791829	1.3683842958e+12	7.38822048759
1408225664323	81	4029096	321300	368	15	37.44745122	-122.16419783	4791829	1.2945485448e+12	7.38822048759
1408225664403	81	4033518	297300	368	15	37.44745122	-122.16419783	4791829	1.1991649014e+12	7.38822048759
1408225664423	81	4030572	281800	368	15	37.44745122	-122.16419783	4791829	1.1358151896e+12	7.38822048759
1408225664444	81	4034106	288700	368	15	37.44745122	-122.16419783	4791829	1.1646464022e+12	7.38822048759
1408225664522	81	4034991	265800	368	15	37.44745122	-122.16419783	4791829	1.0725006078e+12	7.38822048759
1408225664545	81	4034403	278400	368	15	37.44745122	-122.16419783	4791829	1.1231777952e+12	7.38822048759
1408225664566	81	4034697	262900	369	15	37.44745122	-122.16419783	4791829	1.0607218413e+12	7.38822048759
1408225664640	81	4036464	299100	369	15	37.44745122	-122.16419783	4791829	1.2073063824e+12	7.38822048759
1408225664655	81	4020549	404500	369	15	37.44745122	-122.16419783	4791829	1.6263120705e+12	7.38822048759
1408225664670	81	4020846	388900	369	15	37.44745122	-122.16419783	4791829	1.5637070094e+12	7.38822048759
1408225664699	81	4021728	360300	368	15	37.44745122	-122.16419783	4791829	1.4490285984e+12	7.38822048759
1408225664715	81	4021728	426800	368	15	37.44745122	-122.16419783	4791829	1.7164735104e+12	7.38822048759
1408225664730	81	4020255	394800	368	15	37.44745122	-122.16419783	4791829	1.587196674e+12	7.38822048759
1408225664746	81	4014360	403800	369	15	37.44745122	-122.16419783	4791829	1.620998568e+12	7.38822048759
1408225664774	81	4015539	476600	370	15	37.44745122	-122.16419783	4791829	1.9138058874e+12	7.38822048759
1408225664789	81	4019667	410700	369	15	37.44745122	-122.16419783	4791829	1.6508772369e+12	7.38822048759
1408225664804	81	4021434	382100	369	15	37.44745122	-122.16419783	4791829	1.5365899314e+12	7.38822048759
1408225664844	81	4027623	360800	368	15	37.44745122	-122.16419783	4791829	1.4531663784e+12	7.38822048759
1408225664861	81	4027623	293300	368	15	37.44745122	-122.16419783	4791829	1.1813018259e+12	7.38822048759
1408225664880	81	4025856	337900	368	15	37.44745122	-122.16419783	4791829	1.3603367424e+12	7.38822048759
1408225664961	81	4035285	279500	368	15	37.44745122	-122.16419783	4791829	1.1278621575e+12	7.38822048759
1408225664981	81	4031454	296100	368	15	37.44745122	-122.16419783	4791829	1.1937135294e+12	7.38822048759
1408225665000	81	4035876	279500	368	15	37.44745122	-122.16419783	4791829	1.128027342e+12	7.38822048759
1408225665079	81	4034697	276100	368	15	37.44745122	-122.16419783	4791829	1.1139798417e+12	7.38822048759
1408225665096	81	4019667	363200	369	15	37.44745122	-122.16419783	4791829	1.4599430544e+12	7.38822048759
1408225665111	81	4021434	391300	369	15	37.44745122	-122.16419783	4791829	1.5735871242e+12	7.38822048759
1408225665126	81	4018191	362000	370	15	37.44745122	-122.16419783	4791829	1.454585142e+12	7.38822048759
1408225665174	81	4001982	497800	368	15	37.44745122	-122.16419783	4791829	1.9921866396e+12	7.38822048759
1408225665178	81	4001982	497800	368	15	37.44734181	-122.16431333	4791829	1.9921866396e+12	23.2597554174
1408225665203	81	3999624	490400	368	15	37.44734181	-122.16431333	4791829	1.9614156096e+12	23.2597554174
1408225665218	81	4015245	432600	368	15	37.44734181	-122.16431333	4791829	1.736994987e+12	23.2597554174
1408225665247	81	4017897	348300	369	15	37.44734181	-122.16431333	4791829	1.3994335251e+12	23.2597554174
1408225665262	81	4019667	374700	369	15	37.44734181	-122.16431333	4791829	1.5061692249e+12	23.2597554174
1408225665279	81	4020549	400500	369	15	37.44734181	-122.16431333	4791829	1.6102298745e+12	23.2597554174
1408225665314	81	4026738	320200	369	15	37.44734181	-122.16431333	4791829	1.2893615076e+12	23.2597554174
1408225665331	81	4027329	358000	368	15	37.44734181	-122.16431333	4791829	1.441783782e+12	23.2597554174
1408225665348	81	4030572	304100	368	15	37.44734181	-122.16431333	4791829	1.2256969452e+12	23.2597554174
1408225665399	81	4031454	308100	368	15	37.44734181	-122.16431333	4791829	1.2420909774e+12	23.2597554174
1408225665418	81	4029096	316800	368	15	37.44734181	-122.16431333	4791829	1.2764176128e+12	23.2597554174
1408225665439	81	4030866	307000	368	15	37.44734181	-122.16431333	4791829	1.237475862e+12	23.2597554174
1408225665458	81	4037349	271000	368	15	37.44734181	-122.16431333	4791829	1.094121579e+12	23.2597554174
1408225665538	81	4023498	299100	368	15	37.44734181	-122.16431333	4791829	1.2034282518e+12	23.2597554174
1408225665553	81	4022613	375800	369	15	37.44734181	-122.16431333	4791829	1.5116979654e+12	23.2597554174
1408225665568	81	4022907	355100	369	15	37.44734181	-122.16431333	4791829	1.4285342757e+12	23.2597554174
1408225665597	81	4019667	345400	370	15	37.44734181	-122.16431333	4791829	1.3883929818e+12	23.2597554174
1408225665612	81	4019961	388900	369	15	37.44734181	-122.16431333	4791829	1.5633628329e+12	23.2597554174
1408225665629	81	4019961	360300	369	15	37.44734181	-122.16431333	4791829	1.4483919483e+12	23.2597554174
1408225665658	81	4019076	362600	369	15	37.44734181	-122.16431333	4791829	1.4573169576e+12	23.2597554174
1408225665673	81	4019961	421100	369	15	37.44734181	-122.16431333	4791829	1.6928055771e+12	23.2597554174
1408225665688	81	4020549	370700	369	15	37.44734181	-122.16431333	4791829	1.4904175143e+12	23.2597554174
1408225665716	81	4020549	422700	369	15	37.44734181	-122.16431333	4791829	1.6994860623e+12	23.2597554174
1408225665734	81	4025265	491000	368	15	37.44734181	-122.16431333	4791829	1.976405115e+12	23.2597554174
1408225665752	81	4025265	316200	369	15	37.44734181	-122.16431333	4791829	1.272788793e+12	23.2597554174
1408225665772	81	4020549	336200	368	15	37.44734181	-122.16431333	4791829	1.3517085738e+12	23.2597554174
1408225665848	81	3999921	485800	368	15	37.44734181	-122.16431333	4791829	1.9431616218e+12	23.2597554174
1408225665864	81	3996090	505300	368	15	37.44734181	-122.16431333	4791829	2.019224277e+12	23.2597554174
1408225665880	81	3994911	509400	369	15	37.44734181	-122.16431333	4791829	2.0350076634e+12	23.2597554174
1408225665920	81	3999036	514400	368	15	37.44734181	-122.16431333	4791829	2.0571041184e+12	23.2597554174
1408225665935	81	4019370	364900	369	15	37.44734181	-122.16431333	4791829	1.466668113e+12	23.2597554174
1408225665950	81	4016130	407300	369	15	37.44734181	-122.16431333	4791829	1.635769749e+12	23.2597554174
1408225665998	81	4017897	399800	369	15	37.44734181	-122.16431333	4791829	1.6063552206e+12	23.2597554174
1408225666015	81	4008468	501900	369	15	37.44734181	-122.16431333	4791829	2.0118500892e+12	23.2597554174
1408225666033	81	4014951	418700	369	15	37.44734181	-122.16431333	4791829	1.6810599837e+12	23.2597554174
1408225666065	81	4009056	407900	370	15	37.44734181	-122.16431333	4791829	1.6352939424e+12	23.2597554174
1408225666083	81	4009350	467500	369	15	37.44734181	-122.16431333	4791829	1.874371125e+12	23.2597554174
1408225666104	81	4017897	332900	369	15	37.44734181	-122.16431333	4791829	1.3375579113e+12	23.2597554174
1408225666122	81	4023792	316800	369	15	37.44734181	-122.16431333	4791829	1.2747373056e+12	23.2597554174
1408225666188	81	3985479	342600	369	15	37.44734181	-122.16431333	4791829	1.3654251054e+12	23.2597554174
1408225666203	81	4010235	623300	369	15	37.44734181	-122.16431333	4791829	2.4995794755e+12	23.2597554174
1408225666218	81	4002279	411900	369	15	37.44734181	-122.16431333	4791829	1.6485387201e+12	23.2597554174
1408225666258	81	4002573	571200	370	15	37.44734181	-122.16431333	4791829	2.2862696976e+12	23.2597554174
1408225666275	81	4020549	410200	369	15	37.44734181	-122.16431333	4791829	1.6492291998e+12	23.2597554174
1408225666292	81	4014951	358000	369	15	37.44734181	-122.16431333	4791829	1.437352458e+12	23.2597554174
1408225666336	81	4010823	352900	369	15	37.44734181	-122.16431333	4791829	1.4154194367e+12	23.2597554174
1408225666354	81	4024677	307000	369	15	37.44734181	-122.16431333	4791829	1.235575839e+12	23.2597554174
1408225666371	81	4027623	305900	369	15	37.44734181	-122.16431333	4791829	1.2320498757e+12	23.2597554174
1408225666438	81	4026738	306500	370	15	37.44734181	-122.16431333	4791829	1.234195197e+12	23.2597554174
1408225666458	81	4031160	363200	369	15	37.44734181	-122.16431333	4791829	1.464117312e+12	23.2597554174
1408225666477	81	4031454	298400	369	15	37.44734181	-122.16431333	4791829	1.2029858736e+12	23.2597554174
1408225666499	81	4030866	311600	369	15	37.44734181	-122.16431333	4791829	1.2560178456e+12	23.2597554174
1408225666564	81	4022613	353500	369	15	37.44734181	-122.16431333	4791829	1.4219936955e+12	23.2597554174
1408225666584	81	4024677	340300	369	15	37.44734181	-122.16431333	4791829	1.3695975831e+12	23.2597554174
1408225666599	81	4008762	489300	370	15	37.44734181	-122.16431333	4791829	1.9614872466e+12	23.2597554174
1408225666629	81	4010235	525400	370	15	37.44734181	-122.16431333	4791829	2.106977469e+12	23.2597554174
1408225666644	81	4013772	420500	369	15	37.44734181	-122.16431333	4791829	1.687791126e+12	23.2597554174
1408225666662	81	4001100	414200	369	15	37.44734181	-122.16431333	4791829	1.65725562e+12	23.2597554174
1408225666694	81	3990489	542000	369	15	37.44734181	-122.16431333	4791829	2.162845038e+12	23.2597554174
1408225666709	81	4006404	526500	369	15	37.44734181	-122.16431333	4791829	2.109371706e+12	23.2597554174
1408225666725	81	4002573	413000	369	15	37.44734181	-122.16431333	4791829	1.653062649e+12	23.2597554174
1408225666755	81	4007583	461700	369	15	37.44734181	-122.16431333	4791829	1.8503010711e+12	23.2597554174
1408225666770	81	4012887	413700	369	15	37.44734181	-122.16431333	4791829	1.6601313519e+12	23.2597554174
1408225666785	81	4014657	395800	369	15	37.44734181	-122.16431333	4791829	1.5890012406e+12	23.2597554174
1408225666801	81	4007583	487000	369	15	37.44734181	-122.16431333	4791829	1.951692921e+12	23.2597554174
1408225666832	81	4003161	625600	369	15	37.44734181	-122.16431333	4791829	2.5043775216e+12	23.2597554174
1408225666847	81	4012887	453200	369	15	37.44734181	-122.16431333	4791829	1.8186403884e+12	23.2597554174
1408225666863	81	4014066	410700	369	15	37.44734181	-122.16431333	4791829	1.6485769062e+12	23.2597554174
1408225666892	81	4005813	398100	369	15	37.44734181	-122.16431333	4791829	1.5947141553e+12	23.2597554174
1408225666908	81	4013181	390100	369	15	37.44734181	-122.16431333	4791829	1.5655419081e+12	23.2597554174
1408225666923	81	4014066	434800	369	15	37.44734181	-122.16431333	4791829	1.7453158968e+12	23.2597554174
1408225666953	81	4014360	422200	369	15	37.44734181	-122.16431333	4791829	1.694862792e+12	23.2597554174
1408225666968	81	4012002	398100	369	15	37.44734181	-122.16431333	4791829	1.5971779962e+12	23.2597554174
1408225666983	81	4012887	393600	369	15	37.44734181	-122.16431333	4791829	1.5794723232e+12	23.2597554174
1408225667013	81	4004634	421100	369	15	37.44734181	-122.16431333	4791829	1.6863513774e+12	23.2597554174
1408225667028	81	4010823	440600	369	15	37.44734181	-122.16431333	4791829	1.7671686138e+12	23.2597554174
1408225667044	81	4015245	419900	369	15	37.44734181	-122.16431333	4791829	1.6860013755e+12	23.2597554174
1408225667060	81	4015836	375800	369	15	37.44734181	-122.16431333	4791829	1.5091511688e+12	23.2597554174
1408225667109	81	4001688	431900	369	15	37.44734181	-122.16431333	4791829	1.7283290472e+12	23.2597554174
1408225667127	81	4011708	403800	369	15	37.44734181	-122.16431333	4791829	1.6199276904e+12	23.2597554174
1408225667145	81	4011708	403800	369	15	37.44720514	-122.1644417	4791829	1.6199276904e+12	42.2100210583
1408225667150	81	4016424	417700	369	15	37.44720514	-122.1644417	4791829	1.6776603048e+12	42.2100210583
1408225667202	81	4005519	535600	370	15	37.44720514	-122.1644417	4791829	2.1453559764e+12	42.2100210583
1408225667220	81	4007877	454900	370	15	37.44720514	-122.1644417	4791829	1.8231832473e+12	42.2100210583
1408225667238	81	4010823	433600	370	15	37.44720514	-122.1644417	4791829	1.7390928528e+12	42.2100210583
1408225667288	81	4013478	411300	369	15	37.44720514	-122.1644417	4791829	1.6507435014e+12	42.2100210583
1408225667306	81	4019076	377500	369	15	37.44720514	-122.1644417	4791829	1.51720119e+12	42.2100210583
1408225667323	81	4012887	448000	370	15	37.44720514	-122.1644417	4791829	1.797773376e+12	42.2100210583
1408225667374	81	4012593	429100	370	15	37.44720514	-122.1644417	4791829	1.7218036563e+12	42.2100210583
1408225667395	81	4013181	430800	369	15	37.44720514	-122.1644417	4791829	1.7288783748e+12	42.2100210583
1408225667413	81	4017897	354600	369	15	37.44720514	-122.1644417	4791829	1.4247462762e+12	42.2100210583
1408225667431	81	4017897	368300	368	15	37.44720514	-122.1644417	4791829	1.4797914651e+12	42.2100210583
1408225667500	81	4034403	305900	368	15	37.44720514	-122.1644417	4791829	1.2341238777e+12	42.2100210583
1408225667525	81	4033518	298400	368	15	37.44720514	-122.1644417	4791829	1.2036017712e+12	42.2100210583
1408225667546	81	4030866	296700	368	15	37.44720514	-122.1644417	4791829	1.1959579422e+12	42.2100210583
1408225667627	81	4027329	279500	369	15	37.44720514	-122.1644417	4791829	1.1256384555e+12	42.2100210583
1408225667643	81	4019961	375800	369	15	37.44720514	-122.1644417	4791829	1.5107013438e+12	42.2100210583
1408225667659	81	4022319	339100	369	15	37.44720514	-122.1644417	4791829	1.3639683729e+12	42.2100210583
1408225667689	81	4023204	379200	369	15	37.44720514	-122.1644417	4791829	1.5255989568e+12	42.2100210583
1408225667705	81	4022907	385600	369	15	37.44720514	-122.1644417	4791829	1.5512329392e+12	42.2100210583
1408225667720	81	4020846	378100	369	15	37.44720514	-122.1644417	4791829	1.5202818726e+12	42.2100210583
1408225667751	81	4022319	375200	370	15	37.44720514	-122.1644417	4791829	1.5091740888e+12	42.2100210583
1408225667766	81	4021728	362600	369	15	37.44720514	-122.1644417	4791829	1.4582785728e+12	42.2100210583
1408225667782	81	4021728	384900	369	15	37.44720514	-122.1644417	4791829	1.5479631072e+12	42.2100210583
1408225667797	81	4023498	361500	369	15	37.44720514	-122.1644417	4791829	1.454494527e+12	42.2100210583
1408225667834	81	4025265	470900	368	15	37.44720514	-122.1644417	4791829	1.8954972885e+12	42.2100210583
1408225667853	81	4017603	393600	368	15	37.44720514	-122.1644417	4791829	1.5813285408e+12	42.2100210583
1408225667870	81	4021434	349400	368	15	37.44720514	-122.1644417	4791829	1.4050890396e+12	42.2100210583
1408225667911	81	4027329	336900	368	15	37.44720514	-122.1644417	4791829	1.3568071401e+12	42.2100210583
1408225667935	81	4024971	335700	369	15	37.44720514	-122.1644417	4791829	1.3511827647e+12	42.2100210583
1408225667952	81	4019370	343700	370	15	37.44720514	-122.1644417	4791829	1.381457469e+12	42.2100210583
1408225667997	81	4024086	358600	370	15	37.44720514	-122.1644417	4791829	1.4430372396e+12	42.2100210583
1408225668015	81	4027329	352900	369	15	37.44720514	-122.1644417	4791829	1.4212444041e+12	42.2100210583
1408225668044	81	4030275	326000	368	15	37.44720514	-122.1644417	4791829	1.31386965e+12	42.2100210583
1408225668118	81	4027035	309900	369	15	37.44720514	-122.1644417	4791829	1.2479781465e+12	42.2100210583
1408225668164	81	4029393	305900	368	15	37.44720514	-122.1644417	4791829	1.2325913187e+12	42.2100210583
1408225668188	81	4028214	323000	369	15	37.44720514	-122.1644417	4791829	1.301113122e+12	42.2100210583
1408225668203	81	4002573	481300	368	15	37.44720514	-122.1644417	4791829	1.9264383849e+12	42.2100210583
1408225668237	81	4004931	470400	369	15	37.44720514	-122.1644417	4791829	1.8839195424e+12	42.2100210583
1408225668253	81	4020549	361500	369	15	37.44720514	-122.1644417	4791829	1.4534284635e+12	42.2100210583
1408225668268	81	4022025	356800	369	15	37.44720514	-122.1644417	4791829	1.43505852e+12	42.2100210583
1408225668300	81	4019370	336900	369	15	37.44720514	-122.1644417	4791829	1.354125753e+12	42.2100210583
1408225668315	81	4019370	397600	370	15	37.44720514	-122.1644417	4791829	1.598101512e+12	42.2100210583
1408225668334	81	4016718	394800	370	15	37.44720514	-122.1644417	4791829	1.5858002664e+12	42.2100210583
1408225668365	81	4016130	370700	370	15	37.44720514	-122.1644417	4791829	1.488779391e+12	42.2100210583
1408225668384	81	4017015	437100	369	15	37.44720514	-122.1644417	4791829	1.7558372565e+12	42.2100210583
1408225668401	81	4027329	314500	369	15	37.44720514	-122.1644417	4791829	1.2665949705e+12	42.2100210583
1408225668452	81	4030275	296700	369	15	37.44720514	-122.1644417	4791829	1.1957825925e+12	42.2100210583
1408225668470	81	4028802	294400	369	15	37.44720514	-122.1644417	4791829	1.1860793088e+12	42.2100210583
1408225668490	81	4034697	308800	368	15	37.44720514	-122.1644417	4791829	1.2459144336e+12	42.2100210583
1408225668511	81	4032045	296100	369	15	37.44720514	-122.1644417	4791829	1.1938885245e+12	42.2100210583
1408225668588	81	4032633	295000	368	15	37.44720514	-122.1644417	4791829	1.189626735e+12	42.2100210583
1408225668603	81	4022907	354600	370	15	37.44720514	-122.1644417	4791829	1.4265228222e+12	42.2100210583
1408225668618	81	4020255	386100	370	15	37.44720514	-122.1644417	4791829	1.5522204555e+12	42.2100210583
1408225668649	81	4023204	342600	369	15	37.44720514	-122.1644417	4791829	1.3783496904e+12	42.2100210583
1408225668664	81	4025559	368300	369	15	37.44720514	-122.1644417	4791829	1.4826133797e+12	42.2100210583
1408225668680	81	4023204	354000	369	15	37.44720514	-122.1644417	4791829	1.424214216e+12	42.2100210583
1408225668712	81	4019961	364300	370	15	37.44720514	-122.1644417	4791829	1.4644717923e+12	42.2100210583
1408225668727	81	4021140	360800	370	15	37.44720514	-122.1644417	4791829	1.450827312e+12	42.2100210583
1408225668743	81	4020549	388400	370	15	37.44720514	-122.1644417	4791829	1.5615812316e+12	42.2100210583
1408225668776	81	4023792	354600	369	15	37.44720514	-122.1644417	4791829	1.4268366432e+12	42.2100210583
1408225668795	81	4027917	302400	368	15	37.44720514	-122.1644417	4791829	1.2180421008e+12	42.2100210583
1408225668812	81	4032339	302400	369	15	37.44720514	-122.1644417	4791829	1.2193793136e+12	42.2100210583
1408225668831	81	4033812	287000	368	15	37.44720514	-122.1644417	4791829	1.157704044e+12	42.2100210583
1408225668914	81	4036761	287000	368	15	37.44720514	-122.1644417	4791829	1.158550407e+12	42.2100210583
1408225668934	81	4029981	283000	369	15	37.44720514	-122.1644417	4791829	1.140484623e+12	42.2100210583
1408225668954	81	4037349	248000	369	15	37.44720514	-122.1644417	4791829	1.001262552e+12	42.2100210583
1408225669034	81	4033812	267500	369	15	37.44720514	-122.1644417	4791829	1.07904471e+12	42.2100210583
1408225669050	81	4022025	352300	369	15	37.44720514	-122.1644417	4791829	1.4169594075e+12	42.2100210583
1408225669065	81	4024677	401000	370	15	37.44720514	-122.1644417	4791829	1.613895477e+12	42.2100210583
1408225669096	81	4021434	376900	370	15	37.44720514	-122.1644417	4791829	1.5156784746e+12	42.2100210583
1408225669111	81	4021140	372400	370	15	37.44720514	-122.1644417	4791829	1.497472536e+12	42.2100210583
1408225669129	81	4014066	432600	370	15	37.44720514	-122.1644417	4791829	1.7364849516e+12	42.2100210583
1408225669161	81	4014066	432600	370	15	37.44707542	-122.16457484	4791829	1.7364849516e+12	60.8131064464
1408225669163	81	4021728	390100	369	15	37.44707542	-122.16457484	4791829	1.5688760928e+12	60.8131064464
1408225669188	81	4006110	478400	368	15	37.44707542	-122.16457484	4791829	1.916523024e+12	60.8131064464
1408225669203	81	4023792	388900	369	15	37.44707542	-122.16457484	4791829	1.5648527088e+12	60.8131064464
1408225669221	81	4023204	358000	369	15	37.44707542	-122.16457484	4791829	1.440307032e+12	60.8131064464
1408225669263	81	4022319	391300	369	15	37.44707542	-122.16457484	4791829	1.5739334247e+12	60.8131064464
1408225669280	81	4028508	314500	369	15	37.44707542	-122.16457484	4791829	1.266965766e+12	60.8131064464
1408225669297	81	4031751	304800	368	15	37.44707542	-122.16457484	4791829	1.2288777048e+12	60.8131064464
1408225669347	81	4031454	303600	369	15	37.44707542	-122.16457484	4791829	1.2239494344e+12	60.8131064464
1408225669366	81	4032045	308100	368	15	37.44707542	-122.16457484	4791829	1.2422730645e+12	60.8131064464
1408225669387	81	4035285	326000	368	15	37.44707542	-122.16457484	4791829	1.31550291e+12	60.8131064464
1408225669468	81	4033812	272700	369	15	37.44707542	-122.16457484	4791829	1.1000205324e+12	60.8131064464
1408225669489	81	4026738	310500	370	15	37.44707542	-122.16457484	4791829	1.250302149e+12	60.8131064464
1408225669508	81	4027917	325400	369	15	37.44707542	-122.16457484	4791829	1.3106841918e+12	60.8131064464
1408225669586	81	4035582	262900	369	15	37.44707542	-122.16457484	4791829	1.0609545078e+12	60.8131064464
1408225669602	81	4017897	369500	370	15	37.44707542	-122.16457484	4791829	1.4846129415e+12	60.8131064464
1408225669617	81	4022613	375200	369	15	37.44707542	-122.16457484	4791829	1.5092843976e+12	60.8131064464
1408225669633	81	4018782	358000	370	15	37.44707542	-122.16457484	4791829	1.438723956e+12	60.8131064464
1408225669663	81	4020255	472100	369	15	37.44707542	-122.16457484	4791829	1.8979623855e+12	60.8131064464
1408225669702	81	4022025	370700	369	15	37.44707542	-122.16457484	4791829	1.4909646675e+12	60.8131064464
1408225669742	81	4001688	382100	369	15	37.44707542	-122.16457484	4791829	1.5290449848e+12	60.8131064464
1408225669780	81	4003458	496100	369	15	37.44707542	-122.16457484	4791829	1.9861155138e+12	60.8131064464
1408225669802	81	4001688	369500	369	15	37.44707542	-122.16457484	4791829	1.478623716e+12	60.8131064464
1408225669820	81	4012887	427900	370	15	37.44707542	-122.16457484	4791829	1.7171143473e+12	60.8131064464
1408225669874	81	4016424	383800	370	15	37.44707542	-122.16457484	4791829	1.5415035312e+12	60.8131064464
1408225669893	81	4008171	425700	370	15	37.44707542	-122.16457484	4791829	1.7062783947e+12	60.8131064464
1408225669911	81	4013181	395800	369	15	37.44707542	-122.16457484	4791829	1.5884170398e+12	60.8131064464
1408225669965	81	4021434	341400	369	15	37.44707542	-122.16457484	4791829	1.3729175676e+12	60.8131064464
1408225669984	81	4014657	362000	369	15	37.44707542	-122.16457484	4791829	1.453305834e+12	60.8131064464
1408225670002	81	4012002	378100	370	15	37.44707542	-122.16457484	4791829	1.5169379562e+12	60.8131064464
1408225670020	81	4014657	465200	369	15	37.44707542	-122.16457484	4791829	1.8676184364e+12	60.8131064464
1408225670085	81	4022025	341400	369	15	37.44707542	-122.16457484	4791829	1.373119335e+12	60.8131064464
1408225670121	81	4009647	466400	369	15	37.44707542	-122.16457484	4791829	1.8700993608e+12	60.8131064464
1408225670154	81	4033812	279500	368	15	37.44707542	-122.16457484	4791829	1.127450454e+12	60.8131064464
1408225670232	81	4001688	280700	370	15	37.44707542	-122.16457484	4791829	1.1232738216e+12	60.8131064464
1408225670250	81	3990783	493800	370	15	37.44707542	-122.16457484	4791829	1.9706486454e+12	60.8131064464
1408225670268	81	4009056	491000	369	15	37.44707542	-122.16457484	4791829	1.968446496e+12	60.8131064464
1408225670319	81	4016424	382700	369	15	37.44707542	-122.16457484	4791829	1.5370854648e+12	60.8131064464
1408225670337	81	4016424	419900	369	15	37.44707542	-122.16457484	4791829	1.6864964376e+12	60.8131064464
1408225670355	81	4014066	406700	369	15	37.44707542	-122.16457484	4791829	1.6325206422e+12	60.8131064464
1408225670407	81	4010235	360300	369	15	37.44707542	-122.16457484	4791829	1.4448876705e+12	60.8131064464
1408225670426	81	4025265	343100	369	15	37.44707542	-122.16457484	4791829	1.3810684215e+12	60.8131064464
1408225670445	81	4028214	362000	369	15	37.44707542	-122.16457484	4791829	1.458213468e+12	60.8131064464
1408225670465	81	4024971	315000	369	15	37.44707542	-122.16457484	4791829	1.267865865e+12	60.8131064464
1408225670556	81	4037940	280100	369	15	37.44707542	-122.16457484	4791829	1.131026994e+12	60.8131064464
1408225670576	81	4028214	325400	370	15	37.44707542	-122.16457484	4791829	1.3107808356e+12	60.8131064464
1408225670597	81	4033812	289900	370	15	37.44707542	-122.16457484	4791829	1.1694020988e+12	60.8131064464
1408225670676	81	4038822	288100	368	15	37.44707542	-122.16457484	4791829	1.1635846182e+12	60.8131064464
1408225670693	81	4024383	303100	369	15	37.44707542	-122.16457484	4791829	1.2197904873e+12	60.8131064464
1408225670708	81	4026738	367800	369	15	37.44707542	-122.16457484	4791829	1.4810342364e+12	60.8131064464
1408225670740	81	4027329	346600	369	15	37.44707542	-122.16457484	4791829	1.3958722314e+12	60.8131064464
1408225670756	81	4022319	348900	370	15	37.44707542	-122.16457484	4791829	1.4033870991e+12	60.8131064464
1408225670772	81	4024971	362000	369	15	37.44707542	-122.16457484	4791829	1.457039502e+12	60.8131064464
1408225670803	81	4025559	335700	369	15	37.44707542	-122.16457484	4791829	1.3513801563e+12	60.8131064464
1408225670819	81	4023498	323000	369	15	37.44707542	-122.16457484	4791829	1.299589854e+12	60.8131064464
1408225670834	81	4026444	363200	369	15	37.44707542	-122.16457484	4791829	1.4624044608e+12	60.8131064464
1408225670849	81	4025559	364300	369	15	37.44707542	-122.16457484	4791829	1.4665111437e+12	60.8131064464
1408225670897	81	4023204	343700	369	15	37.44707542	-122.16457484	4791829	1.3827752148e+12	60.8131064464
1408225670915	81	4019961	358600	369	15	37.44707542	-122.16457484	4791829	1.4415580146e+12	60.8131064464
1408225670933	81	4032339	323000	369	15	37.44707542	-122.16457484	4791829	1.302445497e+12	60.8131064464
1408225670984	81	4025265	318000	370	15	37.44707542	-122.16457484	4791829	1.28003427e+12	60.8131064464
1408225671002	81	4023498	333900	370	15	37.44707542	-122.16457484	4791829	1.3434459822e+12	60.8131064464
1408225671019	81	4028508	352300	369	15	37.44707542	-122.16457484	4791829	1.4192433684e+12	60.8131064464
1408225671090	81	4035582	288700	369	15	37.44707542	-122.16457484	4791829	1.1650725234e+12	60.8131064464
1408225671106	81	4021434	362000	369	15	37.44707542	-122.16457484	4791829	1.455759108e+12	60.8131064464
1408225671121	81	4019076	358000	370	15	37.44707542	-122.16457484	4791829	1.438829208e+12	60.8131064464
1408225671155	81	4019076	358000	370	15	37.4469831	-122.16466164	4791829	1.438829208e+12	73.6185194017
1408225671157	81	4022319	395300	370	15	37.4469831	-122.16466164	4791829	1.5900227007e+12	73.6185194017
1408225671182	81	4004046	488600	370	15	37.4469831	-122.16466164	4791829	1.9563768756e+12	73.6185194017
1408225671197	81	4022319	459500	369	15	37.4469831	-122.16466164	4791829	1.8482555805e+12	73.6185194017
1408225671213	81	4018191	362000	369	15	37.4469831	-122.16466164	4791829	1.454585142e+12	73.6185194017
1408225671244	81	4003161	473200	369	15	37.4469831	-122.16466164	4791829	1.8942957852e+12	73.6185194017
1408225671260	81	4022613	418700	369	15	37.4469831	-122.16466164	4791829	1.6842680631e+12	73.6185194017
1408225671275	81	4024971	364300	369	15	37.4469831	-122.16466164	4791829	1.4662969353e+12	73.6185194017
1408225671320	81	4022613	326500	370	15	37.4469831	-122.16466164	4791829	1.3133831445e+12	73.6185194017
1408225671337	81	4028214	310500	370	15	37.4469831	-122.16466164	4791829	1.250760447e+12	73.6185194017
1408225671354	81	4026738	301300	370	15	37.4469831	-122.16466164	4791829	1.2132561594e+12	73.6185194017
1408225671426	81	4028214	303600	369	15	37.4469831	-122.16466164	4791829	1.2229657704e+12	73.6185194017
1408225671443	81	4024971	275000	369	15	37.4469831	-122.16466164	4791829	1.106867025e+12	73.6185194017
1408225671458	81	4025856	358600	369	15	37.4469831	-122.16466164	4791829	1.4436719616e+12	73.6185194017
1408225671489	81	4027329	344900	369	15	37.4469831	-122.16466164	4791829	1.3890257721e+12	73.6185194017
1408225671504	81	4022613	339700	370	15	37.4469831	-122.16466164	4791829	1.3664816361e+12	73.6185194017
1408225671520	81	4022907	399800	369	15	37.4469831	-122.16466164	4791829	1.6083582186e+12	73.6185194017
1408225671535	81	4013181	409000	369	15	37.4469831	-122.16466164	4791829	1.641391029e+12	73.6185194017
1408225671566	81	4021728	454900	369	15	37.4469831	-122.16466164	4791829	1.8294840672e+12	73.6185194017
1408225671581	81	4024383	346000	369	15	37.4469831	-122.16466164	4791829	1.392436518e+12	73.6185194017
1408225671596	81	4026150	343100	370	15	37.4469831	-122.16466164	4791829	1.381372065e+12	73.6185194017
1408225671633	81	4021728	336200	369	15	37.4469831	-122.16466164	4791829	1.3521049536e+12	73.6185194017
1408225671651	81	4017015	331700	369	15	37.4469831	-122.16466164	4791829	1.3324438755e+12	73.6185194017
1408225671668	81	4032339	404500	368	15	37.4469831	-122.16466164	4791829	1.6310811255e+12	73.6185194017
1408225671739	81	4032339	294400	370	15	37.4469831	-122.16466164	4791829	1.1871206016e+12	73.6185194017
1408225671755	81	4019667	384900	370	15	37.4469831	-122.16466164	4791829	1.5471698283e+12	73.6185194017
1408225671770	81	4023792	351800	369	15	37.4469831	-122.16466164	4791829	1.4155700256e+12	73.6185194017
1408225671801	81	4023792	330500	369	15	37.4469831	-122.16466164	4791829	1.329863256e+12	73.6185194017
1408225671817	81	4026444	383800	369	15	37.4469831	-122.16466164	4791829	1.5453492072e+12	73.6185194017
1408225671832	81	4025856	364900	369	15	37.4469831	-122.16466164	4791829	1.4690348544e+12	73.6185194017
1408225671847	81	4025265	415900	369	15	37.4469831	-122.16466164	4791829	1.6741077135e+12	73.6185194017
1408225671881	81	4010235	501300	370	15	37.4469831	-122.16466164	4791829	2.0103308055e+12	73.6185194017
1408225671897	81	4019961	414200	369	15	37.4469831	-122.16466164	4791829	1.6650678462e+12	73.6185194017
1408225671912	81	4017603	387800	369	15	37.4469831	-122.16466164	4791829	1.5580264434e+12	73.6185194017
1408225671955	81	4028214	375200	369	15	37.4469831	-122.16466164	4791829	1.5113858928e+12	73.6185194017
1408225671971	81	4024971	349400	369	15	37.4469831	-122.16466164	4791829	1.4063248674e+12	73.6185194017
1408225671989	81	4031160	304100	369	15	37.4469831	-122.16466164	4791829	1.225875756e+12	73.6185194017
1408225672030	81	4031160	292700	369	15	37.4469831	-122.16466164	4791829	1.179920532e+12	73.6185194017
1408225672054	81	4031751	295600	369	15	37.4469831	-122.16466164	4791829	1.1917855956e+12	73.6185194017
1408225672071	81	4025856	306500	370	15	37.4469831	-122.16466164	4791829	1.233924864e+12	73.6185194017
1408225672179	81	4024677	337400	369	15	37.4469831	-122.16466164	4791829	1.3579260198e+12	73.6185194017
1408225672202	81	3995793	521900	369	15	37.4469831	-122.16466164	4791829	2.0854043667e+12	73.6185194017
1408225672218	81	4020255	527100	369	15	37.4469831	-122.16466164	4791829	2.1190764105e+12	73.6185194017
1408225672233	81	4020846	373500	369	15	37.4469831	-122.16466164	4791829	1.501785981e+12	73.6185194017
1408225672264	81	4020549	493800	369	15	37.4469831	-122.16466164	4791829	1.9853470962e+12	73.6185194017
1408225672280	81	4018488	419900	369	15	37.4469831	-122.16466164	4791829	1.6873631112e+12	73.6185194017
1408225672295	81	4020255	371800	369	15	37.4469831	-122.16466164	4791829	1.494730809e+12	73.6185194017
1408225672327	81	4019370	336900	369	15	37.4469831	-122.16466164	4791829	1.354125753e+12	73.6185194017
1408225672342	81	4022319	388400	369	15	37.4469831	-122.16466164	4791829	1.5622686996e+12	73.6185194017
1408225672357	81	4023204	365500	369	15	37.4469831	-122.16466164	4791829	1.470481062e+12	73.6185194017
1408225672397	81	4016718	358000	369	15	37.4469831	-122.16466164	4791829	1.437985044e+12	73.6185194017
1408225672414	81	4028508	300800	369	15	37.4469831	-122.16466164	4791829	1.2117752064e+12	73.6185194017
1408225672431	81	4029981	308800	369	15	37.4469831	-122.16466164	4791829	1.2444581328e+12	73.6185194017
1408225672487	81	4028214	318500	370	15	37.4469831	-122.16466164	4791829	1.282986159e+12	73.6185194017
1408225672506	81	4023498	326000	370	15	37.4469831	-122.16466164	4791829	1.311660348e+12	73.6185194017
1408225672524	81	4026150	333900	370	15	37.4469831	-122.16466164	4791829	1.344331485e+12	73.6185194017
1408225672543	81	4031160	323700	369	15	37.4469831	-122.16466164	4791829	1.304886492e+12	73.6185194017
1408225672625	81	4031160	296700	370	15	37.4469831	-122.16466164	4791829	1.196045172e+12	73.6185194017
1408225672642	81	4021140	340900	369	15	37.4469831	-122.16466164	4791829	1.370806626e+12	73.6185194017
1408225672658	81	4024383	381600	369	15	37.4469831	-122.16466164	4791829	1.5357045528e+12	73.6185194017
1408225672688	81	4020846	358000	369	15	37.4469831	-122.16466164	4791829	1.439462868e+12	73.6185194017
1408225672703	81	4023204	341400	369	15	37.4469831	-122.16466164	4791829	1.3735218456e+12	73.6185194017
1408225672719	81	4023498	399800	369	15	37.4469831	-122.16466164	4791829	1.6085945004e+12	73.6185194017
1408225672751	81	4019961	407300	369	15	37.4469831	-122.16466164	4791829	1.6373301153e+12	73.6185194017
1408225672766	81	4023204	372400	369	15	37.4469831	-122.16466164	4791829	1.4982411696e+12	73.6185194017
1408225672781	81	4022319	354000	369	15	37.4469831	-122.16466164	4791829	1.423900926e+12	73.6185194017
1408225672815	81	4024971	344900	370	15	37.4469831	-122.16466164	4791829	1.3882124979e+12	73.6185194017
1408225672833	81	4006110	384400	370	15	37.4469831	-122.16466164	4791829	1.539948684e+12	73.6185194017
1408225672852	81	4022613	371800	370	15	37.4469831	-122.16466164	4791829	1.4956075134e+12	73.6185194017
1408225672869	81	4014951	371200	370	15	37.4469831	-122.16466164	4791829	1.4903498112e+12	73.6185194017
1408225672919	81	4029687	347100	369	15	37.4469831	-122.16466164	4791829	1.3987043577e+12	73.6185194017
1408225672937	81	4029981	303600	369	15	37.4469831	-122.16466164	4791829	1.2235022316e+12	73.6185194017
1408225672955	81	4032045	298400	369	15	37.4469831	-122.16466164	4791829	1.203162228e+12	73.6185194017
1408225673027	81	4025559	311000	369	15	37.4469831	-122.16466164	4791829	1.251948849e+12	73.6185194017
1408225673044	81	4020846	380400	369	15	37.4469831	-122.16466164	4791829	1.5295298184e+12	73.6185194017
1408225673060	81	4020549	403800	369	15	37.4469831	-122.16466164	4791829	1.6234976862e+12	73.6185194017
1408225673094	81	4023204	389600	370	15	37.4469831	-122.16466164	4791829	1.5674402784e+12	73.6185194017
1408225673110	81	4021434	360800	369	15	37.4469831	-122.16466164	4791829	1.4509333872e+12	73.6185194017
1408225673125	81	4019370	402800	369	15	37.4469831	-122.16466164	4791829	1.619002236e+12	73.6185194017
1408225673160	81	4020255	436600	369	15	37.4469831	-122.16466164	4791829	1.755243333e+12	73.6185194017
1408225673182	81	4000215	484100	370	15	37.4469831	-122.16466164	4791829	1.9365040815e+12	73.6185194017
1408225673197	81	4019076	437600	370	15	37.4469831	-122.16466164	4791829	1.7587476576e+12	73.6185194017
1408225673213	81	4017015	371800	370	15	37.4469831	-122.16466164	4791829	1.493526177e+12	73.6185194017
1408225673258	81	4017015	399300	369	15	37.4469831	-122.16466164	4791829	1.6039940895e+12	73.6185194017
1408225673275	81	4027329	318000	369	15	37.4469831	-122.16466164	4791829	1.280690622e+12	73.6185194017
1408225673293	81	4022025	318000	369	15	37.4469831	-122.16466164	4791829	1.27900395e+12	73.6185194017
1408225673343	81	4020549	355100	369	15	37.4469831	-122.16466164	4791829	1.4276969499e+12	73.6185194017
1408225673360	81	4014360	359800	369	15	37.4469831	-122.16466164	4791829	1.444366728e+12	73.6185194017
1408225673377	81	4027623	384900	370	15	37.4469831	-122.16466164	4791829	1.5502320927e+12	73.6185194017
1408225673422	81	4030572	313300	369	15	37.4469831	-122.16466164	4791829	1.2627782076e+12	73.6185194017
1408225673447	81	4032927	332200	369	15	37.4469831	-122.16466164	4791829	1.3397383494e+12	73.6185194017
1408225673465	81	4031454	300800	369	15	37.4469831	-122.16466164	4791829	1.2126613632e+12	73.6185194017
1408225673537	81	4033518	297300	369	15	37.4469831	-122.16466164	4791829	1.1991649014e+12	73.6185194017
1408225673553	81	4022319	336900	369	15	37.4469831	-122.16466164	4791829	1.3551192711e+12	73.6185194017
1408225673568	81	4017897	368300	370	15	37.4469831	-122.16466164	4791829	1.4797914651e+12	73.6185194017
1408225673584	81	4021728	403300	370	15	37.4469831	-122.16466164	4791829	1.6219629024e+12	73.6185194017
1408225673614	81	4017897	490400	370	15	37.4469831	-122.16466164	4791829	1.9703766888e+12	73.6185194017
1408225673629	81	4017897	372900	370	15	37.4469831	-122.16466164	4791829	1.4982737913e+12	73.6185194017
1408225673645	81	4020255	395800	369	15	37.4469831	-122.16466164	4791829	1.591216929e+12	73.6185194017
1408225673675	81	4021140	374700	369	15	37.4469831	-122.16466164	4791829	1.506721158e+12	73.6185194017
1408225673691	81	4012593	370700	369	15	37.4469831	-122.16466164	4791829	1.4874682251e+12	73.6185194017
1408225673706	81	4024383	360800	369	15	37.4469831	-122.16466164	4791829	1.4519973864e+12	73.6185194017
1408225673750	81	4022319	346000	370	15	37.4469831	-122.16466164	4791829	1.391722374e+12	73.6185194017
1408225673768	81	4026444	357500	369	15	37.4469831	-122.16466164	4791829	1.43945373e+12	73.6185194017
1408225673786	81	4030866	330500	369	15	37.4469831	-122.16466164	4791829	1.332201213e+12	73.6185194017
1408225673834	81	4031454	287600	369	15	37.4469831	-122.16466164	4791829	1.1594461704e+12	73.6185194017
1408225673856	81	4024677	321300	369	15	37.4469831	-122.16466164	4791829	1.2931287201e+12	73.6185194017
1408225673874	81	4023498	297300	369	15	37.4469831	-122.16466164	4791829	1.1961859554e+12	73.6185194017
1408225673895	81	4034403	337900	369	15	37.4469831	-122.16466164	4791829	1.3632247737e+12	73.6185194017
1408225673973	81	4019370	377500	370	15	37.4469831	-122.16466164	4791829	1.517312175e+12	73.6185194017
1408225673990	81	4009941	388900	370	15	37.4469831	-122.16466164	4791829	1.5594660549e+12	73.6185194017
1408225674005	81	4016130	462300	370	15	37.4469831	-122.16466164	4791829	1.856656899e+12	73.6185194017
1408225674036	81	4019076	363800	369	15	37.4469831	-122.16466164	4791829	1.4621398488e+12	73.6185194017
1408225674051	81	4020549	347100	369	15	37.4469831	-122.16466164	4791829	1.3955325579e+12	73.6185194017
1408225674067	81	4022319	415300	369	15	37.4469831	-122.16466164	4791829	1.6704690807e+12	73.6185194017
1408225674097	81	4020846	390100	370	15	37.4469831	-122.16466164	4791829	1.5685320246e+12	73.6185194017
1408225674113	81	4021140	368300	369	15	37.4469831	-122.16466164	4791829	1.480985862e+12	73.6185194017
1408225674130	81	4018191	361500	370	15	37.4469831	-122.16466164	4791829	1.4525760465e+12	73.6185194017
1408225674167	81	4021434	399300	369	15	37.4469831	-122.16466164	4791829	1.6057585962e+12	73.6185194017
1408225674188	81	4007877	471500	369	15	37.4469831	-122.16466164	4791829	1.8897140055e+12	73.6185194017
1408225674205	81	4020255	380900	369	15	37.4469831	-122.16466164	4791829	1.5313151295e+12	73.6185194017
1408225674222	81	4027623	337900	369	15	37.4469831	-122.16466164	4791829	1.3609338117e+12	73.6185194017
1408225674265	81	4020549	363800	369	15	37.4469831	-122.16466164	4791829	1.4626757262e+12	73.6185194017
1408225674281	81	4021140	344300	369	15	37.4469831	-122.16466164	4791829	1.384478502e+12	73.6185194017
1408225674298	81	4017015	376400	369	15	37.4469831	-122.16466164	4791829	1.512004446e+12	73.6185194017
1408225674342	81	4024086	307000	370	15	37.4469831	-122.16466164	4791829	1.235394402e+12	73.6185194017
1408225674361	81	4017309	338600	370	15	37.4469831	-122.16466164	4791829	1.3602608274e+12	73.6185194017
1408225674382	81	4027329	363800	370	15	37.4469831	-122.16466164	4791829	1.4651422902e+12	73.6185194017
1408225674450	81	4030866	318500	369	15	37.4469831	-122.16466164	4791829	1.283830821e+12	73.6185194017
1408225674482	81	4031454	280100	369	15	37.4469831	-122.16466164	4791829	1.1292102654e+12	73.6185194017
1408225674501	81	4028508	291600	370	15	37.4469831	-122.16466164	4791829	1.1747129328e+12	73.6185194017
1408225674583	81	4034106	301900	369	15	37.4469831	-122.16466164	4791829	1.2178966014e+12	73.6185194017
1408225674599	81	4004931	387800	370	15	37.4469831	-122.16466164	4791829	1.5531122418e+12	73.6185194017
1408225674614	81	4024677	464000	369	15	37.4469831	-122.16466164	4791829	1.867450128e+12	73.6185194017
1408225674630	81	4023498	348900	369	15	37.4469831	-122.16466164	4791829	1.4037984522e+12	73.6185194017
1408225674660	81	4019370	475600	369	15	37.4469831	-122.16466164	4791829	1.911612372e+12	73.6185194017
1408225674677	81	4021140	394800	369	15	37.4469831	-122.16466164	4791829	1.587546072e+12	73.6185194017
1408225674692	81	4006992	394800	370	15	37.4469831	-122.16466164	4791829	1.5819604416e+12	73.6185194017
1408225674723	81	4014360	498500	370	15	37.4469831	-122.16466164	4791829	2.00115846e+12	73.6185194017
1408225674739	81	4014951	384400	370	15	37.4469831	-122.16466164	4791829	1.5433471644e+12	73.6185194017
1408225674754	81	4019961	375200	370	15	37.4469831	-122.16466164	4791829	1.5082893672e+12	73.6185194017
1408225674798	81	4022025	358000	369	15	37.4469831	-122.16466164	4791829	1.43988495e+12	73.6185194017
1408225674815	81	4023792	301300	369	15	37.4469831	-122.16466164	4791829	1.2123685296e+12	73.6185194017
1408225674836	81	4030572	397000	369	15	37.4469831	-122.16466164	4791829	1.600137084e+12	73.6185194017
1408225674916	81	4033812	267500	369	15	37.4469831	-122.16466164	4791829	1.07904471e+12	73.6185194017
1408225674936	81	4026444	303100	369	15	37.4469831	-122.16466164	4791829	1.2204151764e+12	73.6185194017
1408225674951	81	4017897	393000	369	15	37.4469831	-122.16466164	4791829	1.579033521e+12	73.6185194017
1408225674967	81	4022025	422200	369	15	37.4469831	-122.16466164	4791829	1.698098955e+12	73.6185194017
1408225674997	81	4019370	468600	370	15	37.4469831	-122.16466164	4791829	1.883476782e+12	73.6185194017
1408225675017	81	4017015	395300	370	15	37.4469831	-122.16466164	4791829	1.5879260295e+12	73.6185194017
1408225675032	81	4015836	418700	369	15	37.4469831	-122.16466164	4791829	1.6814305332e+12	73.6185194017
1408225675063	81	4012002	389600	370	15	37.4469831	-122.16466164	4791829	1.5630759792e+12	73.6185194017
1408225675078	81	4018782	375200	370	15	37.4469831	-122.16466164	4791829	1.5078470064e+12	73.6185194017
1408225675093	81	4017015	360300	370	15	37.4469831	-122.16466164	4791829	1.4473305045e+12	73.6185194017
1408225675133	81	4019370	397600	370	15	37.4469831	-122.16466164	4791829	1.598101512e+12	73.6185194017
1408225675148	81	4019370	397600	370	15	37.44690543	-122.16474959	4791829	1.598101512e+12	85.2321472237
1408225675153	81	4015836	378100	369	15	37.44690543	-122.16474959	4791829	1.5183875916e+12	85.2321472237
1408225675180	81	4021728	368900	369	15	37.44690543	-122.16474959	4791829	1.4836154592e+12	85.2321472237
1408225675231	81	4019667	366000	369	15	37.44690543	-122.16474959	4791829	1.471198122e+12	85.2321472237
1408225675246	81	4001394	459500	369	15	37.44690543	-122.16474959	4791829	1.838640543e+12	85.2321472237
1408225675262	81	4004046	529400	369	15	37.44690543	-122.16474959	4791829	2.1197419524e+12	85.2321472237
1408225675277	81	4020846	424500	369	15	37.44690543	-122.16474959	4791829	1.706849127e+12	85.2321472237
1408225675308	81	4019667	481300	369	15	37.44690543	-122.16474959	4791829	1.9346657271e+12	85.2321472237
1408225675326	81	4021140	374100	369	15	37.44690543	-122.16474959	4791829	1.504308474e+12	85.2321472237
1408225675342	81	4018488	429100	369	15	37.44690543	-122.16474959	4791829	1.7243332008e+12	85.2321472237
1408225675372	81	4019667	414200	369	15	37.44690543	-122.16474959	4791829	1.6649460714e+12	85.2321472237
1408225675388	81	4022319	352300	369	15	37.44690543	-122.16474959	4791829	1.4170629837e+12	85.2321472237
1408225675403	81	4023204	340300	369	15	37.44690543	-122.16474959	4791829	1.3690963212e+12	85.2321472237
1408225675448	81	4022319	336200	369	15	37.44690543	-122.16474959	4791829	1.3523036478e+12	85.2321472237
1408225675464	81	4026150	326000	369	15	37.44690543	-122.16474959	4791829	1.3125249e+12	85.2321472237
1408225675481	81	4028508	337900	369	15	37.44690543	-122.16474959	4791829	1.3612328532e+12	85.2321472237
1408225675525	81	4030866	302400	369	15	37.44690543	-122.16474959	4791829	1.2189338784e+12	85.2321472237
1408225675552	81	4030572	330000	369	15	37.44690543	-122.16474959	4791829	1.33008876e+12	85.2321472237
1408225675570	81	4027623	309300	369	15	37.44690543	-122.16474959	4791829	1.2457437939e+12	85.2321472237
1408225675590	81	4035876	295600	369	15	37.44690543	-122.16474959	4791829	1.1930049456e+12	85.2321472237
1408225675672	81	4035582	296700	369	15	37.44690543	-122.16474959	4791829	1.1973571794e+12	85.2321472237
1408225675693	81	4032339	285900	369	15	37.44690543	-122.16474959	4791829	1.1528457201e+12	85.2321472237
1408225675713	81	4037643	263500	369	15	37.44690543	-122.16474959	4791829	1.0639189305e+12	85.2321472237
1408225675788	81	4030866	289200	369	15	37.44690543	-122.16474959	4791829	1.1657264472e+12	85.2321472237
1408225675803	81	4014951	360300	369	15	37.44690543	-122.16474959	4791829	1.4465868453e+12	85.2321472237
1408225675819	81	4014360	386100	370	15	37.44690543	-122.16474959	4791829	1.549944396e+12	85.2321472237
1408225675849	81	4022613	417700	369	15	37.44690543	-122.16474959	4791829	1.6802454501e+12	85.2321472237
1408225675865	81	4024086	379200	369	15	37.44690543	-122.16474959	4791829	1.5259334112e+12	85.2321472237
1408225675883	81	4016718	362600	369	15	37.44690543	-122.16474959	4791829	1.4564619468e+12	85.2321472237
1408225675914	81	4018191	413700	369	15	37.44690543	-122.16474959	4791829	1.6623256167e+12	85.2321472237
1408225675929	81	4020846	354000	369	15	37.44690543	-122.16474959	4791829	1.423379484e+12	85.2321472237
1408225675945	81	4023498	346000	369	15	37.44690543	-122.16474959	4791829	1.392130308e+12	85.2321472237
1408225675960	81	4021728	366000	369	15	37.44690543	-122.16474959	4791829	1.471952448e+12	85.2321472237
1408225676009	81	4022319	368900	370	15	37.44690543	-122.16474959	4791829	1.4838334791e+12	85.2321472237
1408225676026	81	4023204	367200	369	15	37.44690543	-122.16474959	4791829	1.4773205088e+12	85.2321472237
1408225676044	81	4028508	307000	369	15	37.44690543	-122.16474959	4791829	1.236751956e+12	85.2321472237
1408225676113	81	4027623	302400	369	15	37.44690543	-122.16474959	4791829	1.2179531952e+12	85.2321472237
1408225676150	81	4027329	321300	369	15	37.44690543	-122.16474959	4791829	1.2939808077e+12	85.2321472237
1408225676172	81	4031751	297300	369	15	37.44690543	-122.16474959	4791829	1.1986395723e+12	85.2321472237
1408225676223	81	4008171	302400	369	15	37.44690543	-122.16474959	4791829	1.2120709104e+12	85.2321472237
1408225676239	81	4014066	480100	369	15	37.44690543	-122.16474959	4791829	1.9271530866e+12	85.2321472237
1408225676254	81	4022025	374100	369	15	37.44690543	-122.16474959	4791829	1.5046395525e+12	85.2321472237
1408225676285	81	4023204	350000	370	15	37.44690543	-122.16474959	4791829	1.4081214e+12	85.2321472237
1408225676300	81	4017603	450300	370	15	37.44690543	-122.16474959	4791829	1.8091266309e+12	85.2321472237
1408225676316	81	4022613	391300	369	15	37.44690543	-122.16474959	4791829	1.5740484669e+12	85.2321472237
1408225676331	81	4017015	419900	369	15	37.44690543	-122.16474959	4791829	1.6867445985e+12	85.2321472237
1408225676362	81	4020846	474400	369	15	37.44690543	-122.16474959	4791829	1.9074893424e+12	85.2321472237
1408225676379	81	4022613	336200	370	15	37.44690543	-122.16474959	4791829	1.3524024906e+12	85.2321472237
1408225676396	81	4028802	318000	369	15	37.44690543	-122.16474959	4791829	1.281159036e+12	85.2321472237
1408225676442	81	4026738	292700	369	15	37.44690543	-122.16474959	4791829	1.1786262126e+12	85.2321472237
1408225676460	81	4029687	313300	369	15	37.44690543	-122.16474959	4791829	1.2625009371e+12	85.2321472237
1408225676477	81	4032633	332900	369	15	37.44690543	-122.16474959	4791829	1.3424635257e+12	85.2321472237
1408225676558	81	4035285	273800	370	15	37.44690543	-122.16474959	4791829	1.104861033e+12	85.2321472237
1408225676578	81	4031751	315600	369	15	37.44690543	-122.16474959	4791829	1.2724206156e+12	85.2321472237
1408225676598	81	4034991	278400	370	15	37.44690543	-122.16474959	4791829	1.1233414944e+12	85.2321472237
1408225676723	81	4035876	308100	369	15	37.44690543	-122.16474959	4791829	1.2434533956e+12	85.2321472237
1408225676742	81	4021434	443400	369	15	37.44690543	-122.16474959	4791829	1.7831038356e+12	85.2321472237
1408225676759	81	3998445	488100	370	15	37.44690543	-122.16474959	4791829	1.9516410045e+12	85.2321472237
1408225676777	81	4016130	414200	370	15	37.44690543	-122.16474959	4791829	1.663481046e+12	85.2321472237
1408225676829	81	3999624	444600	370	15	37.44690543	-122.16474959	4791829	1.7782328304e+12	85.2321472237
1408225676846	81	4003458	417000	370	15	37.44690543	-122.16474959	4791829	1.669441986e+12	85.2321472237
1408225676864	81	4013772	413000	370	15	37.44690543	-122.16474959	4791829	1.657687836e+12	85.2321472237
1408225676918	81	4016718	391800	370	15	37.44690543	-122.16474959	4791829	1.5737501124e+12	85.2321472237
1408225676938	81	4014657	387300	370	15	37.44690543	-122.16474959	4791829	1.5548766561e+12	85.2321472237
1408225676958	81	4017897	440600	370	15	37.44690543	-122.16474959	4791829	1.7702854182e+12	85.2321472237
1408225677026	81	4025856	341900	369	15	37.44690543	-122.16474959	4791829	1.3764401664e+12	85.2321472237
1408225677046	81	4028214	328200	369	15	37.44690543	-122.16474959	4791829	1.3220598348e+12	85.2321472237
1408225677065	81	4022319	327100	369	15	37.44690543	-122.16474959	4791829	1.3157005449e+12	85.2321472237
1408225677173	81	4029687	308800	369	15	37.44690543	-122.16474959	4791829	1.2443673456e+12	85.2321472237
