Time	SOD	Volt	Current	Temp	Signal	Latitude	Longitude	CellID	Power	Distance
1408227815352	68	3904431	318200	382	15	37.44860846	-122.16301274	4840551	1.2423899442e+12	11.7946753971
1408227815354	68	3915042	309500	382	15	37.44860846	-122.16301274	4840551	1.211705499e+12	11.7946753971
1408227815376	68	3910326	361100	381	15	37.44860846	-122.16301274	4840551	1.4120187186e+12	11.7946753971
1408227815398	68	3902367	337600	381	15	37.44860846	-122.16301274	4840551	1.3174390992e+12	11.7946753971
1408227815416	68	3906789	284300	382	15	37.44860846	-122.16301274	4840551	1.1107001127e+12	11.7946753971
1408227815449	68	3903546	447800	382	15	37.44860846	-122.16301274	4840551	1.7480078988e+12	11.7946753971
1408227815467	68	3906198	305500	382	15	37.44860846	-122.16301274	4840551	1.193343489e+12	11.7946753971
1408227815487	68	3907377	350800	381	15	37.44860846	-122.16301274	4840551	1.3707078516e+12	11.7946753971
1408227815525	68	3909441	257300	382	15	37.44860846	-122.16301274	4840551	1.0058991693e+12	11.7946753971
1408227815545	68	3907377	326700	382	15	37.44860846	-122.16301274	4840551	1.2765400659e+12	11.7946753971
1408227815565	68	3904431	322200	382	15	37.44860846	-122.16301274	4840551	1.2580076682e+12	11.7946753971
1408227815612	68	3900894	296900	381	15	37.44860846	-122.16301274	4840551	1.1581754286e+12	11.7946753971
1408227815633	68	3922410	261300	382	15	37.44860846	-122.16301274	4840551	1.024925733e+12	11.7946753971
1408227815656	68	3917694	303800	382	15	37.44860846	-122.16301274	4840551	1.1901954372e+12	11.7946753971
1408227815733	68	3919167	272300	381	15	37.44860846	-122.16301274	4840551	1.0671891741e+12	11.7946753971
1408227815757	68	3921231	292300	381	15	37.44860846	-122.16301274	4840551	1.1461758213e+12	11.7946753971
1408227815780	68	3919167	258500	382	15	37.44860846	-122.16301274	4840551	1.0131046695e+12	11.7946753971
1408227815802	68	3925947	264800	381	15	37.44860846	-122.16301274	4840551	1.0395907656e+12	11.7946753971
1408227815883	68	3922410	288900	381	15	37.44860846	-122.16301274	4840551	1.133184249e+12	11.7946753971
1408227815908	68	3920934	263600	381	15	37.44860846	-122.16301274	4840551	1.0335582024e+12	11.7946753971
1408227815930	68	3913566	267700	382	15	37.44860846	-122.16301274	4840551	1.0476616182e+12	11.7946753971
1408227816005	68	3904725	268800	382	15	37.44860846	-122.16301274	4840551	1.04959008e+12	11.7946753971
1408227816025	68	3909147	291800	382	15	37.44860846	-122.16301274	4840551	1.1406890946e+12	11.7946753971
1408227816045	68	3909441	328400	382	15	37.44860846	-122.16301274	4840551	1.2838604244e+12	11.7946753971
1408227816079	68	3906789	259600	381	15	37.44860846	-122.16301274	4840551	1.0142024244e+12	11.7946753971
1408227816098	68	3916221	263100	381	15	37.44860846	-122.16301274	4840551	1.0303577451e+12	11.7946753971
1408227816114	68	3912684	351400	382	15	37.44860846	-122.16301274	4840551	1.3749171576e+12	11.7946753971
1408227816146	68	3915336	345100	382	15	37.44860846	-122.16301274	4840551	1.3511824536e+12	11.7946753971
1408227816166	68	3906198	310200	381	15	37.44860846	-122.16301274	4840551	1.2117026196e+12	11.7946753971
1408227816187	68	3906198	361100	381	15	37.44860846	-122.16301274	4840551	1.4105280978e+12	11.7946753971
1408227816213	68	3920052	301500	381	15	37.44860846	-122.16301274	4840551	1.181895678e+12	11.7946753971
1408227816280	68	3918873	288900	382	15	37.44860846	-122.16301274	4840551	1.1321624097e+12	11.7946753971
1408227816335	68	3921525	272800	381	15	37.44860846	-122.16301274	4840551	1.06979202e+12	11.7946753971
1408227816353	68	3901485	296900	381	15	37.44860846	-122.16301274	4840551	1.1583508965e+12	11.7946753971
1408227816395	68	3897357	442600	381	15	37.44860846	-122.16301274	4840551	1.7249702082e+12	11.7946753971
1408227816413	68	3897654	310700	381	15	37.44860846	-122.16301274	4840551	1.2110010978e+12	11.7946753971
1408227816433	68	3914451	296300	381	15	37.44860846	-122.16301274	4840551	1.1598518313e+12	11.7946753971
1408227816468	68	3916221	326200	381	15	37.44860846	-122.16301274	4840551	1.2774712902e+12	11.7946753971
1408227816486	68	3907968	369100	382	15	37.44860846	-122.16301274	4840551	1.4424309888e+12	11.7946753971
1408227816509	68	3907968	301500	382	15	37.44860846	-122.16301274	4840551	1.178252352e+12	11.7946753971
1408227816548	68	3906495	399000	381	15	37.44860846	-122.16301274	4840551	1.558691505e+12	11.7946753971
1408227816569	68	3914157	288900	381	15	37.44860846	-122.16301274	4840551	1.1307999573e+12	11.7946753971
1408227816589	68	3917103	264300	381	15	37.44860846	-122.16301274	4840551	1.0352903229e+12	11.7946753971
1408227816621	68	3923589	255600	382	15	37.44860846	-122.16301274	4840551	1.0028693484e+12	11.7946753971
1408227816726	68	3895884	470100	381	15	37.44860846	-122.16301274	4840551	1.8314550684e+12	11.7946753971
1408227816746	68	3902367	451800	381	15	37.44860846	-122.16301274	4840551	1.7630894106e+12	11.7946753971
1408227816763	68	3901779	517700	382	15	37.44860846	-122.16301274	4840551	2.0199509883e+12	11.7946753971
1408227816815	68	3891168	435100	382	15	37.44860846	-122.16301274	4840551	1.6930471968e+12	11.7946753971
1408227816833	68	3893232	468400	382	15	37.44860846	-122.16301274	4840551	1.8235898688e+12	11.7946753971
1408227816850	68	3896769	448300	382	15	37.44860846	-122.16301274	4840551	1.7469215427e+12	11.7946753971
1408227816901	68	3897357	454000	382	15	37.44860846	-122.16301274	4840551	1.769400078e+12	11.7946753971
1408227816919	68	3901779	439700	382	15	37.44860846	-122.16301274	4840551	1.7156122263e+12	11.7946753971
1408227816937	68	3901485	446600	382	15	37.44860846	-122.16301274	4840551	1.742403201e+12	11.7946753971
1408227816989	68	3902367	400100	382	15	37.44860846	-122.16301274	4840551	1.5613370367e+12	11.7946753971
1408227817008	68	3913272	340000	382	15	37.44860846	-122.16301274	4840551	1.33051248e+12	11.7946753971
1408227817030	68	3909735	331300	382	15	37.44860846	-122.16301274	4840551	1.2952952055e+12	11.7946753971
1408227817054	68	3915336	331900	382	15	37.44860846	-122.16301274	4840551	1.2995000184e+12	11.7946753971
1408227817139	68	3917103	294600	381	15	37.44860846	-122.16301274	4840551	1.1539785438e+12	11.7946753971
1408227817159	68	3904725	324400	381	15	37.44860846	-122.16301274	4840551	1.26669279e+12	11.7946753971
1408227817177	68	3905610	368600	381	15	37.44860846	-122.16301274	4840551	1.439607846e+12	11.7946753971
1408227817212	68	3910914	382300	381	15	37.44860846	-122.16301274	4840551	1.4951424222e+12	11.7946753971
1408227817234	68	3901779	301000	382	15	37.44860846	-122.16301274	4840551	1.174435479e+12	11.7946753971
1408227817253	68	3911505	427700	382	15	37.44860846	-122.16301274	4840551	1.6729506885e+12	11.7946753971
1408227817287	68	3914745	309000	382	15	37.44860846	-122.16301274	4840551	1.209656205e+12	11.7946753971
1408227817307	68	3904725	296300	381	15	37.44860846	-122.16301274	4840551	1.1569700175e+12	11.7946753971
1408227817335	68	3905610	318200	381	15	37.44860846	-122.16301274	4840551	1.242765102e+12	11.7946753971
1408227817340	68	3905610	318200	381	15	37.44852041	-122.16310108	4840551	1.242765102e+12	24.3087089557
1408227817387	68	3911799	347400	381	15	37.44852041	-122.16310108	4840551	1.3589589726e+12	24.3087089557
1408227817407	68	3906495	323300	381	15	37.44852041	-122.16310108	4840551	1.2629698335e+12	24.3087089557
1408227817429	68	3902073	314200	382	15	37.44852041	-122.16310108	4840551	1.2260313366e+12	24.3087089557
1408227817449	68	3901779	321000	382	15	37.44852041	-122.16310108	4840551	1.252471059e+12	24.3087089557
1408227817485	68	3902958	451100	381	15	37.44852041	-122.16310108	4840551	1.7606243538e+12	24.3087089557
1408227817506	68	3906198	245400	381	15	37.44852041	-122.16310108	4840551	9.585809892e+11	24.3087089557
1408227817530	68	3906198	293500	381	15	37.44852041	-122.16310108	4840551	1.146469113e+12	24.3087089557
1408227817567	68	3902958	356000	381	15	37.44852041	-122.16310108	4840551	1.389453048e+12	24.3087089557
1408227817589	68	3915336	288300	381	15	37.44852041	-122.16310108	4840551	1.1287913688e+12	24.3087089557
1408227817611	68	3917103	278000	382	15	37.44852041	-122.16310108	4840551	1.088954634e+12	24.3087089557
1408227817692	68	3921819	284300	381	15	37.44852041	-122.16310108	4840551	1.1149731417e+12	24.3087089557
1408227817712	68	3915336	331900	381	15	37.44852041	-122.16310108	4840551	1.2995000184e+12	24.3087089557
1408227817731	68	3916221	294600	382	15	37.44852041	-122.16310108	4840551	1.1537187066e+12	24.3087089557
1408227817766	68	3908853	354900	381	15	37.44852041	-122.16310108	4840551	1.3872519297e+12	24.3087089557
1408227817786	68	3911211	374900	382	15	37.44852041	-122.16310108	4840551	1.4663130039e+12	24.3087089557
1408227817806	68	3903252	301500	382	15	37.44852041	-122.16310108	4840551	1.176830478e+12	24.3087089557
1408227817825	68	3905904	318200	382	15	37.44852041	-122.16310108	4840551	1.2428586528e+12	24.3087089557
1408227817859	68	3913272	451100	381	15	37.44852041	-122.16310108	4840551	1.7652769992e+12	24.3087089557
1408227817879	68	3907674	354200	381	15	37.44852041	-122.16310108	4840551	1.3840981308e+12	24.3087089557
1408227817901	68	3910032	337600	382	15	37.44852041	-122.16310108	4840551	1.3200268032e+12	24.3087089557
1408227817966	68	3921231	326200	381	15	37.44852041	-122.16310108	4840551	1.2791055522e+12	24.3087089557
1408227818001	68	3918873	274500	381	15	37.44852041	-122.16310108	4840551	1.0757306385e+12	24.3087089557
1408227818026	68	3923292	268300	381	15	37.44852041	-122.16310108	4840551	1.0526192436e+12	24.3087089557
1408227818111	68	3920640	250400	381	15	37.44852041	-122.16310108	4840551	9.81728256e+11	24.3087089557
1408227818134	68	3919167	278000	381	15	37.44852041	-122.16310108	4840551	1.089528426e+12	24.3087089557
1408227818157	68	3920052	252800	381	15	37.44852041	-122.16310108	4840551	9.909891456e+11	24.3087089557
1408227818236	68	3918282	262000	381	15	37.44852041	-122.16310108	4840551	1.026589884e+12	24.3087089557
1408227818256	68	3904725	282600	381	15	37.44852041	-122.16310108	4840551	1.103475285e+12	24.3087089557
1408227818276	68	3905904	329100	382	15	37.44852041	-122.16310108	4840551	1.2854330064e+12	24.3087089557
1408227818295	68	3905904	371500	381	15	37.44852041	-122.16310108	4840551	1.451043336e+12	24.3087089557
1408227818338	68	3898830	460300	381	15	37.44852041	-122.16310108	4840551	1.794631449e+12	24.3087089557
1408227818356	68	3896475	462000	381	15	37.44852041	-122.16310108	4840551	1.80017145e+12	24.3087089557
1408227818376	68	3903843	359400	382	15	37.44852041	-122.16310108	4840551	1.4030411742e+12	24.3087089557
1408227818409	68	3912978	370900	381	15	37.44852041	-122.16310108	4840551	1.4513235402e+12	24.3087089557
1408227818426	68	3905022	353200	381	15	37.44852041	-122.16310108	4840551	1.3792537704e+12	24.3087089557
1408227818455	68	3911505	328400	381	15	37.44852041	-122.16310108	4840551	1.284538242e+12	24.3087089557
1408227818521	68	3915336	354900	381	15	37.44852041	-122.16310108	4840551	1.3895527464e+12	24.3087089557
1408227818545	68	3901779	277400	382	15	37.44852041	-122.16310108	4840551	1.0823534946e+12	24.3087089557
1408227818565	68	3899127	374300	381	15	37.44852041	-122.16310108	4840551	1.4594432361e+12	24.3087089557
1408227818602	68	3905904	357700	381	15	37.44852041	-122.16310108	4840551	1.3971418608e+12	24.3087089557
1408227818618	68	3909147	362300	381	15	37.44852041	-122.16310108	4840551	1.4162839581e+12	24.3087089557
1408227818633	68	3910620	403600	381	15	37.44852041	-122.16310108	4840551	1.578326232e+12	24.3087089557
1408227818654	68	3902664	428200	381	15	37.44852041	-122.16310108	4840551	1.6711207248e+12	24.3087089557
1408227818687	68	3903546	452300	381	15	37.44852041	-122.16310108	4840551	1.7655738558e+12	24.3087089557
1408227818705	68	3904431	352000	381	15	37.44852041	-122.16310108	4840551	1.374359712e+12	24.3087089557
1408227818725	68	3907968	291200	381	15	37.44852041	-122.16310108	4840551	1.1380002816e+12	24.3087089557
1408227818778	68	3912093	361700	382	15	37.44852041	-122.16310108	4840551	1.4150040381e+12	24.3087089557
1408227818799	68	3912978	310200	381	15	37.44852041	-122.16310108	4840551	1.2138057756e+12	24.3087089557
1408227818818	68	3917694	290600	381	15	37.44852041	-122.16310108	4840551	1.1384818764e+12	24.3087089557
1408227818895	68	3922410	271700	381	15	37.44852041	-122.16310108	4840551	1.065718797e+12	24.3087089557
1408227818914	68	3902958	307200	381	15	37.44852041	-122.16310108	4840551	1.1989886976e+12	24.3087089557
1408227818936	68	3903252	342800	382	15	37.44852041	-122.16310108	4840551	1.3380347856e+12	24.3087089557
1408227818972	68	3908262	243600	381	15	37.44852041	-122.16310108	4840551	9.520526232e+11	24.3087089557
1408227818994	68	3915630	328400	381	15	37.44852041	-122.16310108	4840551	1.285892892e+12	24.3087089557
1408227819014	68	3899715	295800	381	15	37.44852041	-122.16310108	4840551	1.153535697e+12	24.3087089557
1408227819035	68	3904431	308400	381	15	37.44852041	-122.16310108	4840551	1.2041265204e+12	24.3087089557
1408227819073	68	3912978	455200	381	15	37.44852041	-122.16310108	4840551	1.7811875856e+12	24.3087089557
1408227819101	68	3920934	341600	381	15	37.44852041	-122.16310108	4840551	1.3393910544e+12	24.3087089557
1408227819123	68	3914451	302600	382	15	37.44852041	-122.16310108	4840551	1.1845128726e+12	24.3087089557
1408227819201	68	3917694	337100	382	15	37.44852041	-122.16310108	4840551	1.3206546474e+12	24.3087089557
1408227819226	68	3922704	288300	381	15	37.44852041	-122.16310108	4840551	1.1309155632e+12	24.3087089557
1408227819249	68	3919167	283200	381	15	37.44852041	-122.16310108	4840551	1.1099080944e+12	24.3087089557
1408227819335	68	3919167	283200	381	15	37.44840463	-122.16321827	4840551	1.1099080944e+12	40.8208642091
1408227819340	68	3920934	264800	381	15	37.44840463	-122.16321827	4840551	1.0382633232e+12	40.8208642091
1408227819356	68	3897063	449500	381	15	37.44840463	-122.16321827	4840551	1.7517298185e+12	40.8208642091
1408227819376	68	3902958	349200	381	15	37.44840463	-122.16321827	4840551	1.3629129336e+12	40.8208642091
1408227819413	68	3907083	270500	381	15	37.44840463	-122.16321827	4840551	1.0568659515e+12	40.8208642091
1408227819432	68	3914745	319900	381	15	37.44840463	-122.16321827	4840551	1.2523269255e+12	40.8208642091
1408227819452	68	3905904	411600	381	15	37.44840463	-122.16321827	4840551	1.6076700864e+12	40.8208642091
1408227819471	68	3914451	310700	381	15	37.44840463	-122.16321827	4840551	1.2162199257e+12	40.8208642091
1408227819505	68	3904431	470700	381	15	37.44840463	-122.16321827	4840551	1.8378156717e+12	40.8208642091
1408227819523	68	3910914	305000	381	15	37.44840463	-122.16321827	4840551	1.19282877e+12	40.8208642091
1408227819547	68	3912684	358200	381	15	37.44840463	-122.16321827	4840551	1.4015234088e+12	40.8208642091
1408227819596	68	3915336	293500	381	15	37.44840463	-122.16321827	4840551	1.149151116e+12	40.8208642091
1408227819617	68	3917988	283200	381	15	37.44840463	-122.16321827	4840551	1.1095742016e+12	40.8208642091
1408227819652	68	3926829	257900	381	15	37.44840463	-122.16321827	4840551	1.0127291991e+12	40.8208642091
1408227819728	68	3919167	263100	381	15	37.44840463	-122.16321827	4840551	1.0311328377e+12	40.8208642091
1408227819746	68	3900009	334100	381	15	37.44840463	-122.16321827	4840551	1.3029930069e+12	40.8208642091
1408227819761	68	3910032	291800	381	15	37.44840463	-122.16321827	4840551	1.1409473376e+12	40.8208642091
1408227819796	68	3911799	315200	381	15	37.44840463	-122.16321827	4840551	1.2329990448e+12	40.8208642091
1408227819815	68	3906789	299300	381	15	37.44840463	-122.16321827	4840551	1.1693019477e+12	40.8208642091
1408227819836	68	3908853	316400	381	15	37.44840463	-122.16321827	4840551	1.2367610892e+12	40.8208642091
1408227819856	68	3903546	387000	381	15	37.44840463	-122.16321827	4840551	1.510672302e+12	40.8208642091
1408227819892	68	3912978	458000	381	15	37.44840463	-122.16321827	4840551	1.792143924e+12	40.8208642091
1408227819912	68	3914451	316400	381	15	37.44840463	-122.16321827	4840551	1.2385322964e+12	40.8208642091
1408227819932	68	3915630	296900	381	15	37.44840463	-122.16321827	4840551	1.162550547e+12	40.8208642091
1408227819987	68	3914745	333100	381	15	37.44840463	-122.16321827	4840551	1.3040015595e+12	40.8208642091
1408227820009	68	3917400	270500	381	15	37.44840463	-122.16321827	4840551	1.0596567e+12	40.8208642091
1408227820033	68	3918873	309500	381	15	37.44840463	-122.16321827	4840551	1.2128911935e+12	40.8208642091
1408227820111	68	3920346	289400	381	15	37.44840463	-122.16321827	4840551	1.1345481324e+12	40.8208642091
1408227820133	68	3925650	255600	381	15	37.44840463	-122.16321827	4840551	1.00339614e+12	40.8208642091
1408227820166	68	3921525	303300	381	15	37.44840463	-122.16321827	4840551	1.1893985325e+12	40.8208642091
1408227820238	68	3918282	308400	382	15	37.44840463	-122.16321827	4840551	1.2083981688e+12	40.8208642091
1408227820256	68	3899421	326200	381	15	37.44840463	-122.16321827	4840551	1.2719911302e+12	40.8208642091
1408227820276	68	3899715	335900	382	15	37.44840463	-122.16321827	4840551	1.3099142685e+12	40.8208642091
1408227820296	68	3901485	374300	381	15	37.44840463	-122.16321827	4840551	1.4603258355e+12	40.8208642091
1408227820335	68	3896178	455200	381	15	37.44840463	-122.16321827	4840551	1.7735402256e+12	40.8208642091
1408227820356	68	3901188	446600	381	15	37.44840463	-122.16321827	4840551	1.7422705608e+12	40.8208642091
1408227820376	68	3901779	318700	381	15	37.44840463	-122.16321827	4840551	1.2434969673e+12	40.8208642091
1408227820412	68	3912684	253900	381	15	37.44840463	-122.16321827	4840551	9.934304676e+11	40.8208642091
1408227820432	68	3913272	342200	382	15	37.44840463	-122.16321827	4840551	1.3391216784e+12	40.8208642091
1408227820456	68	3920934	296900	382	15	37.44840463	-122.16321827	4840551	1.1641253046e+12	40.8208642091
1408227820521	68	3915630	323300	381	15	37.44840463	-122.16321827	4840551	1.265923179e+12	40.8208642091
1408227820546	68	3925062	276900	381	15	37.44840463	-122.16321827	4840551	1.0868496678e+12	40.8208642091
1408227820580	68	3917694	284300	381	15	37.44840463	-122.16321827	4840551	1.1138004042e+12	40.8208642091
1408227820661	68	3925947	314200	381	15	37.44840463	-122.16321827	4840551	1.2335325474e+12	40.8208642091
1408227820686	68	3918873	271200	381	15	37.44840463	-122.16321827	4840551	1.0627983576e+12	40.8208642091
1408227820708	68	3922113	254500	381	15	37.44840463	-122.16321827	4840551	9.981777585e+11	40.8208642091
1408227820729	68	3923589	271700	381	15	37.44840463	-122.16321827	4840551	1.0660391313e+12	40.8208642091
1408227820809	68	3915924	292900	382	15	37.44840463	-122.16321827	4840551	1.1469741396e+12	40.8208642091
1408227820835	68	3922113	266000	381	15	37.44840463	-122.16321827	4840551	1.043282058e+12	40.8208642091
1408227820858	68	3923292	264300	381	15	37.44840463	-122.16321827	4840551	1.0369260756e+12	40.8208642091
1408227820939	68	3915924	270000	381	15	37.44840463	-122.16321827	4840551	1.05729948e+12	40.8208642091
1408227820957	68	3907377	325600	381	15	37.44840463	-122.16321827	4840551	1.2722419512e+12	40.8208642091
1408227820976	68	3909441	314200	381	15	37.44840463	-122.16321827	4840551	1.2283463622e+12	40.8208642091
1408227821009	68	3902367	351400	381	15	37.44840463	-122.16321827	4840551	1.3712917638e+12	40.8208642091
1408227821029	68	3903546	334800	381	15	37.44840463	-122.16321827	4840551	1.3069072008e+12	40.8208642091
1408227821049	68	3906198	270500	381	15	37.44840463	-122.16321827	4840551	1.056626559e+12	40.8208642091
1408227821085	68	3906789	325600	381	15	37.44840463	-122.16321827	4840551	1.2720504984e+12	40.8208642091
1408227821106	68	3908262	243600	381	15	37.44840463	-122.16321827	4840551	9.520526232e+11	40.8208642091
1408227821126	68	3907377	307200	381	15	37.44840463	-122.16321827	4840551	1.2003462144e+12	40.8208642091
1408227821148	68	3915336	289400	381	15	37.44840463	-122.16321827	4840551	1.1330982384e+12	40.8208642091
1408227821210	68	3918282	306100	381	15	37.44840463	-122.16321827	4840551	1.1993861202e+12	40.8208642091
1408227821245	68	3924177	309500	381	15	37.44840463	-122.16321827	4840551	1.2145327815e+12	40.8208642091
1408227821266	68	3922410	298100	381	15	37.44840463	-122.16321827	4840551	1.169270421e+12	40.8208642091
1408227821342	68	3922410	298100	381	15	37.44828593	-122.16334086	4840551	1.169270421e+12	57.8861362455
1408227821348	68	3899127	272800	381	15	37.44828593	-122.16334086	4840551	1.0636818456e+12	57.8861362455
1408227821364	68	3897654	449500	382	15	37.44828593	-122.16334086	4840551	1.751995473e+12	57.8861362455
1408227821382	68	3913272	374300	381	15	37.44828593	-122.16334086	4840551	1.4647377096e+12	57.8861362455
1408227821437	68	3897948	443700	381	15	37.44828593	-122.16334086	4840551	1.7295195276e+12	57.8861362455
1408227821455	68	3903843	390400	381	15	37.44828593	-122.16334086	4840551	1.5240603072e+12	57.8861362455
1408227821476	68	3901779	300300	381	15	37.44828593	-122.16334086	4840551	1.1717042337e+12	57.8861362455
1408227821511	68	3895884	423700	381	15	37.44828593	-122.16334086	4840551	1.6506860508e+12	57.8861362455
1408227821530	68	3914157	298600	381	15	37.44828593	-122.16334086	4840551	1.1687672802e+12	57.8861362455
1408227821551	68	3910914	282000	382	15	37.44828593	-122.16334086	4840551	1.102877748e+12	57.8861362455
1408227821570	68	3918282	307800	381	15	37.44828593	-122.16334086	4840551	1.2060471996e+12	57.8861362455
1408227821621	68	3921231	331300	381	15	37.44828593	-122.16334086	4840551	1.2991038303e+12	57.8861362455
1408227821650	68	3923292	276900	381	15	37.44828593	-122.16334086	4840551	1.0863595548e+12	57.8861362455
1408227821671	68	3923292	278000	381	15	37.44828593	-122.16334086	4840551	1.090675176e+12	57.8861362455
1408227821738	68	3921819	270000	382	15	37.44828593	-122.16334086	4840551	1.05889113e+12	57.8861362455
1408227821756	68	3903843	377800	382	15	37.44828593	-122.16334086	4840551	1.4748718854e+12	57.8861362455
1408227821776	68	3897948	357700	382	15	37.44828593	-122.16334086	4840551	1.3942959996e+12	57.8861362455
1408227821809	68	3904137	375500	381	15	37.44828593	-122.16334086	4840551	1.4660034435e+12	57.8861362455
1408227821827	68	3905904	377200	381	15	37.44828593	-122.16334086	4840551	1.4733069888e+12	57.8861362455
1408227821849	68	3907083	287700	381	15	37.44828593	-122.16334086	4840551	1.1240677791e+12	57.8861362455
1408227821884	68	3905610	399000	381	15	37.44828593	-122.16334086	4840551	1.55833839e+12	57.8861362455
1408227821905	68	3907377	376600	381	15	37.44828593	-122.16334086	4840551	1.4715181782e+12	57.8861362455
1408227821926	68	3906495	295200	382	15	37.44828593	-122.16334086	4840551	1.153197324e+12	57.8861362455
1408227821953	68	3917988	274000	381	15	37.44828593	-122.16334086	4840551	1.073528712e+12	57.8861362455
1408227822013	68	3922704	286600	381	15	37.44828593	-122.16334086	4840551	1.1242469664e+12	57.8861362455
1408227822037	68	3922704	258500	381	15	37.44828593	-122.16334086	4840551	1.014018984e+12	57.8861362455
1408227822070	68	3922998	285400	381	15	37.44828593	-122.16334086	4840551	1.1196236292e+12	57.8861362455
1408227822141	68	3917400	262000	381	15	37.44828593	-122.16334086	4840551	1.0263588e+12	57.8861362455
1408227822174	68	3925947	295200	381	15	37.44828593	-122.16334086	4840551	1.1589395544e+12	57.8861362455
1408227822199	68	3920934	266000	381	15	37.44828593	-122.16334086	4840551	1.042968444e+12	57.8861362455
1408227822276	68	3921231	275200	382	15	37.44828593	-122.16334086	4840551	1.0791227712e+12	57.8861362455
1408227822296	68	3902958	389200	381	15	37.44828593	-122.16334086	4840551	1.5190312536e+12	57.8861362455
1408227822316	68	3901779	383000	381	15	37.44828593	-122.16334086	4840551	1.494381357e+12	57.8861362455
1408227822354	68	3905904	354900	381	15	37.44828593	-122.16334086	4840551	1.3862053296e+12	57.8861362455
1408227822371	68	3897357	442600	381	15	37.44828593	-122.16334086	4840551	1.7249702082e+12	57.8861362455
1408227822387	68	3896178	445400	381	15	37.44828593	-122.16334086	4840551	1.7353576812e+12	57.8861362455
1408227822404	68	3897357	446000	381	15	37.44828593	-122.16334086	4840551	1.738221222e+12	57.8861362455
1408227822437	68	3894999	451800	381	15	37.44828593	-122.16334086	4840551	1.7597605482e+12	57.8861362455
1408227822452	68	3897948	444300	381	15	37.44828593	-122.16334086	4840551	1.7318582964e+12	57.8861362455
1408227822471	68	3896769	396700	381	15	37.44828593	-122.16334086	4840551	1.5458482623e+12	57.8861362455
1408227822505	68	3910914	446000	381	15	37.44828593	-122.16334086	4840551	1.744267644e+12	57.8861362455
1408227822524	68	3910326	300300	381	15	37.44828593	-122.16334086	4840551	1.1742708978e+12	57.8861362455
1408227822544	68	3920640	357700	381	15	37.44828593	-122.16334086	4840551	1.402412928e+12	57.8861362455
1408227822601	68	3917400	262500	381	15	37.44828593	-122.16334086	4840551	1.0283175e+12	57.8861362455
1408227822623	68	3923589	262500	381	15	37.44828593	-122.16334086	4840551	1.0299421125e+12	57.8861362455
1408227822648	68	3923589	298600	381	15	37.44828593	-122.16334086	4840551	1.1715836754e+12	57.8861362455
1408227822735	68	3922704	269400	381	15	37.44828593	-122.16334086	4840551	1.0567764576e+12	57.8861362455
1408227822754	68	3916515	239000	381	15	37.44828593	-122.16334086	4840551	9.36047085e+11	57.8861362455
1408227822775	68	3906789	283700	382	15	37.44828593	-122.16334086	4840551	1.1083560393e+12	57.8861362455
1408227822794	68	3905316	344000	381	15	37.44828593	-122.16334086	4840551	1.343428704e+12	57.8861362455
1408227822829	68	3912684	447800	381	15	37.44828593	-122.16334086	4840551	1.7520998952e+12	57.8861362455
1408227822848	68	3906789	315900	381	15	37.44828593	-122.16334086	4840551	1.2341546451e+12	57.8861362455
1408227822868	68	3907674	329600	381	15	37.44828593	-122.16334086	4840551	1.2879693504e+12	57.8861362455
1408227822906	68	3900306	261300	381	15	37.44828593	-122.16334086	4840551	1.0191499578e+12	57.8861362455
1408227822934	68	3907968	327900	381	15	37.44828593	-122.16334086	4840551	1.2814227072e+12	57.8861362455
1408227822955	68	3915042	327900	381	15	37.44828593	-122.16334086	4840551	1.2837422718e+12	57.8861362455
1408227823024	68	3917694	286600	382	15	37.44828593	-122.16334086	4840551	1.1228111004e+12	57.8861362455
1408227823046	68	3901188	325100	382	15	37.44828593	-122.16334086	4840551	1.2682762188e+12	57.8861362455
1408227823065	68	3901188	321000	381	15	37.44828593	-122.16334086	4840551	1.252281348e+12	57.8861362455
1408227823102	68	3915630	319200	381	15	37.44828593	-122.16334086	4840551	1.249869096e+12	57.8861362455
1408227823119	68	3915630	286600	381	15	37.44828593	-122.16334086	4840551	1.122219558e+12	57.8861362455
1408227823142	68	3902958	305000	381	15	37.44828593	-122.16334086	4840551	1.19040219e+12	57.8861362455
1408227823162	68	3904431	370300	381	15	37.44828593	-122.16334086	4840551	1.4458107993e+12	57.8861362455
1408227823199	68	3901188	464900	380	15	37.44828593	-122.16334086	4840551	1.8136623012e+12	57.8861362455
1408227823219	68	3906495	349200	381	15	37.44828593	-122.16334086	4840551	1.364148054e+12	57.8861362455
1408227823250	68	3910914	379000	381	15	37.44828593	-122.16334086	4840551	1.482236406e+12	57.8861362455
1408227823346	68	3910914	379000	381	15	37.44816059	-122.16346552	4840551	1.482236406e+12	75.6397690275
1408227823353	68	3897948	316400	381	15	37.44816059	-122.16346552	4840551	1.2333107472e+12	75.6397690275
1408227823368	68	3897948	449500	381	15	37.44816059	-122.16346552	4840551	1.752127626e+12	75.6397690275
1408227823388	68	3907968	286100	381	15	37.44816059	-122.16346552	4840551	1.1180696448e+12	75.6397690275
1408227823426	68	3906789	272800	382	15	37.44816059	-122.16346552	4840551	1.0657720392e+12	75.6397690275
1408227823449	68	3908262	392100	381	15	37.44816059	-122.16346552	4840551	1.5324295302e+12	75.6397690275
1408227823467	68	3905610	352500	381	15	37.44816059	-122.16346552	4840551	1.376727525e+12	75.6397690275
1408227823504	68	3908556	351400	381	15	37.44816059	-122.16346552	4840551	1.3734665784e+12	75.6397690275
1408227823526	68	3907674	299800	381	15	37.44816059	-122.16346552	4840551	1.1715206652e+12	75.6397690275
1408227823551	68	3915924	358200	381	15	37.44816059	-122.16346552	4840551	1.4026839768e+12	75.6397690275
1408227823574	68	3920346	268300	381	15	37.44816059	-122.16346552	4840551	1.0518288318e+12	75.6397690275
1408227823645	68	3922998	306700	380	15	37.44816059	-122.16346552	4840551	1.2031834866e+12	75.6397690275
1408227823688	68	3920346	278500	381	15	37.44816059	-122.16346552	4840551	1.091816361e+12	75.6397690275
1408227823711	68	3920346	267100	381	15	37.44816059	-122.16346552	4840551	1.0471244166e+12	75.6397690275
1408227823798	68	3905022	252800	382	15	37.44816059	-122.16346552	4840551	9.871895616e+11	75.6397690275
1408227823817	68	3903843	361100	382	15	37.44816059	-122.16346552	4840551	1.4096777073e+12	75.6397690275
1408227823837	68	3903843	426000	382	15	37.44816059	-122.16346552	4840551	1.663037118e+12	75.6397690275
1408227823877	68	3900306	364600	381	15	37.44816059	-122.16346552	4840551	1.4220515676e+12	75.6397690275
1408227823895	68	3895884	390400	381	15	37.44816059	-122.16346552	4840551	1.5209531136e+12	75.6397690275
1408227823915	68	3902664	352000	381	15	37.44816059	-122.16346552	4840551	1.373737728e+12	75.6397690275
1408227823953	68	3904431	337600	381	15	37.44816059	-122.16346552	4840551	1.3181359056e+12	75.6397690275
1408227823971	68	3907377	321600	381	15	37.44816059	-122.16346552	4840551	1.2566124432e+12	75.6397690275
1408227823998	68	3918579	338800	382	15	37.44816059	-122.16346552	4840551	1.3276145652e+12	75.6397690275
1408227824018	68	3912387	316400	380	15	37.44816059	-122.16346552	4840551	1.2378792468e+12	75.6397690275
1408227824084	68	3915336	337100	381	15	37.44816059	-122.16346552	4840551	1.3198597656e+12	75.6397690275
1408227824105	68	3912684	406400	381	15	37.44816059	-122.16346552	4840551	1.5901147776e+12	75.6397690275
1408227824125	68	3907083	315900	381	15	37.44816059	-122.16346552	4840551	1.2342475197e+12	75.6397690275
1408227824165	68	3903252	287200	381	15	37.44816059	-122.16346552	4840551	1.1210139744e+12	75.6397690275
1408227824185	68	3904137	337100	382	15	37.44816059	-122.16346552	4840551	1.3160845827e+12	75.6397690275
1408227824203	68	3895590	432200	382	15	37.44816059	-122.16346552	4840551	1.683673998e+12	75.6397690275
1408227824262	68	3902958	439100	382	15	37.44816059	-122.16346552	4840551	1.7137888578e+12	75.6397690275
1408227824284	68	3910914	345100	381	15	37.44816059	-122.16346552	4840551	1.3496564214e+12	75.6397690275
1408227824309	68	3910620	329100	382	15	37.44816059	-122.16346552	4840551	1.286985042e+12	75.6397690275
1408227824367	68	3910914	351400	382	15	37.44816059	-122.16346552	4840551	1.3742951796e+12	75.6397690275
1408227824386	68	3897654	334800	381	15	37.44816059	-122.16346552	4840551	1.3049345592e+12	75.6397690275
1408227824406	68	3897654	440300	381	15	37.44816059	-122.16346552	4840551	1.7161370562e+12	75.6397690275
1408227824426	68	3905610	334800	381	15	37.44816059	-122.16346552	4840551	1.307598228e+12	75.6397690275
1408227824462	68	3904725	447800	381	15	37.44816059	-122.16346552	4840551	1.748535855e+12	75.6397690275
1408227824482	68	3916221	298100	381	15	37.44816059	-122.16346552	4840551	1.1674254801e+12	75.6397690275
1408227824500	68	3906789	324400	381	15	37.44816059	-122.16346552	4840551	1.2673623516e+12	75.6397690275
1408227824534	68	3900306	375500	381	15	37.44816059	-122.16346552	4840551	1.464564903e+12	75.6397690275
1408227824556	68	3902073	259600	382	15	37.44816059	-122.16346552	4840551	1.0129781508e+12	75.6397690275
1408227824576	68	3902958	328400	382	15	37.44816059	-122.16346552	4840551	1.2817314072e+12	75.6397690275
1408227824633	68	3912387	288300	381	15	37.44816059	-122.16346552	4840551	1.1279411721e+12	75.6397690275
1408227824654	68	3917400	268300	381	15	37.44816059	-122.16346552	4840551	1.05103842e+12	75.6397690275
1408227824676	68	3917988	274500	381	15	37.44816059	-122.16346552	4840551	1.075487706e+12	75.6397690275
1408227824774	68	3926535	250400	381	15	37.44816059	-122.16346552	4840551	9.83204364e+11	75.6397690275
1408227824798	68	3908556	363400	380	15	37.44816059	-122.16346552	4840551	1.4203692504e+12	75.6397690275
1408227824817	68	3905904	338200	381	15	37.44816059	-122.16346552	4840551	1.3209767328e+12	75.6397690275
1408227824836	68	3907377	360000	381	15	37.44816059	-122.16346552	4840551	1.40665572e+12	75.6397690275
1408227824875	68	3904431	460300	381	15	37.44816059	-122.16346552	4840551	1.7972095893e+12	75.6397690275
1408227824894	68	3904431	353200	381	15	37.44816059	-122.16346552	4840551	1.3790450292e+12	75.6397690275
1408227824912	68	3914451	372100	381	15	37.44816059	-122.16346552	4840551	1.4565672171e+12	75.6397690275
1408227824947	68	3899421	396100	382	15	37.44816059	-122.16346552	4840551	1.5445606581e+12	75.6397690275
1408227824966	68	3902958	328400	382	15	37.44816059	-122.16346552	4840551	1.2817314072e+12	75.6397690275
1408227824987	68	3909735	294600	382	15	37.44816059	-122.16346552	4840551	1.151807931e+12	75.6397690275
1408227825045	68	3920934	335300	381	15	37.44816059	-122.16346552	4840551	1.3146891702e+12	75.6397690275
1408227825065	68	3916221	274500	381	15	37.44816059	-122.16346552	4840551	1.0750026645e+12	75.6397690275
1408227825090	68	3920934	300300	381	15	37.44816059	-122.16346552	4840551	1.1774564802e+12	75.6397690275
1408227825166	68	3917400	281400	381	15	37.44816059	-122.16346552	4840551	1.10235636e+12	75.6397690275
1408227825188	68	3918282	291200	381	15	37.44816059	-122.16346552	4840551	1.1410037184e+12	75.6397690275
1408227825231	68	3920640	263600	380	15	37.44816059	-122.16346552	4840551	1.033480704e+12	75.6397690275
1408227825271	68	3920346	320400	381	15	37.44816059	-122.16346552	4840551	1.2560788584e+12	75.6397690275
1408227825357	68	3890286	483300	382	15	37.44816059	-122.16346552	4840551	1.8801752238e+12	75.6397690275
1408227825362	68	3890286	483300	382	15	37.44803378	-122.16358491	4840551	1.8801752238e+12	93.2377057898
1408227825375	68	3887928	545200	382	15	37.44803378	-122.16358491	4840551	2.1196983456e+12	93.2377057898
1408227825393	68	3878496	529100	381	15	37.44803378	-122.16358491	4840551	2.0521122336e+12	93.2377057898
1408227825444	68	3884391	506800	381	15	37.44803378	-122.16358491	4840551	1.9686093588e+12	93.2377057898
1408227825459	68	3898830	426000	381	15	37.44803378	-122.16358491	4840551	1.66090158e+12	93.2377057898
1408227825475	68	3894705	482700	381	15	37.44803378	-122.16358491	4840551	1.8799741035e+12	93.2377057898
1408227825505	68	3900009	458000	381	15	37.44803378	-122.16358491	4840551	1.786204122e+12	93.2377057898
1408227825521	68	3891759	453500	381	15	37.44803378	-122.16358491	4840551	1.7649127065e+12	93.2377057898
1408227825536	68	3897654	428200	381	15	37.44803378	-122.16358491	4840551	1.6689754428e+12	93.2377057898
1408227825567	68	3896178	478700	382	15	37.44803378	-122.16358491	4840551	1.8651004086e+12	93.2377057898
1408227825582	68	3895296	580200	382	15	37.44803378	-122.16358491	4840551	2.2600507392e+12	93.2377057898
1408227825598	68	3895296	467200	382	15	37.44803378	-122.16358491	4840551	1.8198822912e+12	93.2377057898
1408227825613	68	3899127	475200	381	15	37.44803378	-122.16358491	4840551	1.8528651504e+12	93.2377057898
1408227825644	68	3899421	511900	381	15	37.44803378	-122.16358491	4840551	1.9961136099e+12	93.2377057898
1408227825664	68	3906198	517100	381	15	37.44803378	-122.16358491	4840551	2.0198949858e+12	93.2377057898
1408227825684	68	3912684	335300	382	15	37.44803378	-122.16358491	4840551	1.3119229452e+12	93.2377057898
1408227825776	68	3918873	331900	381	15	37.44803378	-122.16358491	4840551	1.3006739487e+12	93.2377057898
1408227825797	68	3902958	387000	381	15	37.44803378	-122.16358491	4840551	1.510444746e+12	93.2377057898
1408227825816	68	3907083	319900	381	15	37.44803378	-122.16358491	4840551	1.2498758517e+12	93.2377057898
1408227825852	68	3905022	352500	381	15	37.44803378	-122.16358491	4840551	1.376520255e+12	93.2377057898
1408227825869	68	3907968	368600	382	15	37.44803378	-122.16358491	4840551	1.4404770048e+12	93.2377057898
1408227825887	68	3895590	325100	381	15	37.44803378	-122.16358491	4840551	1.266456309e+12	93.2377057898
1408227825923	68	3904725	313500	381	15	37.44803378	-122.16358491	4840551	1.2241312875e+12	93.2377057898
1408227825942	68	3913863	340500	381	15	37.44803378	-122.16358491	4840551	1.3326703515e+12	93.2377057898
1408227825962	68	3914745	315200	381	15	37.44803378	-122.16358491	4840551	1.233927624e+12	93.2377057898
1408227825982	68	3913566	322200	381	15	37.44803378	-122.16358491	4840551	1.2609509652e+12	93.2377057898
1408227826036	68	3914157	330800	381	15	37.44803378	-122.16358491	4840551	1.2948031356e+12	93.2377057898
1408227826058	68	3916221	278500	381	15	37.44803378	-122.16358491	4840551	1.0906675485e+12	93.2377057898
1408227826076	68	3918282	337600	382	15	37.44803378	-122.16358491	4840551	1.3228120032e+12	93.2377057898
1408227826146	68	3917988	312400	381	15	37.44803378	-122.16358491	4840551	1.2239794512e+12	93.2377057898
1408227826181	68	3924177	282600	381	15	37.44803378	-122.16358491	4840551	1.1089724202e+12	93.2377057898
1408227826204	68	3920346	312400	380	15	37.44803378	-122.16358491	4840551	1.2247160904e+12	93.2377057898
1408227826286	68	3921819	271700	381	15	37.44803378	-122.16358491	4840551	1.0655582223e+12	93.2377057898
1408227826304	68	3909441	360000	381	15	37.44803378	-122.16358491	4840551	1.40739876e+12	93.2377057898
1408227826326	68	3902664	381800	381	15	37.44803378	-122.16358491	4840551	1.4900371152e+12	93.2377057898
1408227826360	68	3898242	435100	381	15	37.44803378	-122.16358491	4840551	1.6961250942e+12	93.2377057898
1408227826379	68	3903546	313000	381	15	37.44803378	-122.16358491	4840551	1.221809898e+12	93.2377057898
1408227826396	68	3889989	321000	381	15	37.44803378	-122.16358491	4840551	1.248686469e+12	93.2377057898
1408227826416	68	3903546	386400	381	15	37.44803378	-122.16358491	4840551	1.5083301744e+12	93.2377057898
1408227826450	68	3899421	473500	382	15	37.44803378	-122.16358491	4840551	1.8463758435e+12	93.2377057898
1408227826468	68	3902367	394400	382	15	37.44803378	-122.16358491	4840551	1.5390935448e+12	93.2377057898
1408227826487	68	3907968	418000	382	15	37.44803378	-122.16358491	4840551	1.633530624e+12	93.2377057898
1408227826533	68	3912978	323300	381	15	37.44803378	-122.16358491	4840551	1.2650657874e+12	93.2377057898
1408227826556	68	3912387	281400	381	15	37.44803378	-122.16358491	4840551	1.1009457018e+12	93.2377057898
1408227826583	68	3921819	292300	381	15	37.44803378	-122.16358491	4840551	1.1463476937e+12	93.2377057898
1408227826734	68	3919755	252800	380	15	37.44803378	-122.16358491	4840551	9.90914064e+11	93.2377057898
1408227826751	68	3897948	460300	381	15	37.44803378	-122.16358491	4840551	1.7942254644e+12	93.2377057898
1408227826771	68	3906495	447800	381	15	37.44803378	-122.16358491	4840551	1.749328461e+12	93.2377057898
1408227826807	68	3905022	425400	382	15	37.44803378	-122.16358491	4840551	1.6611963588e+12	93.2377057898
1408227826826	68	3900009	437400	382	15	37.44803378	-122.16358491	4840551	1.7058639366e+12	93.2377057898
1408227826847	68	3900600	382300	382	15	37.44803378	-122.16358491	4840551	1.49119938e+12	93.2377057898
1408227826866	68	3902073	360000	382	15	37.44803378	-122.16358491	4840551	1.40474628e+12	93.2377057898
1408227826903	68	3890286	525100	381	15	37.44803378	-122.16358491	4840551	2.0427891786e+12	93.2377057898
1408227826922	68	3912387	326700	381	15	37.44803378	-122.16358491	4840551	1.2781768329e+12	93.2377057898
1408227826940	68	3920934	334100	381	15	37.44803378	-122.16358491	4840551	1.3099840494e+12	93.2377057898
1408227826994	68	3916515	305500	382	15	37.44803378	-122.16358491	4840551	1.1964953325e+12	93.2377057898
1408227827017	68	3910620	313000	381	15	37.44803378	-122.16358491	4840551	1.22402406e+12	93.2377057898
1408227827044	68	3925062	250400	380	15	37.44803378	-122.16358491	4840551	9.828355248e+11	93.2377057898
1408227827125	68	3921231	271200	381	15	37.44803378	-122.16358491	4840551	1.0634378472e+12	93.2377057898
1408227827147	68	3891168	459200	381	15	37.44803378	-122.16358491	4840551	1.7868243456e+12	93.2377057898
1408227827166	68	3903843	369800	381	15	37.44803378	-122.16358491	4840551	1.4436411414e+12	93.2377057898
1408227827203	68	3899715	359400	382	15	37.44803378	-122.16358491	4840551	1.401557571e+12	93.2377057898
1408227827219	68	3905022	380600	382	15	37.44803378	-122.16358491	4840551	1.4862513732e+12	93.2377057898
1408227827237	68	3888810	351400	382	15	37.44803378	-122.16358491	4840551	1.366527834e+12	93.2377057898
1408227827256	68	3901779	391500	381	15	37.44803378	-122.16358491	4840551	1.5275464785e+12	93.2377057898
1408227827287	68	3898830	485600	381	15	37.44803378	-122.16358491	4840551	1.893271848e+12	93.2377057898
1408227827308	68	3902073	313000	381	15	37.44803378	-122.16358491	4840551	1.221348849e+12	93.2377057898
1408227827327	68	3902958	391000	381	15	37.44803378	-122.16358491	4840551	1.526056578e+12	93.2377057898
1408227827333	68	3902958	391000	381	15	37.44791241	-122.1637006	4840551	1.526056578e+12	110.156540997
1408227827403	68	3894999	427700	381	15	37.44791241	-122.1637006	4840551	1.6658910723e+12	110.156540997
1408227827420	68	3892938	432200	381	15	37.44791241	-122.1637006	4840551	1.6825278036e+12	110.156540997
1408227827437	68	3889401	327300	381	15	37.44791241	-122.1637006	4840551	1.2730009473e+12	110.156540997
1408227827473	68	3901188	430000	381	15	37.44791241	-122.1637006	4840551	1.67751084e+12	110.156540997
1408227827495	68	3912978	361100	381	15	37.44791241	-122.1637006	4840551	1.4129763558e+12	110.156540997
1408227827515	68	3910620	297500	381	15	37.44791241	-122.1637006	4840551	1.16340945e+12	110.156540997
1408227827554	68	3900894	409900	382	15	37.44791241	-122.1637006	4840551	1.5989764506e+12	110.156540997
1408227827572	68	3909147	349700	382	15	37.44791241	-122.1637006	4840551	1.3670287059e+12	110.156540997
1408227827590	68	3914745	345100	382	15	37.44791241	-122.1637006	4840551	1.3509784995e+12	110.156540997
1408227827611	68	3907377	330200	382	15	37.44791241	-122.1637006	4840551	1.2902158854e+12	110.156540997
1408227827678	68	3918579	296300	381	15	37.44791241	-122.1637006	4840551	1.1610749577e+12	110.156540997
1408227827699	68	3905022	331900	381	15	37.44791241	-122.1637006	4840551	1.2960768018e+12	110.156540997
1408227827719	68	3911799	364100	381	15	37.44791241	-122.1637006	4840551	1.4242860159e+12	110.156540997
1408227827750	68	3893232	282000	381	15	37.44791241	-122.1637006	4840551	1.097891424e+12	110.156540997
1408227827767	68	3903843	420200	381	15	37.44791241	-122.1637006	4840551	1.6403948286e+12	110.156540997
1408227827785	68	3895296	401300	381	15	37.44791241	-122.1637006	4840551	1.5631822848e+12	110.156540997
1408227827824	68	3903843	299800	381	15	37.44791241	-122.1637006	4840551	1.1703721314e+12	110.156540997
1408227827842	68	3908853	377200	381	15	37.44791241	-122.1637006	4840551	1.4744193516e+12	110.156540997
1408227827862	68	3913863	323300	381	15	37.44791241	-122.1637006	4840551	1.2653519079e+12	110.156540997
1408227827914	68	3913863	333100	381	15	37.44791241	-122.1637006	4840551	1.3037077653e+12	110.156540997
1408227827934	68	3915042	344500	382	15	37.44791241	-122.1637006	4840551	1.348731969e+12	110.156540997
1408227827953	68	3900600	388000	381	15	37.44791241	-122.1637006	4840551	1.5134328e+12	110.156540997
1408227827973	68	3909441	335900	382	15	37.44791241	-122.1637006	4840551	1.3131812319e+12	110.156540997
1408227828009	68	3898242	493600	381	15	37.44791241	-122.1637006	4840551	1.9241722512e+12	110.156540997
1408227828027	68	3902664	354200	381	15	37.44791241	-122.1637006	4840551	1.3823235888e+12	110.156540997
1408227828047	68	3901188	297500	381	15	37.44791241	-122.1637006	4840551	1.16060343e+12	110.156540997
1408227828079	68	3909441	340000	380	15	37.44791241	-122.1637006	4840551	1.32920994e+12	110.156540997
1408227828099	68	3902664	367400	381	15	37.44791241	-122.1637006	4840551	1.4338387536e+12	110.156540997
1408227828117	68	3899421	366300	382	15	37.44791241	-122.1637006	4840551	1.4283579123e+12	110.156540997
1408227828169	68	3893820	367400	381	15	37.44791241	-122.1637006	4840551	1.430589468e+12	110.156540997
1408227828190	68	3911211	291200	381	15	37.44791241	-122.1637006	4840551	1.1389446432e+12	110.156540997
1408227828211	68	3913863	328400	381	15	37.44791241	-122.1637006	4840551	1.2853126092e+12	110.156540997
1408227828284	68	3916809	295800	381	15	37.44791241	-122.1637006	4840551	1.1585921022e+12	110.156540997
1408227828308	68	3903546	286100	382	15	37.44791241	-122.1637006	4840551	1.1168045106e+12	110.156540997
1408227828331	68	3905022	403100	382	15	37.44791241	-122.1637006	4840551	1.5741143682e+12	110.156540997
1408227828348	68	3886158	427000	382	15	37.44791241	-122.1637006	4840551	1.659389466e+12	110.156540997
1408227828379	68	3907968	502200	381	15	37.44791241	-122.1637006	4840551	1.9625815296e+12	110.156540997
1408227828396	68	3901779	300300	381	15	37.44791241	-122.1637006	4840551	1.1717042337e+12	110.156540997
1408227828416	68	3902367	314700	381	15	37.44791241	-122.1637006	4840551	1.2280748949e+12	110.156540997
1408227828448	68	3895296	374300	381	15	37.44791241	-122.1637006	4840551	1.4580092928e+12	110.156540997
1408227828467	68	3904137	348000	381	15	37.44791241	-122.1637006	4840551	1.358639676e+12	110.156540997
1408227828489	68	3912387	282000	381	15	37.44791241	-122.1637006	4840551	1.103293134e+12	110.156540997
1408227828539	68	3912684	326200	381	15	37.44791241	-122.1637006	4840551	1.2763175208e+12	110.156540997
1408227828559	68	3906198	301500	381	15	37.44791241	-122.1637006	4840551	1.177718697e+12	110.156540997
1408227828580	68	3916221	341100	381	15	37.44791241	-122.1637006	4840551	1.3358229831e+12	110.156540997
1408227828664	68	3920640	273400	381	15	37.44791241	-122.1637006	4840551	1.071902976e+12	110.156540997
1408227828691	68	3904431	304300	382	15	37.44791241	-122.1637006	4840551	1.1881183533e+12	110.156540997
1408227828712	68	3919755	313500	382	15	37.44791241	-122.1637006	4840551	1.2288431925e+12	110.156540997
1408227828736	68	3914157	330200	382	15	37.44791241	-122.1637006	4840551	1.2924546414e+12	110.156540997
1408227828818	68	3918873	311200	381	15	37.44791241	-122.1637006	4840551	1.2195532776e+12	110.156540997
1408227828841	68	3920640	271700	381	15	37.44791241	-122.1637006	4840551	1.065237888e+12	110.156540997
1408227828872	68	3916515	298600	382	15	37.44791241	-122.1637006	4840551	1.169471379e+12	110.156540997
1408227828940	68	3895884	400100	381	15	37.44791241	-122.1637006	4840551	1.5587431884e+12	110.156540997
1408227828958	68	3894999	337100	381	15	37.44791241	-122.1637006	4840551	1.3130041629e+12	110.156540997
1408227828977	68	3898536	387500	381	15	37.44791241	-122.1637006	4840551	1.5106827e+12	110.156540997
1408227829013	68	3905610	283700	381	15	37.44791241	-122.1637006	4840551	1.108021557e+12	110.156540997
1408227829033	68	3912978	341600	381	15	37.44791241	-122.1637006	4840551	1.3366732848e+12	110.156540997
1408227829050	68	3914157	344500	382	15	37.44791241	-122.1637006	4840551	1.3484270865e+12	110.156540997
1408227829085	68	3901188	383500	382	15	37.44791241	-122.1637006	4840551	1.496105598e+12	110.156540997
1408227829106	68	3900009	372600	382	15	37.44791241	-122.1637006	4840551	1.4531433534e+12	110.156540997
1408227829125	68	3892938	396700	381	15	37.44791241	-122.1637006	4840551	1.5443285046e+12	110.156540997
1408227829147	68	3910326	305500	381	15	37.44791241	-122.1637006	4840551	1.194604593e+12	110.156540997
1408227829198	68	3912387	438600	381	15	37.44791241	-122.1637006	4840551	1.7159729382e+12	110.156540997
1408227829217	68	3912978	306700	381	15	37.44791241	-122.1637006	4840551	1.2001103526e+12	110.156540997
1408227829244	68	3916809	262500	382	15	37.44791241	-122.1637006	4840551	1.0281623625e+12	110.156540997
1408227829335	68	3916809	262500	382	15	37.44779265	-122.16382542	4840551	1.0281623625e+12	127.43828038
1408227829339	68	3897948	293500	381	15	37.44779265	-122.16382542	4840551	1.144047738e+12	127.43828038
1408227829359	68	3898242	460300	381	15	37.44779265	-122.16382542	4840551	1.7943607926e+12	127.43828038
1408227829379	68	3900894	317000	381	15	37.44779265	-122.16382542	4840551	1.236583398e+12	127.43828038
1408227829415	68	3903546	360600	382	15	37.44779265	-122.16382542	4840551	1.4076186876e+12	127.43828038
1408227829435	68	3898830	368600	382	15	37.44779265	-122.16382542	4840551	1.437108738e+12	127.43828038
1408227829456	68	3901188	324400	382	15	37.44779265	-122.16382542	4840551	1.2655453872e+12	127.43828038
1408227829493	68	3896475	437400	382	15	37.44779265	-122.16382542	4840551	1.704318165e+12	127.43828038
1408227829513	68	3908556	338800	382	15	37.44779265	-122.16382542	4840551	1.3242187728e+12	127.43828038
1408227829534	68	3912978	382300	381	15	37.44779265	-122.16382542	4840551	1.4959314894e+12	127.43828038
1408227829553	68	3918873	279700	381	15	37.44779265	-122.16382542	4840551	1.0961087781e+12	127.43828038
1408227829602	68	3909441	383000	380	15	37.44779265	-122.16382542	4840551	1.497315903e+12	127.43828038
1408227829623	68	3918282	283200	382	15	37.44779265	-122.16382542	4840551	1.1096574624e+12	127.43828038
1408227829646	68	3920934	281400	380	15	37.44779265	-122.16382542	4840551	1.1033508276e+12	127.43828038
1408227829749	68	3890580	264800	380	15	37.44779265	-122.16382542	4840551	1.030225584e+12	127.43828038
1408227829765	68	3893526	513700	381	15	37.44779265	-122.16382542	4840551	2.0001043062e+12	127.43828038
1408227829787	68	3901188	408100	381	15	37.44779265	-122.16382542	4840551	1.5920748228e+12	127.43828038
1408227829826	68	3903843	298600	382	15	37.44779265	-122.16382542	4840551	1.1656875198e+12	127.43828038
1408227829846	68	3894999	370300	382	15	37.44779265	-122.16382542	4840551	1.4423181297e+12	127.43828038
1408227829867	68	3902367	282600	382	15	37.44779265	-122.16382542	4840551	1.1028089142e+12	127.43828038
1408227829902	68	3903252	352000	381	15	37.44779265	-122.16382542	4840551	1.373944704e+12	127.43828038
1408227829924	68	3913272	315900	381	15	37.44779265	-122.16382542	4840551	1.2362026248e+12	127.43828038
1408227829943	68	3906495	365700	381	15	37.44779265	-122.16382542	4840551	1.4286052215e+12	127.43828038
1408227829966	68	3920346	356000	381	15	37.44779265	-122.16382542	4840551	1.395643176e+12	127.43828038
1408227830043	68	3912684	306100	381	15	37.44779265	-122.16382542	4840551	1.1976725724e+12	127.43828038
1408227830062	68	3910620	337600	381	15	37.44779265	-122.16382542	4840551	1.320225312e+12	127.43828038
1408227830082	68	3913272	314700	381	15	37.44779265	-122.16382542	4840551	1.2315066984e+12	127.43828038
1408227830117	68	3902958	341100	381	15	37.44779265	-122.16382542	4840551	1.3312989738e+12	127.43828038
1408227830137	68	3900600	327900	381	15	37.44779265	-122.16382542	4840551	1.27900674e+12	127.43828038
1408227830156	68	3897063	335300	381	15	37.44779265	-122.16382542	4840551	1.3066852239e+12	127.43828038
1408227830194	68	3898830	298100	382	15	37.44779265	-122.16382542	4840551	1.162241223e+12	127.43828038
1408227830213	68	3907377	439100	382	15	37.44779265	-122.16382542	4840551	1.7157292407e+12	127.43828038
1408227830240	68	3908556	322200	382	15	37.44779265	-122.16382542	4840551	1.2593367432e+12	127.43828038
1408227830292	68	3914157	310200	381	15	37.44779265	-122.16382542	4840551	1.2141715014e+12	127.43828038
1408227830317	68	3917694	301000	381	15	37.44779265	-122.16382542	4840551	1.179225894e+12	127.43828038
1408227830373	68	3919461	292300	382	15	37.44779265	-122.16382542	4840551	1.1456584503e+12	127.43828038
1408227830390	68	3899127	322700	381	15	37.44779265	-122.16382542	4840551	1.2582482829e+12	127.43828038
1408227830423	68	3910326	466700	381	15	37.44779265	-122.16382542	4840551	1.8249491442e+12	127.43828038
1408227830439	68	3910914	331300	381	15	37.44779265	-122.16382542	4840551	1.2956858082e+12	127.43828038
1408227830459	68	3899421	392100	381	15	37.44779265	-122.16382542	4840551	1.5289629741e+12	127.43828038
1408227830493	68	3909735	367400	381	15	37.44779265	-122.16382542	4840551	1.436436639e+12	127.43828038
1408227830512	68	3910620	360600	381	15	37.44779265	-122.16382542	4840551	1.410169572e+12	127.43828038
1408227830529	68	3913863	302100	381	15	37.44779265	-122.16382542	4840551	1.1823780123e+12	127.43828038
1408227830566	68	3902367	395000	382	15	37.44779265	-122.16382542	4840551	1.541434965e+12	127.43828038
1408227830587	68	3913566	358200	382	15	37.44779265	-122.16382542	4840551	1.4018393412e+12	127.43828038
1408227830607	68	3911799	287700	382	15	37.44779265	-122.16382542	4840551	1.1254245723e+12	127.43828038
1408227830690	68	3911211	316400	381	15	37.44779265	-122.16382542	4840551	1.2375071604e+12	127.43828038
1408227830707	68	3896475	336500	382	15	37.44779265	-122.16382542	4840551	1.3111638375e+12	127.43828038
1408227830726	68	3902073	386400	381	15	37.44779265	-122.16382542	4840551	1.5077610072e+12	127.43828038
1408227830746	68	3904137	335300	382	15	37.44779265	-122.16382542	4840551	1.3090571361e+12	127.43828038
1408227830783	68	3895884	483300	382	15	37.44779265	-122.16382542	4840551	1.8828807372e+12	127.43828038
1408227830798	68	3911799	419000	381	15	37.44779265	-122.16382542	4840551	1.639043781e+12	127.43828038
1408227830816	68	3900600	350200	381	15	37.44779265	-122.16382542	4840551	1.36599012e+12	127.43828038
1408227830850	68	3910914	360000	381	15	37.44779265	-122.16382542	4840551	1.40792904e+12	127.43828038
1408227830868	68	3904137	333600	381	15	37.44779265	-122.16382542	4840551	1.3024201032e+12	127.43828038
1408227830894	68	3919167	344500	380	15	37.44779265	-122.16382542	4840551	1.3501530315e+12	127.43828038
1408227830940	68	3914157	323300	382	15	37.44779265	-122.16382542	4840551	1.2654469581e+12	127.43828038
1408227830963	68	3916515	346800	382	15	37.44779265	-122.16382542	4840551	1.358247402e+12	127.43828038
1408227830996	68	3916515	324400	382	15	37.44779265	-122.16382542	4840551	1.270517466e+12	127.43828038
1408227831066	68	3917988	274000	380	15	37.44779265	-122.16382542	4840551	1.073528712e+12	127.43828038
1408227831099	68	3920640	272800	380	15	37.44779265	-122.16382542	4840551	1.069550592e+12	127.43828038
1408227831122	68	3913863	278500	382	15	37.44779265	-122.16382542	4840551	1.0900108455e+12	127.43828038
1408227831146	68	3921525	291200	381	15	37.44779265	-122.16382542	4840551	1.14194808e+12	127.43828038
1408227831230	68	3917694	303300	380	15	37.44779265	-122.16382542	4840551	1.1882365902e+12	127.43828038
1408227831253	68	3912093	401900	381	15	37.44779265	-122.16382542	4840551	1.5722701767e+12	127.43828038
1408227831275	68	3915336	302100	382	15	37.44779265	-122.16382542	4840551	1.1828230056e+12	127.43828038
1408227831308	68	3903546	342800	382	15	37.44779265	-122.16382542	4840551	1.3381355688e+12	127.43828038
1408227831327	68	3899421	472900	382	15	37.44779265	-122.16382542	4840551	1.8440361909e+12	127.43828038
1408227831331	68	3899421	472900	382	15	37.44768256	-122.16394586	4840551	1.8440361909e+12	143.651525979
1408227831344	68	3887631	490100	382	15	37.44768256	-122.16394586	4840551	1.9053279531e+12	143.651525979
1408227831377	68	3906789	504500	381	15	37.44768256	-122.16394586	4840551	1.9709750505e+12	143.651525979
1408227831396	68	3901779	377800	381	15	37.44768256	-122.16394586	4840551	1.4740921062e+12	143.651525979
1408227831417	68	3913566	258500	381	15	37.44768256	-122.16394586	4840551	1.011656811e+12	143.651525979
1408227831463	68	3909735	313000	381	15	37.44768256	-122.16394586	4840551	1.223747055e+12	143.651525979
1408227831482	68	3920346	279200	380	15	37.44768256	-122.16394586	4840551	1.0945606032e+12	143.651525979
1408227831503	68	3916515	325600	381	15	37.44768256	-122.16394586	4840551	1.275217284e+12	143.651525979
1408227831526	68	3918282	321000	381	15	37.44768256	-122.16394586	4840551	1.257768522e+12	143.651525979
1408227831599	68	3921525	286100	380	15	37.44768256	-122.16394586	4840551	1.1219483025e+12	143.651525979
1408227831634	68	3920934	263600	380	15	37.44768256	-122.16394586	4840551	1.0335582024e+12	143.651525979
1408227831656	68	3918873	321600	381	15	37.44768256	-122.16394586	4840551	1.2603095568e+12	143.651525979
1408227831737	68	3914745	276300	381	15	37.44768256	-122.16394586	4840551	1.0816440435e+12	143.651525979
1408227831756	68	3898830	319200	381	15	37.44768256	-122.16394586	4840551	1.244506536e+12	143.651525979
1408227831776	68	3901485	299800	382	15	37.44768256	-122.16394586	4840551	1.169665203e+12	143.651525979
1408227831809	68	3902367	356000	380	15	37.44768256	-122.16394586	4840551	1.389242652e+12	143.651525979
1408227831832	68	3904137	377800	381	15	37.44768256	-122.16394586	4840551	1.4749829586e+12	143.651525979
1408227831850	68	3910326	372100	381	15	37.44768256	-122.16394586	4840551	1.4550323046e+12	143.651525979
1408227831884	68	3900306	349700	381	15	37.44768256	-122.16394586	4840551	1.3639370082e+12	143.651525979
1408227831905	68	3902367	360600	381	15	37.44768256	-122.16394586	4840551	1.4071935402e+12	143.651525979
1408227831926	68	3914157	298100	381	15	37.44768256	-122.16394586	4840551	1.1668102017e+12	143.651525979
1408227831948	68	3912978	385800	380	15	37.44768256	-122.16394586	4840551	1.5096269124e+12	143.651525979
1408227832007	68	3914451	330200	381	15	37.44768256	-122.16394586	4840551	1.2925517202e+12	143.651525979
1408227832038	68	3923589	260300	381	15	37.44768256	-122.16394586	4840551	1.0213102167e+12	143.651525979
1408227832060	68	3918873	279700	381	15	37.44768256	-122.16394586	4840551	1.0961087781e+12	143.651525979
1408227832137	68	3924177	259600	381	15	37.44768256	-122.16394586	4840551	1.0187163492e+12	143.651525979
1408227832159	68	3900600	260800	381	15	37.44768256	-122.16394586	4840551	1.01727648e+12	143.651525979
1408227832179	68	3905022	364100	381	15	37.44768256	-122.16394586	4840551	1.4218185102e+12	143.651525979
1408227832214	68	3905316	286100	381	15	37.44768256	-122.16394586	4840551	1.1173109076e+12	143.651525979
1408227832239	68	3902367	299300	381	15	37.44768256	-122.16394586	4840551	1.1679784431e+12	143.651525979
1408227832259	68	3901188	365700	381	15	37.44768256	-122.16394586	4840551	1.4266644516e+12	143.651525979
1408227832293	68	3902073	346200	381	15	37.44768256	-122.16394586	4840551	1.3508976726e+12	143.651525979
1408227832312	68	3911505	381800	381	15	37.44768256	-122.16394586	4840551	1.493412609e+12	143.651525979
1408227832344	68	3919167	389200	380	15	37.44768256	-122.16394586	4840551	1.5253397964e+12	143.651525979
1408227832362	68	3910326	352000	380	15	37.44768256	-122.16394586	4840551	1.376434752e+12	143.651525979
1408227832399	68	3900009	468900	381	15	37.44768256	-122.16394586	4840551	1.8287142201e+12	143.651525979
1408227832441	68	3888516	485600	381	15	37.44768256	-122.16394586	4840551	1.8882633696e+12	143.651525979
1408227832459	68	3898830	341100	381	15	37.44768256	-122.16394586	4840551	1.329890913e+12	143.651525979
1408227832492	68	3910032	350800	381	15	37.44768256	-122.16394586	4840551	1.3716392256e+12	143.651525979
1408227832512	68	3900600	348000	381	15	37.44768256	-122.16394586	4840551	1.3574088e+12	143.651525979
1408227832531	68	3905610	313500	380	15	37.44768256	-122.16394586	4840551	1.224408735e+12	143.651525979
1408227832566	68	3911505	376600	381	15	37.44768256	-122.16394586	4840551	1.473072783e+12	143.651525979
1408227832589	68	3914157	360600	380	15	37.44768256	-122.16394586	4840551	1.4114450142e+12	143.651525979
1408227832612	68	3916221	270500	380	15	37.44768256	-122.16394586	4840551	1.0593377805e+12	143.651525979
1408227832687	68	3921231	291800	381	15	37.44768256	-122.16394586	4840551	1.1442152058e+12	143.651525979
1408227832706	68	3906495	283200	381	15	37.44768256	-122.16394586	4840551	1.106319384e+12	143.651525979
1408227832726	68	3906198	299800	381	15	37.44768256	-122.16394586	4840551	1.1710781604e+12	143.651525979
1408227832745	68	3903843	334100	381	15	37.44768256	-122.16394586	4840551	1.3042739463e+12	143.651525979
1408227832778	68	3900894	477600	381	15	37.44768256	-122.16394586	4840551	1.8630669744e+12	143.651525979
1408227832795	68	3897357	449500	380	15	37.44768256	-122.16394586	4840551	1.7518619715e+12	143.651525979
1408227832812	68	3909147	458600	381	15	37.44768256	-122.16394586	4840551	1.7927348142e+12	143.651525979
1408227832850	68	3901188	298100	381	15	37.44768256	-122.16394586	4840551	1.1629441428e+12	143.651525979
1408227832867	68	3902073	348000	381	15	37.44768256	-122.16394586	4840551	1.357921404e+12	143.651525979
1408227832889	68	3913566	350800	380	15	37.44768256	-122.16394586	4840551	1.3728789528e+12	143.651525979
1408227832937	68	3917988	270000	381	15	37.44768256	-122.16394586	4840551	1.05785676e+12	143.651525979
1408227832975	68	3909735	352500	380	15	37.44768256	-122.16394586	4840551	1.3781815875e+12	143.651525979
1408227832991	68	3892641	357700	381	15	37.44768256	-122.16394586	4840551	1.3923976857e+12	143.651525979
1408227833032	68	3894411	491300	380	15	37.44768256	-122.16394586	4840551	1.9133241243e+12	143.651525979
1408227833048	68	3893232	468900	380	15	37.44768256	-122.16394586	4840551	1.8255364848e+12	143.651525979
1408227833064	68	3887043	476400	380	15	37.44768256	-122.16394586	4840551	1.8517872852e+12	143.651525979
1408227833081	68	3892641	485600	381	15	37.44768256	-122.16394586	4840551	1.8902664696e+12	143.651525979
1408227833119	68	3897357	495800	381	15	37.44768256	-122.16394586	4840551	1.9323096006e+12	143.651525979
1408227833137	68	3899127	365100	381	15	37.44768256	-122.16394586	4840551	1.4235712677e+12	143.651525979
1408227833156	68	3898536	383500	381	15	37.44768256	-122.16394586	4840551	1.495088556e+12	143.651525979
1408227833190	68	3907083	323300	381	15	37.44768256	-122.16394586	4840551	1.2631599339e+12	143.651525979
1408227833206	68	3904725	304300	381	15	37.44768256	-122.16394586	4840551	1.1882078175e+12	143.651525979
1408227833226	68	3906789	277400	381	15	37.44768256	-122.16394586	4840551	1.0837432686e+12	143.651525979
1408227833334	68	3906789	277400	381	15	37.44760902	-122.16402297	4840551	1.0837432686e+12	154.289809699
1408227833335	68	3921231	260300	380	15	37.44760902	-122.16402297	4840551	1.0206964293e+12	154.289809699
1408227833351	68	3899127	441400	380	15	37.44760902	-122.16402297	4840551	1.7210746578e+12	154.289809699
1408227833368	68	3904725	365100	381	15	37.44760902	-122.16402297	4840551	1.4256150975e+12	154.289809699
1408227833405	68	3907674	353200	381	15	37.44760902	-122.16402297	4840551	1.3801904568e+12	154.289809699
1408227833426	68	3905316	294600	381	15	37.44760902	-122.16402297	4840551	1.1505060936e+12	154.289809699
1408227833446	68	3909441	331300	381	15	37.44760902	-122.16402297	4840551	1.2951978033e+12	154.289809699
1408227833466	68	3910032	247100	381	15	37.44760902	-122.16402297	4840551	9.661689072e+11	154.289809699
1408227833499	68	3914745	450600	381	15	37.44760902	-122.16402297	4840551	1.763984097e+12	154.289809699
1408227833518	68	3905904	406400	380	15	37.44760902	-122.16402297	4840551	1.5873593856e+12	154.289809699
1408227833537	68	3912093	307200	380	15	37.44760902	-122.16402297	4840551	1.2017949696e+12	154.289809699
1408227833580	68	3922410	260800	380	15	37.44760902	-122.16402297	4840551	1.022964528e+12	154.289809699
1408227833599	68	3919461	255600	380	15	37.44760902	-122.16402297	4840551	1.0018142316e+12	154.289809699
1408227833619	68	3919461	326200	380	15	37.44760902	-122.16402297	4840551	1.2785281782e+12	154.289809699
1408227833687	68	3922410	273400	381	15	37.44760902	-122.16402297	4840551	1.072386894e+12	154.289809699
1408227833707	68	3909441	267100	381	15	37.44760902	-122.16402297	4840551	1.0442116911e+12	154.289809699
1408227833727	68	3907674	333600	381	15	37.44760902	-122.16402297	4840551	1.3036000464e+12	154.289809699
1408227833762	68	3907674	348500	381	15	37.44760902	-122.16402297	4840551	1.361824389e+12	154.289809699
1408227833779	68	3914745	309500	382	15	37.44760902	-122.16402297	4840551	1.2116135775e+12	154.289809699
1408227833796	68	3907968	256200	381	15	37.44760902	-122.16402297	4840551	1.0012214016e+12	154.289809699
1408227833815	68	3907083	312400	381	15	37.44760902	-122.16402297	4840551	1.2205727292e+12	154.289809699
1408227833847	68	3903843	472900	380	15	37.44760902	-122.16402297	4840551	1.8461273547e+12	154.289809699
1408227833866	68	3907968	270000	381	15	37.44760902	-122.16402297	4840551	1.05515136e+12	154.289809699
1408227833889	68	3920346	316400	380	15	37.44760902	-122.16402297	4840551	1.2403974744e+12	154.289809699
1408227833945	68	3916515	255600	380	15	37.44760902	-122.16402297	4840551	1.001061234e+12	154.289809699
1408227833969	68	3918579	288900	380	15	37.44760902	-122.16402297	4840551	1.1320774731e+12	154.289809699
1408227833991	68	3924177	251100	380	15	37.44760902	-122.16402297	4840551	9.853608447e+11	154.289809699
1408227834075	68	3927420	267100	380	15	37.44760902	-122.16402297	4840551	1.049013882e+12	154.289809699
1408227834100	68	3919167	249900	380	15	37.44760902	-122.16402297	4840551	9.793998333e+11	154.289809699
1408227834124	68	3922704	273400	381	15	37.44760902	-122.16402297	4840551	1.0724672736e+12	154.289809699
1408227834214	68	3922113	294100	380	15	37.44760902	-122.16402297	4840551	1.1534934333e+12	154.289809699
1408227834240	68	3918282	286600	380	15	37.44760902	-122.16402297	4840551	1.1229796212e+12	154.289809699
1408227834264	68	3923589	263600	380	15	37.44760902	-122.16402297	4840551	1.0342580604e+12	154.289809699
1408227834287	68	3919461	274500	380	15	37.44760902	-122.16402297	4840551	1.0758920445e+12	154.289809699
1408227834393	68	3904725	268800	380	15	37.44760902	-122.16402297	4840551	1.04959008e+12	154.289809699
1408227834410	68	3912978	444300	380	15	37.44760902	-122.16402297	4840551	1.7385361254e+12	154.289809699
1408227834427	68	3905610	371500	381	15	37.44760902	-122.16402297	4840551	1.450934115e+12	154.289809699
1408227834461	68	3904431	334100	381	15	37.44760902	-122.16402297	4840551	1.3044703971e+12	154.289809699
1408227834483	68	3913863	313000	381	15	37.44760902	-122.16402297	4840551	1.225039119e+12	154.289809699
1408227834502	68	3909147	360600	381	15	37.44760902	-122.16402297	4840551	1.4096384082e+12	154.289809699
1408227834536	68	3913863	299800	382	15	37.44760902	-122.16402297	4840551	1.1733761274e+12	154.289809699
1408227834555	68	3902664	400100	382	15	37.44760902	-122.16402297	4840551	1.5614558664e+12	154.289809699
1408227834576	68	3904725	305000	380	15	37.44760902	-122.16402297	4840551	1.190941125e+12	154.289809699
1408227834622	68	3917988	397900	380	15	37.44760902	-122.16402297	4840551	1.5589674252e+12	154.289809699
1408227834640	68	3923292	272300	380	15	37.44760902	-122.16402297	4840551	1.0683124116e+12	154.289809699
1408227834660	68	3919461	271200	380	15	37.44760902	-122.16402297	4840551	1.0629578232e+12	154.289809699
1408227834685	68	3915336	303300	381	15	37.44760902	-122.16402297	4840551	1.1875214088e+12	154.289809699
1408227834756	68	3922410	278500	380	15	37.44760902	-122.16402297	4840551	1.092391185e+12	154.289809699
1408227834788	68	3925062	249900	380	15	37.44760902	-122.16402297	4840551	9.808729938e+11	154.289809699
1408227834811	68	3920052	233800	380	15	37.44760902	-122.16402297	4840551	9.165081576e+11	154.289809699
1408227834893	68	3925062	249400	380	15	37.44760902	-122.16402297	4840551	9.789104628e+11	154.289809699
1408227834916	68	3913272	299300	381	15	37.44760902	-122.16402297	4840551	1.1712423096e+12	154.289809699
1408227834936	68	3906495	311200	381	15	37.44760902	-122.16402297	4840551	1.215701244e+12	154.289809699
1408227834972	68	3908853	223000	381	15	37.44760902	-122.16402297	4840551	8.71674219e+11	154.289809699
1408227834992	68	3906198	339300	381	15	37.44760902	-122.16402297	4840551	1.3253729814e+12	154.289809699
1408227835012	68	3903843	364100	381	15	37.44760902	-122.16402297	4840551	1.4213892363e+12	154.289809699
1408227835045	68	3917400	270000	381	15	37.44760902	-122.16402297	4840551	1.057698e+12	154.289809699
1408227835062	68	3907083	302100	381	15	37.44760902	-122.16402297	4840551	1.1803297743e+12	154.289809699
1408227835082	68	3916221	273400	381	15	37.44760902	-122.16402297	4840551	1.0706948214e+12	154.289809699
1408227835101	68	3920934	374300	380	15	37.44760902	-122.16402297	4840551	1.4676055962e+12	154.289809699
1408227835152	68	3915924	348000	380	15	37.44760902	-122.16402297	4840551	1.362741552e+12	154.289809699
1408227835174	68	3925356	258500	380	15	37.44760902	-122.16402297	4840551	1.014704526e+12	154.289809699
1408227835199	68	3920346	303300	380	15	37.44760902	-122.16402297	4840551	1.1890409418e+12	154.289809699
1408227835273	68	3920052	263100	380	15	37.44760902	-122.16402297	4840551	1.0313656812e+12	154.289809699
1408227835311	68	3920640	303800	380	15	37.44760902	-122.16402297	4840551	1.191090432e+12	154.289809699
1408227835346	68	3923292	278500	380	15	37.44760902	-122.16402297	4840551	1.092636822e+12	154.289809699
1408227835405	68	3894411	449500	381	15	37.44760902	-122.16402297	4840551	1.7505377445e+12	154.289809699
1408227835422	68	3901779	428800	381	15	37.44760902	-122.16402297	4840551	1.6730828352e+12	154.289809699
1408227835440	68	3901485	426500	381	15	37.44760902	-122.16402297	4840551	1.6639833525e+12	154.289809699
1408227835491	68	3905022	387500	381	15	37.44760902	-122.16402297	4840551	1.513196025e+12	154.289809699
1408227835509	68	3901779	413300	381	15	37.44760902	-122.16402297	4840551	1.6126052607e+12	154.289809699
1408227835526	68	3902958	405300	381	15	37.44760902	-122.16402297	4840551	1.5818688774e+12	154.289809699
1408227835544	68	3907674	412800	381	15	37.44760902	-122.16402297	4840551	1.6130878272e+12	154.289809699
1408227835595	68	3906789	416200	381	15	37.44760902	-122.16402297	4840551	1.6260055818e+12	154.289809699
1408227835615	68	3912387	364100	381	15	37.44760902	-122.16402297	4840551	1.4245001067e+12	154.289809699
1408227835635	68	3914451	337100	381	15	37.44760902	-122.16402297	4840551	1.3195614321e+12	154.289809699
1408227835707	68	3916221	340000	381	15	37.44760902	-122.16402297	4840551	1.33151514e+12	154.289809699
1408227835726	68	3917694	301500	381	15	37.44760902	-122.16402297	4840551	1.181184741e+12	154.289809699
1408227835746	68	3921819	304300	381	15	37.44760902	-122.16402297	4840551	1.1934095217e+12	154.289809699
1408227835809	68	3923292	276300	381	15	37.44760902	-122.16402297	4840551	1.0840055796e+12	154.289809699
1408227835830	68	3917103	299800	382	15	37.44760902	-122.16402297	4840551	1.1743474794e+12	154.289809699
1408227835858	68	3914745	322200	381	15	37.44760902	-122.16402297	4840551	1.261330839e+12	154.289809699
1408227835936	68	3923292	260800	381	15	37.44760902	-122.16402297	4840551	1.0231945536e+12	154.289809699
1408227835956	68	3905316	270000	380	15	37.44760902	-122.16402297	4840551	1.05443532e+12	154.289809699
1408227835977	68	3910620	310200	380	15	37.44760902	-122.16402297	4840551	1.213074324e+12	154.289809699
1408227835996	68	3903546	346800	382	15	37.44760902	-122.16402297	4840551	1.3537497528e+12	154.289809699
1408227836029	68	3911505	433400	380	15	37.44760902	-122.16402297	4840551	1.695246267e+12	154.289809699
1408227836046	68	3903252	282000	381	15	37.44760902	-122.16402297	4840551	1.100717064e+12	154.289809699
1408227836064	68	3915630	332500	380	15	37.44760902	-122.16402297	4840551	1.301946975e+12	154.289809699
1408227836097	68	3904137	296900	380	15	37.44760902	-122.16402297	4840551	1.1591382753e+12	154.289809699
1408227836116	68	3906789	275700	380	15	37.44760902	-122.16402297	4840551	1.0771017273e+12	154.289809699
1408227836145	68	3920052	299800	380	15	37.44760902	-122.16402297	4840551	1.1752315896e+12	154.289809699
1408227836195	68	3913566	284300	380	15	37.44760902	-122.16402297	4840551	1.1126268138e+12	154.289809699
1408227836217	68	3916809	250400	380	15	37.44760902	-122.16402297	4840551	9.807689736e+11	154.289809699
1408227836251	68	3922410	296300	380	15	37.44760902	-122.16402297	4840551	1.162210083e+12	154.289809699
1408227836342	68	3923589	263600	381	15	37.44760902	-122.16402297	4840551	1.0342580604e+12	154.289809699
1408227836358	68	3895296	449500	381	15	37.44760902	-122.16402297	4840551	1.750935552e+12	154.289809699
1408227836376	68	3904431	411000	381	15	37.44760902	-122.16402297	4840551	1.604721141e+12	154.289809699
1408227836396	68	3903546	372100	381	15	37.44760902	-122.16402297	4840551	1.4525094666e+12	154.289809699
1408227836429	68	3915042	448900	380	15	37.44760902	-122.16402297	4840551	1.7574623538e+12	154.289809699
1408227836447	68	3906198	275200	380	15	37.44760902	-122.16402297	4840551	1.0749856896e+12	154.289809699
1408227836466	68	3905904	290600	380	15	37.44760902	-122.16402297	4840551	1.1350557024e+12	154.289809699
1408227836500	68	3912978	340500	380	15	37.44760902	-122.16402297	4840551	1.332369009e+12	154.289809699
1408227836517	68	3897654	380600	380	15	37.44760902	-122.16402297	4840551	1.4834471124e+12	154.289809699
1408227836535	68	3911211	450600	380	15	37.44760902	-122.16402297	4840551	1.7623916766e+12	154.289809699
1408227836579	68	3906789	329100	381	15	37.44760902	-122.16402297	4840551	1.2857242599e+12	154.289809699
1408227836598	68	3917694	266000	380	15	37.44760902	-122.16402297	4840551	1.042106604e+12	154.289809699
1408227836619	68	3919755	274500	380	15	37.44760902	-122.16402297	4840551	1.0759727475e+12	154.289809699
1408227836717	68	3925356	258500	380	15	37.44760902	-122.16402297	4840551	1.014704526e+12	154.289809699
1408227836737	68	3904725	451100	380	15	37.44760902	-122.16402297	4840551	1.7614214475e+12	154.289809699
1408227836757	68	3902664	315200	381	15	37.44760902	-122.16402297	4840551	1.2301196928e+12	154.289809699
1408227836774	68	3915924	296900	381	15	37.44760902	-122.16402297	4840551	1.1626378356e+12	154.289809699
1408227836807	68	3905610	448300	380	15	37.44760902	-122.16402297	4840551	1.750884963e+12	154.289809699
1408227836826	68	3905610	334100	380	15	37.44760902	-122.16402297	4840551	1.304864301e+12	154.289809699
1408227836846	68	3903546	298600	380	15	37.44760902	-122.16402297	4840551	1.1655988356e+12	154.289809699
1408227836880	68	3913863	268800	380	15	37.44760902	-122.16402297	4840551	1.0520463744e+12	154.289809699
1408227836901	68	3918579	261300	380	15	37.44760902	-122.16402297	4840551	1.0239246927e+12	154.289809699
1408227836922	68	3925062	286600	380	15	37.44760902	-122.16402297	4840551	1.1249227692e+12	154.289809699
1408227836991	68	3922410	301000	380	15	37.44760902	-122.16402297	4840551	1.18064541e+12	154.289809699
1408227837014	68	3921231	250400	380	15	37.44760902	-122.16402297	4840551	9.818762424e+11	154.289809699
1408227837036	68	3921819	276300	380	15	37.44760902	-122.16402297	4840551	1.0835985897e+12	154.289809699
1408227837110	68	3922704	253400	381	15	37.44760902	-122.16402297	4840551	9.940131936e+11	154.289809699
1408227837140	68	3913566	280900	380	15	37.44760902	-122.16402297	4840551	1.0993206894e+12	154.289809699
1408227837162	68	3923589	285400	380	15	37.44760902	-122.16402297	4840551	1.1197923006e+12	154.289809699
1408227837186	68	3922410	249900	380	15	37.44760902	-122.16402297	4840551	9.80210259e+11	154.289809699
1408227837268	68	3921231	280900	380	15	37.44760902	-122.16402297	4840551	1.1014737879e+12	154.289809699
1408227837295	68	3917988	275200	380	15	37.44760902	-122.16402297	4840551	1.0782302976e+12	154.289809699
1408227837329	68	3919461	300300	380	15	37.44760902	-122.16402297	4840551	1.1770141383e+12	154.289809699
1408227837410	68	3897654	278500	380	15	37.44760902	-122.16402297	4840551	1.085496639e+12	154.289809699
1408227837426	68	3894117	463200	380	15	37.44760902	-122.16402297	4840551	1.8037549944e+12	154.289809699
1408227837443	68	3896475	470700	380	15	37.44760902	-122.16402297	4840551	1.8340707825e+12	154.289809699
1408227837486	68	3909735	447100	382	15	37.44760902	-122.16402297	4840551	1.7480425185e+12	154.289809699
1408227837501	68	3901779	420200	381	15	37.44760902	-122.16402297	4840551	1.6395275358e+12	154.289809699
1408227837517	68	3904137	422500	381	15	37.44760902	-122.16402297	4840551	1.6494978825e+12	154.289809699
1408227837546	68	3906789	412100	381	15	37.44760902	-122.16402297	4840551	1.6099877469e+12	154.289809699
1408227837561	68	3907674	368600	381	15	37.44760902	-122.16402297	4840551	1.4403686364e+12	154.289809699
1408227837576	68	3907674	356500	381	15	37.44760902	-122.16402297	4840551	1.393085781e+12	154.289809699
1408227837592	68	3897357	401900	381	15	37.44760902	-122.16402297	4840551	1.5663477783e+12	154.289809699
1408227837622	68	3899715	529800	381	15	37.44760902	-122.16402297	4840551	2.066069007e+12	154.289809699
1408227837637	68	3906789	383500	381	15	37.44760902	-122.16402297	4840551	1.4982535815e+12	154.289809699
1408227837652	68	3905904	356500	381	15	37.44760902	-122.16402297	4840551	1.392454776e+12	154.289809699
1408227837681	68	3898242	408100	382	15	37.44760902	-122.16402297	4840551	1.5908725602e+12	154.289809699
1408227837697	68	3904137	392100	381	15	37.44760902	-122.16402297	4840551	1.5308121177e+12	154.289809699
1408227837712	68	3904431	387000	381	15	37.44760902	-122.16402297	4840551	1.511014797e+12	154.289809699
1408227837742	68	3906789	362300	381	15	37.44760902	-122.16402297	4840551	1.4154296547e+12	154.289809699
1408227837757	68	3906495	408100	381	15	37.44760902	-122.16402297	4840551	1.5942406095e+12	154.289809699
1408227837772	68	3906198	373100	381	15	37.44760902	-122.16402297	4840551	1.4574024738e+12	154.289809699
1408227837802	68	3906789	389800	381	15	37.44760902	-122.16402297	4840551	1.5228663522e+12	154.289809699
1408227837818	68	3906198	366900	381	15	37.44760902	-122.16402297	4840551	1.4331840462e+12	154.289809699
1408227837835	68	3909147	401300	381	15	37.44760902	-122.16402297	4840551	1.5687406911e+12	154.289809699
1408227837851	68	3902664	369100	381	15	37.44760902	-122.16402297	4840551	1.4404732824e+12	154.289809699
1408227837906	68	3909735	391000	380	15	37.44760902	-122.16402297	4840551	1.528706385e+12	154.289809699
1408227837926	68	3903843	317000	380	15	37.44760902	-122.16402297	4840551	1.237518231e+12	154.289809699
1408227837946	68	3906495	255600	380	15	37.44760902	-122.16402297	4840551	9.98500122e+11	154.289809699
1408227837979	68	3913566	261300	380	15	37.44760902	-122.16402297	4840551	1.0226147958e+12	154.289809699
1408227837998	68	3908853	269400	380	15	37.44760902	-122.16402297	4840551	1.0530449982e+12	154.289809699
1408227838015	68	3902958	336500	380	15	37.44760902	-122.16402297	4840551	1.313345367e+12	154.289809699
1408227838085	68	3921231	319900	381	15	37.44760902	-122.16402297	4840551	1.2544017969e+12	154.289809699
1408227838102	68	3917988	231500	380	15	37.44760902	-122.16402297	4840551	9.07014222e+11	154.289809699
1408227838122	68	3905316	358200	380	15	37.44760902	-122.16402297	4840551	1.3988841912e+12	154.289809699
1408227838156	68	3909147	366900	380	15	37.44760902	-122.16402297	4840551	1.4342660343e+12	154.289809699
1408227838176	68	3904431	301000	380	15	37.44760902	-122.16402297	4840551	1.175233731e+12	154.289809699
1408227838197	68	3907377	249400	380	15	37.44760902	-122.16402297	4840551	9.744998238e+11	154.289809699
1408227838219	68	3904431	302600	380	15	37.44760902	-122.16402297	4840551	1.1814808206e+12	154.289809699
1408227838254	68	3910620	518300	381	15	37.44760902	-122.16402297	4840551	2.026874346e+12	154.289809699
1408227838275	68	3907083	269400	381	15	37.44760902	-122.16402297	4840551	1.0525681602e+12	154.289809699
1408227838297	68	3915336	402400	380	15	37.44760902	-122.16402297	4840551	1.5755312064e+12	154.289809699
1408227838389	68	3915336	402400	380	15	37.44750102	-122.16408687	4840551	1.5755312064e+12	167.543007188
1408227838394	68	3893232	322700	381	15	37.44750102	-122.16408687	4840551	1.2563459664e+12	167.543007188
1408227838412	68	3912093	466700	380	15	37.44750102	-122.16408687	4840551	1.8257738031e+12	167.543007188
1408227838430	68	3911505	299800	381	15	37.44750102	-122.16408687	4840551	1.172669199e+12	167.543007188
1408227838465	68	3906495	325100	381	15	37.44750102	-122.16408687	4840551	1.2700015245e+12	167.543007188
1408227838485	68	3908262	289400	380	15	37.44750102	-122.16408687	4840551	1.1310510228e+12	167.543007188
1408227838506	68	3906789	264800	381	15	37.44750102	-122.16408687	4840551	1.0345177272e+12	167.543007188
1408227838541	68	3900894	401900	381	15	37.44750102	-122.16408687	4840551	1.5677692986e+12	167.543007188
1408227838559	68	3906495	327300	380	15	37.44750102	-122.16408687	4840551	1.2785958135e+12	167.543007188
1408227838579	68	3907377	341100	380	15	37.44750102	-122.16408687	4840551	1.3328062947e+12	167.543007188
1408227838598	68	3917694	280200	380	15	37.44750102	-122.16408687	4840551	1.0977378588e+12	167.543007188
1408227838651	68	3917103	326200	380	15	37.44750102	-122.16408687	4840551	1.2777589986e+12	167.543007188
1408227838673	68	3923589	260300	380	15	37.44750102	-122.16408687	4840551	1.0213102167e+12	167.543007188
1408227838698	68	3922113	285400	380	15	37.44750102	-122.16408687	4840551	1.1193710502e+12	167.543007188
1408227838778	68	3919461	251600	381	15	37.44750102	-122.16408687	4840551	9.861363876e+11	167.543007188
1408227838801	68	3907968	333600	380	15	37.44750102	-122.16408687	4840551	1.3036981248e+12	167.543007188
1408227838819	68	3916221	299300	380	15	37.44750102	-122.16408687	4840551	1.1721249453e+12	167.543007188
1408227838855	68	3905316	284900	380	15	37.44750102	-122.16408687	4840551	1.1126245284e+12	167.543007188
1408227838876	68	3905316	318200	380	15	37.44750102	-122.16408687	4840551	1.2426715512e+12	167.543007188
1408227838895	68	3902958	351400	381	15	37.44750102	-122.16408687	4840551	1.3714994412e+12	167.543007188
1408227838931	68	3906789	258500	380	15	37.44750102	-122.16408687	4840551	1.0099049565e+12	167.543007188
1408227838949	68	3915924	315200	380	15	37.44750102	-122.16408687	4840551	1.2342992448e+12	167.543007188
1408227838970	68	3916515	340000	380	15	37.44750102	-122.16408687	4840551	1.3316151e+12	167.543007188
1408227838993	68	3915042	280200	381	15	37.44750102	-122.16408687	4840551	1.0969947684e+12	167.543007188
1408227839057	68	3922113	276900	380	15	37.44750102	-122.16408687	4840551	1.0860330897e+12	167.543007188
1408227839086	68	3924471	266500	380	15	37.44750102	-122.16408687	4840551	1.0458715215e+12	167.543007188
1408227839108	68	3923589	257900	380	15	37.44750102	-122.16408687	4840551	1.0118936031e+12	167.543007188
1408227839190	68	3909147	282000	381	15	37.44750102	-122.16408687	4840551	1.102379454e+12	167.543007188
1408227839207	68	3903252	310200	380	15	37.44750102	-122.16408687	4840551	1.2107887704e+12	167.543007188
1408227839226	68	3904725	336500	380	15	37.44750102	-122.16408687	4840551	1.3139399625e+12	167.543007188
1408227839261	68	3908262	369100	381	15	37.44750102	-122.16408687	4840551	1.4425395042e+12	167.543007188
1408227839283	68	3903546	296900	381	15	37.44750102	-122.16408687	4840551	1.1589628074e+12	167.543007188
1408227839305	68	3902073	384700	381	15	37.44750102	-122.16408687	4840551	1.5011274831e+12	167.543007188
1408227839342	68	3910326	336500	380	15	37.44750102	-122.16408687	4840551	1.315824699e+12	167.543007188
1408227839358	68	3902367	451800	380	15	37.44750102	-122.16408687	4840551	1.7630894106e+12	167.543007188
1408227839386	68	3905022	380100	380	15	37.44750102	-122.16408687	4840551	1.4842988622e+12	167.543007188
1408227839408	68	3915042	252200	380	15	37.44750102	-122.16408687	4840551	9.873735924e+11	167.543007188
1408227839472	68	3919755	296900	380	15	37.44750102	-122.16408687	4840551	1.1637752595e+12	167.543007188
1408227839502	68	3922410	291200	380	15	37.44750102	-122.16408687	4840551	1.142205792e+12	167.543007188
1408227839526	68	3922113	246400	380	15	37.44750102	-122.16408687	4840551	9.664086432e+11	167.543007188
1408227839614	68	3921819	248700	380	15	37.44750102	-122.16408687	4840551	9.753563853e+11	167.543007188
1408227839636	68	3925650	271200	380	15	37.44750102	-122.16408687	4840551	1.06463628e+12	167.543007188
1408227839660	68	3922113	257300	381	15	37.44750102	-122.16408687	4840551	1.0091596749e+12	167.543007188
1408227839743	68	3921525	271700	381	15	37.44750102	-122.16408687	4840551	1.0654783425e+12	167.543007188
1408227839763	68	3911505	330200	380	15	37.44750102	-122.16408687	4840551	1.291578951e+12	167.543007188
1408227839779	68	3914745	327300	381	15	37.44750102	-122.16408687	4840551	1.2812960385e+12	167.543007188
1408227839813	68	3907377	276300	380	15	37.44750102	-122.16408687	4840551	1.0796082651e+12	167.543007188
1408227839837	68	3906198	318200	380	15	37.44750102	-122.16408687	4840551	1.2429522036e+12	167.543007188
1408227839856	68	3905022	276900	380	15	37.44750102	-122.16408687	4840551	1.0813005918e+12	167.543007188
1408227839877	68	3907377	310700	381	15	37.44750102	-122.16408687	4840551	1.2140220339e+12	167.543007188
1408227839912	68	3912978	448300	380	15	37.44750102	-122.16408687	4840551	1.7541880374e+12	167.543007188
1408227839935	68	3914745	288900	381	15	37.44750102	-122.16408687	4840551	1.1309698305e+12	167.543007188
1408227839957	68	3915630	269400	380	15	37.44750102	-122.16408687	4840551	1.054870722e+12	167.543007188
1408227840055	68	3899421	281400	380	15	37.44750102	-122.16408687	4840551	1.0972970694e+12	167.543007188
1408227840074	68	3912684	346800	380	15	37.44750102	-122.16408687	4840551	1.3569188112e+12	167.543007188
1408227840097	68	3913863	311800	380	15	37.44750102	-122.16408687	4840551	1.2203424834e+12	167.543007188
1408227840135	68	3905904	300300	380	15	37.44750102	-122.16408687	4840551	1.1729429712e+12	167.543007188
1408227840157	68	3902664	301500	380	15	37.44750102	-122.16408687	4840551	1.176653196e+12	167.543007188
1408227840177	68	3900009	323900	380	15	37.44750102	-122.16408687	4840551	1.2632129151e+12	167.543007188
1408227840213	68	3906198	253400	380	15	37.44750102	-122.16408687	4840551	9.898305732e+11	167.543007188
1408227840235	68	3913863	330200	380	15	37.44750102	-122.16408687	4840551	1.2923575626e+12	167.543007188
1408227840263	68	3922113	241900	380	15	37.44750102	-122.16408687	4840551	9.487591347e+11	167.543007188
1408227840286	68	3921525	303800	381	15	37.44750102	-122.16408687	4840551	1.191359295e+12	167.543007188
