Time	SOD	Volt	Current	Temp	Signal	Latitude	Longitude	CellID	Power	Distance
1408225610853	92	4068750	0	372	20	37.44987610978126	-122.16180921407339	4818529	0.0	7.23031724617
1408225612868	92	4068750	0	372	20	37.44978626947744	-122.16189948903308	4818529	0.0	20.0063868342
1408225614826	92	4068750	0	372	18	37.44978626947744	-122.16189948903308	4818529	0.0	20.0063868342
1408225614889	92	4068750	0	372	18	37.44966221083386	-122.16202026263677	4818529	0.0	37.4357338507
1408225615825	92	4068750	0	372	17	37.44966221083386	-122.16202026263677	4818529	0.0	37.4357338507
1408225616818	92	4068750	0	372	17	37.44952277643965	-122.1621530232171	4818529	0.0	56.8646629533
1408225618820	92	4068750	0	372	18	37.44952277643965	-122.1621530232171	4818529	0.0	56.8646629533
1408225618846	92	4068750	0	372	18	37.449381949556674	-122.16228402653759	4818529	0.0	76.3239012148
1408225619850	92	4068750	0	372	19	37.449381949556674	-122.16228402653759	4818529	0.0	76.3239012148
1408225620821	92	4068750	0	372	19	37.44924677517501	-122.16241082124503	4818529	0.0	95.0575405199
1408225621824	92	4068750	0	372	20	37.44924677517501	-122.16241082124503	4818529	0.0	95.0575405199
1408225622852	92	4068750	0	372	20	37.44912227831707	-122.16253684124838	4818529	0.0	112.813187218
1408225624035	91	4100625	0	377	20	37.44912227831707	-122.16253684124838	4818529	0.0	112.813187218
1408225624808	91	4100625	0	377	20	37.449010800803165	-122.16266573986897	4818529	0.0	129.640740105
1408225626819	91	4100625	0	377	20	37.4489124670207	-122.16276883301438	4818529	0.0	143.86477873
1408225629810	91	4100625	0	377	20	37.44882940480184	-122.16285182970236	4818529	0.0	155.651190064
1408225630819	91	4100625	0	377	19	37.44882940480184	-122.16285182970236	4818529	0.0	155.651190064
1408225634836	91	4100625	0	377	19	37.44873602706161	-122.1629359214824	4818529	0.0	168.409392314
