Time	SOD	Volt	Current	Temp	Signal	Latitude	Longitude	CellID	Power	Distance
1408226956867	84	4039375	0	434	20	37.4482643956923	-122.15936013587684	4818529	0.0	13.4081884949
1408226979800	84	4039375	0	434	20	37.44818809572564	-122.15944524265127	4818529	0.0	24.7405918614
1408226981042	84	4039375	0	434	19	37.44818809572564	-122.15944524265127	4818529	0.0	24.7405918614
1408226983041	84	4039375	0	434	18	37.44818809572564	-122.15944524265127	4818529	0.0	24.7405918614
1408226983817	84	4039375	0	434	18	37.44811328190639	-122.15951836207046	4818529	0.0	35.2670475202
1408226987827	84	4039375	0	434	18	37.44803435395746	-122.15959592221573	4818529	0.0	46.3952429331
1408226991283	83	4012500	0	434	18	37.44803435395746	-122.15959592221573	4818529	0.0	46.3952429331
1408226991335	83	4012500	0	437	18	37.44803435395746	-122.15959592221573	4818529	0.0	46.3952429331
1408226991915	83	4012500	0	437	18	37.447952656825926	-122.15968650358336	4818529	0.0	58.4972483576
1408226998219	83	4012500	0	437	19	37.447952656825926	-122.15968650358336	4818529	0.0	58.4972483576
1408227002820	83	4012500	0	437	19	37.44787900929115	-122.1597563582103	4818529	0.0	68.7451203996
1408227014219	83	4012500	0	437	18	37.44787900929115	-122.1597563582103	4818529	0.0	68.7451203996
1408227032264	83	4012500	0	437	17	37.44787900929115	-122.1597563582103	4818529	0.0	68.7451203996
1408227035826	83	4012500	0	437	17	37.44780147729975	-122.15982218647551	4818529	0.0	79.136228577
1408227036262	83	4012500	0	437	18	37.44780147729975	-122.15982218647551	4818529	0.0	79.136228577
1408227037830	83	4012500	0	437	18	37.44771537856527	-122.15989140194553	4818529	0.0	90.4862846222
1408227038258	83	4012500	0	437	20	37.44771537856527	-122.15989140194553	4818529	0.0	90.4862846222
1408227039854	83	4012500	0	437	20	37.44760594720378	-122.15998390546461	4818529	0.0	105.132421734
1408227041856	83	4012500	0	437	20	37.44750482274064	-122.16008287676742	4818529	0.0	119.368341352
1408227043825	83	4012500	0	437	20	37.447398359090975	-122.16019426511771	4818529	0.0	134.755555449
1408227044330	83	4012500	0	437	21	37.447398359090975	-122.16019426511771	4818529	0.0	134.755555449
1408227045849	83	4012500	0	437	21	37.44730412236375	-122.16028896447558	4818529	0.0	148.157374968
1408227050824	83	4012500	0	437	21	37.447234782403825	-122.16036344384312	4818529	0.0	158.289459535
1408227051325	83	4012500	0	437	22	37.447234782403825	-122.16036344384312	4818529	0.0	158.289459535
1408227054828	83	4012500	0	437	22	37.447132195251356	-122.16047605846579	4818529	0.0	173.420077831
