Time	SOD	Volt	Current	Temp	Signal	Latitude	Longitude	CellID	Power	Distance
1408227308905	82	4015000	0	448	14	37.445229357330604	-122.16022878223643	4818529	0.0	17.9143856493
1408227310885	82	4015000	0	448	14	37.44536784782088	-122.16009037170424	4818529	0.0	37.5679957009
1408227311853	82	4015000	0	448	14	37.44543888213576	-122.16002068728582	4818529	0.0	47.5769010224
1408227313266	82	4015000	0	448	16	37.44543888213576	-122.16002068728582	4818529	0.0	47.5769010224
1408227313844	82	4015000	0	448	16	37.445579918983725	-122.159886746277	4818529	0.0	67.211037782
1408227314339	82	4015000	0	448	17	37.445579918983725	-122.159886746277	4818529	0.0	67.211037782
1408227315382	82	4015000	0	448	19	37.445579918983725	-122.159886746277	4818529	0.0	67.211037782
1408227315827	82	4015000	0	448	19	37.44572401344626	-122.15975226820748	4818529	0.0	87.1450945913
1408227316387	82	4015000	0	448	20	37.44572401344626	-122.15975226820748	4818529	0.0	87.1450945913
1408227317445	82	4015000	0	448	22	37.44572401344626	-122.15975226820748	4818529	0.0	87.1450945913
1408227317849	82	4015000	0	448	22	37.44586573949631	-122.15961839034176	4818529	0.0	106.836879302
1408227318444	82	4015000	0	448	23	37.44586573949631	-122.15961839034176	4818529	0.0	106.836879302
1408227319446	82	4015000	0	448	25	37.44586573949631	-122.15961839034176	4818529	0.0	106.836879302
1408227319820	82	4015000	0	448	25	37.445979873398706	-122.15949496525155	4818529	0.0	123.562427581
1408227321445	82	4015000	0	448	26	37.445979873398706	-122.15949496525155	4818529	0.0	123.562427581
1408227321824	82	4015000	0	448	26	37.446066074703104	-122.15939608912848	4818529	0.0	136.527088588
1408227324440	82	4015000	0	448	25	37.446066074703104	-122.15939608912848	4818529	0.0	136.527088588
1408227324820	82	4015000	0	448	25	37.44613838776635	-122.15931043191435	4818529	0.0	147.566295984
1408227336446	82	4015000	0	448	24	37.44613838776635	-122.15931043191435	4818529	0.0	147.566295984
1408227336870	82	4015000	0	448	24	37.44622939858488	-122.1592202015641	4818529	0.0	160.441797454
1408227337439	82	4015000	0	448	23	37.44622939858488	-122.1592202015641	4818529	0.0	160.441797454
1408227338878	82	4015000	0	448	23	37.4463422157273	-122.15910806613194	4818529	0.0	176.417972427
