Time	SOD	Volt	Current	Temp	Signal	Latitude	Longitude	CellID	Power	Distance
1408227298842	82	4003750	0	445	13	37.44458206213197	-122.16084381990846	4818529	0.0	12.1714070743
1408227300049	82	4003750	0	448	13	37.44458206213197	-122.16084381990846	4818529	0.0	12.1714070743
1408227300076	82	4015000	0	448	13	37.44458206213197	-122.16084381990846	4818529	0.0	12.1714070743
1408227300836	82	4015000	0	448	13	37.444705314048626	-122.16073216612729	4818529	0.0	29.0456875397
1408227300982	82	4015000	0	448	14	37.444705314048626	-122.16073216612729	4818529	0.0	29.0456875397
1408227302819	82	4015000	0	448	14	37.44483177989159	-122.16060504567406	4818529	0.0	47.0330563655
1408227304855	82	4015000	0	448	14	37.4449603411629	-122.16048487809394	4818529	0.0	64.8281163344
1408227306827	82	4015000	0	448	14	37.44509115429552	-122.16036146668095	4818529	0.0	82.995268659
