Time	SOD	Volt	Current	Temp	Signal	Latitude	Longitude	CellID	Power	Distance
1408227340870	82	4015000	0	448	23	37.44646229859035	-122.15898328184136	4818529	0.0	21.2158956856
1408227342854	82	4015000	0	448	23	37.44659075557346	-122.15886059114524	4818529	0.0	39.1359176712
1408227343447	82	4015000	0	448	24	37.44659075557346	-122.15886059114524	4818529	0.0	39.1359176712
1408227344872	82	4015000	0	448	24	37.44672360776113	-122.15872880222055	4818529	0.0	57.934969865
1408227345442	82	4015000	0	448	25	37.44672360776113	-122.15872880222055	4818529	0.0	57.934969865
1408227345854	82	4015000	0	448	25	37.44679526328451	-122.15865499052724	4818529	0.0	68.2260366765
1408227346826	82	4015000	0	448	25	37.44687719870977	-122.15857507738549	4818529	0.0	79.7455363642
1408227347820	82	4015000	0	448	25	37.44695178981906	-122.15850092234598	4818529	0.0	90.3092476275
1408227348833	82	4015000	0	448	25	37.447030884238536	-122.15842370027488	4818529	0.0	101.433651811
1408227349822	82	4015000	0	448	25	37.447103540238906	-122.15835357709454	4818529	0.0	111.60848211
1408227351826	82	4015000	0	448	25	37.44723509379806	-122.15823018271423	4818529	0.0	129.840288721
1408227352446	82	4015000	0	448	24	37.44723509379806	-122.15823018271423	4818529	0.0	129.840288721
1408227353443	82	4015000	0	448	23	37.44723509379806	-122.15823018271423	4818529	0.0	129.840288721
1408227353882	82	4015000	0	448	23	37.447341415377714	-122.15813288060012	4818529	0.0	144.447714783
1408227354438	82	4015000	0	448	22	37.447341415377714	-122.15813288060012	4818529	0.0	144.447714783
1408227355816	82	4015000	0	448	22	37.447436192669386	-122.15805790182532	4818529	0.0	156.884235294
1408227356439	82	4015000	0	448	21	37.447436192669386	-122.15805790182532	4818529	0.0	156.884235294
1408227358825	82	4015000	0	448	21	37.44755507015673	-122.1580404044698	4818529	0.0	170.168513031
1408227360825	82	4015000	0	448	21	37.44762067180789	-122.15811901914769	4818529	0.0	180.238370054
1408227362888	82	4015000	0	448	21	37.447696088559745	-122.15824297550039	4818529	0.0	194.035768544
1408227364846	82	4015000	0	448	21	37.447775631006174	-122.15836826788676	4818529	0.0	208.207937044
1408227366826	82	4015000	0	448	21	37.44783821919272	-122.15847384557874	4818529	0.0	219.849651555
1408227368853	82	4015000	0	448	21	37.44790754956437	-122.15858373094028	4818529	0.0	232.24934426
1408227370825	82	4015000	0	448	21	37.44797492519593	-122.15870455192025	4818529	0.0	245.295976019
1408227372499	82	4015000	0	448	20	37.44797492519593	-122.15870455192025	4818529	0.0	245.295976019
1408227372833	82	4015000	0	448	20	37.44804662068045	-122.15881431658303	4818529	0.0	257.851970365
1408227377831	82	4015000	0	448	20	37.448108092838254	-122.15890204613254	4818529	0.0	268.186823359
1408227387708	82	4015000	0	448	21	37.448108092838254	-122.15890204613254	4818529	0.0	268.186823359
1408227389846	82	4015000	0	448	21	37.44817719156146	-122.15900331310985	4818529	0.0	279.98123304
1408227396925	82	4015000	0	448	20	37.44817719156146	-122.15900331310985	4818529	0.0	279.98123304
1408227397846	82	4015000	0	448	20	37.44823938325954	-122.15913392575105	4818529	0.0	293.442956792
1408227399837	82	4015000	0	448	20	37.44829792103276	-122.15923897404735	4818529	0.0	304.783684555
