Time	SOD	Volt	Current	Temp	Signal	Latitude	Longitude	CellID	Power	Distance
1408225958818	89	4056250	0	428	22	37.447234795515364	-122.16029677927193	4818529	0.0	17.6356323808
1408225960847	89	4056250	0	428	22	37.44735132309316	-122.16017846368834	4818529	0.0	34.2750241573
1408225962822	89	4056250	0	428	22	37.44745899111799	-122.16006319597288	4818529	0.0	49.9857827288
1408225963374	89	4056250	0	428	21	37.44745899111799	-122.16006319597288	4818529	0.0	49.9857827288
1408225964829	89	4056250	0	428	21	37.4475294971209	-122.15998850192035	4818529	0.0	60.228744919
1408225965381	89	4056250	0	428	20	37.4475294971209	-122.15998850192035	4818529	0.0	60.228744919
1408225968424	89	4056250	0	428	21	37.4475294971209	-122.15998850192035	4818529	0.0	60.228744919
1408225980039	89	4056250	0	415	21	37.4475294971209	-122.15998850192035	4818529	0.0	60.228744919
1408225980074	88	4047500	0	415	21	37.4475294971209	-122.15998850192035	4818529	0.0	60.228744919
1408225987858	88	4047500	0	415	21	37.44760757946728	-122.15990415252077	4818529	0.0	71.6659180024
1408225988761	88	4047500	0	415	20	37.44760757946728	-122.15990415252077	4818529	0.0	71.6659180024
1408225990871	88	4047500	0	415	20	37.44772517143882	-122.1598061124012	4818529	0.0	87.3372400822
1408225991758	88	4047500	0	415	19	37.44772517143882	-122.1598061124012	4818529	0.0	87.3372400822
1408225992827	88	4047500	0	415	19	37.44783821499236	-122.1597146794691	4818529	0.0	102.265944102
1408225994830	88	4047500	0	415	19	37.44794102061165	-122.15962623534463	4818529	0.0	116.101978029
1408225996828	88	4047500	0	415	19	37.44806145124888	-122.15950835867388	4818529	0.0	133.056269325
1408225998756	88	4047500	0	415	20	37.44806145124888	-122.15950835867388	4818529	0.0	133.056269325
1408225998816	88	4047500	0	415	20	37.44817303159432	-122.15939540980142	4818529	0.0	148.970049668
1408226000841	88	4047500	0	415	21	37.44817303159432	-122.15939540980142	4818529	0.0	148.970049668
1408226002814	88	4047500	0	415	21	37.448246701663706	-122.15930947620096	4818529	0.0	160.135730588
1408226006834	88	4047500	0	415	21	37.44833748192608	-122.15920803942073	4818529	0.0	173.629297518
