Time	SOD	Volt	Current	Temp	Signal	Latitude	Longitude	CellID	Power	Distance
1408228187817	78	4005000	0	437	18	37.44523664816336	-122.16214087491407	4818530	0.0	9.87191132606
1408228189823	78	4005000	0	437	18	37.44517011218575	-122.16203448410381	4818530	0.0	21.8370376555
1408228191846	78	4005000	0	437	18	37.44509908425443	-122.16191566417157	4818530	0.0	34.9783742136
1408228193045	78	4005000	0	437	17	37.44509908425443	-122.16191566417157	4818530	0.0	34.9783742136
1408228193822	78	4005000	0	437	17	37.44503183266562	-122.16180852090035	4818530	0.0	47.0449416252
1408228194129	78	4005000	0	437	16	37.44503183266562	-122.16180852090035	4818530	0.0	47.0449416252
1408228195849	78	4005000	0	437	16	37.444977543438696	-122.16171774363835	4818530	0.0	57.0864418132
1408228197130	78	4005000	0	437	14	37.444977543438696	-122.16171774363835	4818530	0.0	57.0864418132
1408228197858	78	4005000	0	437	14	37.444907077105384	-122.16159689203326	4818530	0.0	70.3351925178
1408228199229	78	4005000	0	437	13	37.444907077105384	-122.16159689203326	4818530	0.0	70.3351925178
1408228199847	78	4005000	0	437	13	37.444828960530465	-122.1614658379993	4818530	0.0	84.8147381029
1408228201884	78	4005000	0	437	13	37.44474358284666	-122.16133178634317	4818530	0.0	99.9970818401
1408228202261	78	4005000	0	437	14	37.44474358284666	-122.16133178634317	4818530	0.0	99.9970818401
1408228203892	78	4005000	0	437	14	37.44466485766521	-122.16120603149525	4818530	0.0	114.145440153
1408228205842	78	4005000	0	437	14	37.44460163476115	-122.16111391750793	4818530	0.0	124.900822233
1408228208531	78	4005000	0	437	13	37.44460163476115	-122.16111391750793	4818530	0.0	124.900822233
1408228209584	78	4005000	0	437	12	37.44460163476115	-122.16111391750793	4818530	0.0	124.900822233
1408228214587	78	4005000	0	437	14	37.44460163476115	-122.16111391750793	4818530	0.0	124.900822233
1408228214822	78	4005000	0	437	14	37.44451247710598	-122.16103849596414	4818530	0.0	136.836456005
1408228216586	78	4005000	0	437	15	37.44451247710598	-122.16103849596414	4818530	0.0	136.836456005
