Time	SOD	Volt	Current	Temp	Signal	Latitude	Longitude	CellID	Power	Distance
1408227206824	82	4003750	0	445	11	37.44464135053832	-122.16272352568181	4818529	0.0	10.9458286697
1408227211072	82	4003750	0	445	11	37.4445683843063	-122.16263854323712	4818529	0.0	21.9972357294
1408227215832	82	4003750	0	445	11	37.444511344400254	-122.16251816837756	4818529	0.0	34.3884591298
1408227218862	82	4003750	0	445	11	37.44444031942806	-122.16239229042479	4818529	0.0	48.0345394127
1408227219606	82	4003750	0	445	12	37.44444031942806	-122.16239229042479	4818529	0.0	48.0345394127
1408227220602	82	4003750	0	445	14	37.44444031942806	-122.16239229042479	4818529	0.0	48.0345394127
1408227220818	82	4003750	0	445	14	37.444376830011564	-122.16229285132908	4818529	0.0	59.3076078531
1408227222818	82	4003750	0	445	14	37.44430666347778	-122.16219527218321	4818529	0.0	70.9354050746
1408227224611	82	4003750	0	445	15	37.44430666347778	-122.16219527218321	4818529	0.0	70.9354050746
1408227224821	82	4003750	0	445	15	37.44423439768772	-122.16210691956609	4818529	0.0	82.1360941453
1408227226828	82	4003750	0	445	15	37.444167491114825	-122.16202042149838	4818529	0.0	92.8004721961
1408227227644	82	4003750	0	445	13	37.444167491114825	-122.16202042149838	4818529	0.0	92.8004721961
1408227228644	82	4003750	0	445	12	37.444167491114825	-122.16202042149838	4818529	0.0	92.8004721961
1408227228819	82	4003750	0	445	12	37.44410418984115	-122.16193017985847	4818529	0.0	103.4366189
1408227231815	82	4003750	0	445	12	37.4440202128156	-122.1618055486072	4818529	0.0	117.87616851
1408227235638	82	4003750	0	445	13	37.4440202128156	-122.1618055486072	4818529	0.0	117.87616851
1408227259688	82	4003750	0	445	14	37.4440202128156	-122.1618055486072	4818529	0.0	117.87616851
1408227261835	82	4003750	0	445	14	37.44394128375545	-122.16169168254225	4818529	0.0	131.227809544
1408227265692	82	4003750	0	445	15	37.44394128375545	-122.16169168254225	4818529	0.0	131.227809544
1408227265828	82	4003750	0	445	15	37.44389818323154	-122.16155812456114	4818529	0.0	143.977917321
