Time	SOD	Volt	Current	Temp	Signal	Latitude	Longitude	CellID	Power	Distance
1408225917846	89	4056250	0	428	15	37.44599246239997	-122.16148521048906	4818529	0.0	14.9080369448
1408225918381	89	4056250	0	428	16	37.44599246239997	-122.16148521048906	4818529	0.0	14.9080369448
1408225919817	89	4056250	0	428	16	37.44611585771725	-122.16135177153384	4818529	0.0	32.9907181207
1408225921382	89	4056250	0	428	17	37.44611585771725	-122.16135177153384	4818529	0.0	32.9907181207
1408225921814	89	4056250	0	428	17	37.446222931833	-122.16125063189784	4818529	0.0	47.8675476308
1408225923849	89	4056250	0	428	17	37.446305664613746	-122.16117506051688	4818529	0.0	59.2267275025
1408225924381	89	4056250	0	428	18	37.446305664613746	-122.16117506051688	4818529	0.0	59.2267275025
1408225926815	89	4056250	0	428	18	37.44640684634144	-122.16107715654903	4818529	0.0	73.409856143
1408225928834	89	4056250	0	428	18	37.44648355549914	-122.16101425799012	4818529	0.0	83.5813865148
1408225930839	89	4056250	0	428	18	37.44658706461976	-122.16091701716445	4818529	0.0	97.9346334642
1408225931375	89	4056250	0	428	20	37.44658706461976	-122.16091701716445	4818529	0.0	97.9346334642
1408225932816	89	4056250	0	428	20	37.44670258889149	-122.1608029666753	4818529	0.0	114.251595026
1408225933380	89	4056250	0	428	21	37.44670258889149	-122.1608029666753	4818529	0.0	114.251595026
1408225934848	89	4056250	0	428	21	37.44678056732772	-122.16072353347245	4818529	0.0	125.400841176
1408225937380	89	4056250	0	428	22	37.44678056732772	-122.16072353347245	4818529	0.0	125.400841176
1408225939853	89	4056250	0	428	22	37.44685661480793	-122.16066139292764	4818529	0.0	135.474199413
1408225945823	89	4056250	0	428	22	37.44694007309283	-122.16060602360895	4818529	0.0	145.952881953
1408225954808	89	4056250	0	428	22	37.4470276282647	-122.16050962104211	4818529	0.0	158.883312809
1408225956844	89	4056250	0	428	22	37.447128044974036	-122.16040319031087	4818529	0.0	173.474486034
