Distance	Power
11.7690824137	1.38118957131e+12
27.5401253804	1.31888473402e+12
42.6091445232	1.37158887933e+12
57.9357936763	1.34079166708e+12
74.1701563407	1.37555795721e+12
89.9584041131	1.33989775617e+12
104.374541339	1.33485396075e+12
117.235841396	1.35292843892e+12
129.526828421	1.31840725358e+12
143.136849679	1.34023537785e+12
157.666061184	1.29715270844e+12
172.832369596	1.3086551499e+12
188.714223197	1.29880133242e+12
204.807263862	1.37970461045e+12
221.509022663	1.39342576408e+12
238.51271517	1.34119524323e+12
254.856775859	1.36840602058e+12
267.893364751	1.29921539911e+12
17.9321485327	1.2957646943e+12
33.8025941763	1.30755021522e+12
50.3047062683	1.18888475008e+12
66.2538129265	1.21549923845e+12
81.5250637045	1.18226523442e+12
96.5240720783	1.25559811746e+12
109.416897408	1.18112030871e+12
122.002664979	1.20299869631e+12
135.693563076	1.25119603317e+12
150.532534849	1.2147567003e+12
165.614201989	1.21075237853e+12
180.697990958	1.27178388424e+12
197.332579153	1.23829142158e+12
213.386585587	1.23299739105e+12
229.843277816	1.23605179137e+12
245.852549151	1.28730489371e+12
259.612166918	1.30203869453e+12
272.051714558	1.24500346381e+12
12.6390553105	1.34311777503e+12
27.7282498739	1.3336264736e+12
43.1692597113	1.54655898758e+12
58.2885711839	1.41960302656e+12
74.188196444	1.34420097677e+12
88.9510421081	1.35838383777e+12
103.201493317	1.57055749387e+12
116.838595956	1.29314832814e+12
129.083796501	1.23950956553e+12
143.238606767	1.29875174507e+12
157.24180844	1.54051496762e+12
172.436408247	1.30070802744e+12
188.226807389	1.31427171163e+12
203.59067126	1.29989391714e+12
220.453834018	1.61179619057e+12
237.095656523	1.455455036e+12
252.560272139	1.84183575372e+12
265.474978315	1.44859949149e+12
