Distance	Power
21.8047588986	1.34371905851e+12
32.9141478558	1.34682247016e+12
42.9774124651	1.33777466895e+12
57.5972903021	1.33114548156e+12
68.3060311316	1.38043690329e+12
78.6727119072	1.30057497492e+12
9.32732996907	1.30839192067e+12
20.0527650138	1.32229820851e+12
30.7662945135	1.27143818896e+12
45.0476206203	1.28828751854e+12
55.366707452	1.29891139697e+12
65.702177479	1.26534582522e+12
11.7355693815	1.49925054602e+12
23.7234150702	1.52709306408e+12
33.9366286351	1.46137303155e+12
46.0224306526	1.51869800786e+12
57.6283602804	1.85308576385e+12
69.5729522187	1.43769495244e+12
