Distance	Power
9.92981958913	1.30274027606e+12
23.8972703346	1.33947904051e+12
40.9588073051	1.29825153524e+12
58.1423178732	1.29575558491e+12
75.1443916078	1.25211762946e+12
91.5804294156	1.29344602549e+12
107.770725261	1.26641173985e+12
120.826965003	1.27782708924e+12
131.41809295	1.2837231577e+12
143.084189071	1.34750930997e+12
157.722037347	1.31489740657e+12
170.727275	1.31086121393e+12
184.631439267	1.28323878368e+12
198.904654343	1.31912346986e+12
213.308525727	1.37657746161e+12
229.136667049	1.29581370777e+12
244.080251446	1.34510261743e+12
256.914143428	1.29969853313e+12
268.788294399	1.29383696872e+12
8.58333003258	1.17099194713e+12
22.6097344139	1.23227498079e+12
38.2785796828	1.22594844929e+12
54.7417539065	1.19143659646e+12
71.7991209142	1.21442747846e+12
88.7711946546	1.15901692113e+12
104.864441531	1.26584962115e+12
117.250193868	1.12423293179e+12
127.37326861	1.13808861688e+12
139.838067129	1.21468036684e+12
153.893959087	1.13331557074e+12
167.568999723	1.15800397815e+12
180.742218382	1.18812823657e+12
195.088896178	1.19792361166e+12
210.180775711	1.17381100052e+12
225.535101397	1.20811519575e+12
240.615766273	1.18883393607e+12
252.667036218	1.21388115158e+12
264.068439406	1.20752526105e+12
274.551305882	1.22635104843e+12
13.5019989165	1.1936598078e+12
29.1022483821	1.17725643929e+12
46.3651083954	1.20071664162e+12
63.9165278752	1.3158999908e+12
80.1091907699	1.2498024105e+12
96.9442343932	1.26775685959e+12
111.183970234	1.26121014526e+12
121.391827618	1.29358382382e+12
136.418740986	1.26873718753e+12
151.049170275	1.28307542444e+12
165.005906586	1.27249216187e+12
179.987959828	1.25966048665e+12
194.282318269	1.2835595588e+12
210.278866814	1.24018019635e+12
227.708881856	1.22197115264e+12
240.442654038	1.23564433266e+12
252.839058098	1.23371720406e+12
264.753312158	1.64920599875e+12
276.70361564	2.42247369073e+12
