Distance	Power
17.7441401196	1.44725319638e+12
32.1486047797	1.38575818372e+12
47.665762885	1.36555452613e+12
64.2762517282	1.42425278839e+12
80.5640893321	1.35168199797e+12
95.2315551294	1.36400616893e+12
109.356372634	1.36330035552e+12
121.348866204	1.33426433848e+12
132.616092445	1.3289505193e+12
18.0270134853	1.39637134769e+12
32.0937687179	1.29603636873e+12
47.3115782778	1.3145034175e+12
63.602400714	1.30514245032e+12
79.7809817435	1.18561954495e+12
93.6713211973	1.23350267508e+12
107.859777395	1.20866454999e+12
121.320271024	1.26216675359e+12
131.420997006	1.19801735301e+12
28.4817544611	1.4311795391e+12
43.0201083717	1.42014612543e+12
58.3851967053	1.88898161139e+12
74.738926336	1.5088367653e+12
89.4753039151	1.64828252808e+12
102.625291953	1.36661745827e+12
116.295565496	1.33804520652e+12
129.412005189	1.26658590998e+12
