Distance	Power
12.9360975969	1.32410656216e+12
26.2467679428	1.34399403679e+12
39.2563977321	1.37518320803e+12
49.430041604	1.39819098039e+12
64.5579903872	1.47366944552e+12
79.1121183663	1.61619475315e+12
93.5681458071	1.43900355556e+12
109.015408296	1.52097855478e+12
119.49318219	1.39804431247e+12
131.928953952	1.50494943447e+12
14.2076293445	1.24862895773e+12
25.3675632073	1.29012181471e+12
38.0830046126	1.25083811763e+12
49.290014296	1.26924681958e+12
65.3092515314	1.27662787376e+12
79.7136212766	1.4244808585e+12
94.8602865367	1.55062810683e+12
109.651140973	1.44319346156e+12
122.169949459	1.40608102081e+12
133.046900025	1.32848364197e+12
12.087287902	1.25283604059e+12
24.8761109923	1.26594542643e+12
37.9084236989	1.36233793296e+12
47.9805471034	1.59552172097e+12
58.9052530302	1.53682061154e+12
73.2876367473	1.68500812234e+12
87.8542974994	1.44440658754e+12
102.875467049	1.38364877165e+12
113.80064201	1.42994855729e+12
127.095052465	1.5969268712e+12
